{
	"format_version": "1.8.0",
	"animations": {
		"animation.tentacruel.ground_idle": {
			"loop": true,
			"bones": {
				"body": {
					"position": [0, -3.5, 0]
				},
				"tentacle_front_right1": {
					"rotation": [-15, -30, 30]
				},
				"tentacle_front_right2": {
					"rotation": [0, 0, 30]
				},
				"tentacle_front_right3": {
					"rotation": [0, 0, 30]
				},
				"tentacle_front_right4": {
					"rotation": [0, 0, -30]
				},
				"tentacle_right1": {
					"rotation": [-7.5, -30, 15]
				},
				"tentacle_right3": {
					"rotation": [0, 0, 5]
				},
				"tentacle_right4": {
					"rotation": [0, 0, 35]
				},
				"tentacle_right5": {
					"rotation": [0, 0, 15]
				},
				"tentacle_right6": {
					"rotation": [0, 0, 5]
				},
				"tentacle_right7": {
					"rotation": [0, 0, 5]
				},
				"tentacle_right8": {
					"rotation": [0, 0, 17.5]
				},
				"tentacle_right9": {
					"rotation": [7.5, 30, 15]
				},
				"tentacle_right10": {
					"rotation": [0, 0, 5]
				},
				"tentacle_right11": {
					"rotation": [0, 0, 5]
				},
				"tentacle_right12": {
					"rotation": [0, 0, 15]
				},
				"tentacle_back_right1": {
					"rotation": [17.5, 60, 20]
				},
				"tentacle_back_right2": {
					"rotation": [0, 0, 10]
				},
				"tentacle_back_right3": {
					"rotation": [0, 0, 10]
				},
				"tentacle_back_right4": {
					"rotation": [0, 0, 17.5]
				},
				"tentacle_front_left1": {
					"rotation": [-15, 30, -30]
				},
				"tentacle_front_left2": {
					"rotation": [0, 0, -32.5]
				},
				"tentacle_front_left3": {
					"rotation": [0, 0, -30]
				},
				"tentacle_front_left4": {
					"rotation": [0, 0, 30]
				},
				"tentacle_left1": {
					"rotation": [-7.5, 30, -15]
				},
				"tentacle_left2": {
					"rotation": [0, 0, -5]
				},
				"tentacle_left3": {
					"rotation": [0, 0, -5]
				},
				"tentacle_left4": {
					"rotation": [0, 0, -27.5]
				},
				"tentacle_left5": {
					"rotation": [0, 0, -15]
				},
				"tentacle_left6": {
					"rotation": [0, 0, -5]
				},
				"tentacle_left7": {
					"rotation": [0, 0, -5]
				},
				"tentacle_left8": {
					"rotation": [0, 0, -17.5]
				},
				"tentacle_left9": {
					"rotation": [7.5, -30, -15]
				},
				"tentacle_left10": {
					"rotation": [0, 0, -5]
				},
				"tentacle_left11": {
					"rotation": [0, 0, -5]
				},
				"tentacle_left12": {
					"rotation": [0, 0, -15]
				},
				"tentacle_back_left1": {
					"rotation": [17.5, -60, -20]
				},
				"tentacle_back_left2": {
					"rotation": [0, 0, -10]
				},
				"tentacle_back_left3": {
					"rotation": [0, 0, -10]
				},
				"tentacle_back_left4": {
					"rotation": [0, 0, -17.5]
				}
			}
		},
		"animation.tentacruel.water_idle": {
			"loop": true,
			"bones": {
				"tentacle_front_right1": {
					"rotation": [-22.5, -45, 30]
				},
				"tentacle_front_right2": {
					"rotation": [0, 0, -5]
				},
				"tentacle_front_right3": {
					"rotation": [0, 0, -5]
				},
				"tentacle_front_right4": {
					"rotation": [0, 0, 5]
				},
				"tentacle_right1": {
					"rotation": [-15, -30, 30]
				},
				"tentacle_right2": {
					"rotation": [0, 0, -5]
				},
				"tentacle_right3": {
					"rotation": [0, 0, -5]
				},
				"tentacle_right4": {
					"rotation": [0, 0, 5]
				},
				"tentacle_right5": {
					"rotation": [0, 0, 30]
				},
				"tentacle_right6": {
					"rotation": [0, 0, -5]
				},
				"tentacle_right7": {
					"rotation": [0, 0, -5]
				},
				"tentacle_right8": {
					"rotation": [0, 0, 5]
				},
				"tentacle_right9": {
					"rotation": [15, 30, 30]
				},
				"tentacle_right10": {
					"rotation": [0, 0, -5]
				},
				"tentacle_right11": {
					"rotation": [0, 0, -5]
				},
				"tentacle_right12": {
					"rotation": [0, 0, 5]
				},
				"tentacle_back_right1": {
					"rotation": [45, 60, 50]
				},
				"tentacle_back_right2": {
					"rotation": [0, 0, -5]
				},
				"tentacle_back_right3": {
					"rotation": [0, 0, -5]
				},
				"tentacle_back_right4": {
					"rotation": [0, 0, 5]
				},
				"tentacle_front_left1": {
					"rotation": [-22.5, 45, -30]
				},
				"tentacle_front_left2": {
					"rotation": [0, 0, 5]
				},
				"tentacle_front_left3": {
					"rotation": [0, 0, 5]
				},
				"tentacle_front_left4": {
					"rotation": [0, 0, -5]
				},
				"tentacle_left1": {
					"rotation": [-15, 30, -30]
				},
				"tentacle_left2": {
					"rotation": [0, 0, 5]
				},
				"tentacle_left3": {
					"rotation": [0, 0, 5]
				},
				"tentacle_left4": {
					"rotation": [0, 0, -5]
				},
				"tentacle_left5": {
					"rotation": [0, 0, -30]
				},
				"tentacle_left6": {
					"rotation": [0, 0, 5]
				},
				"tentacle_left7": {
					"rotation": [0, 0, 5]
				},
				"tentacle_left8": {
					"rotation": [0, 0, -5]
				},
				"tentacle_left9": {
					"rotation": [15, -30, -30]
				},
				"tentacle_left10": {
					"rotation": [0, 0, 5]
				},
				"tentacle_left11": {
					"rotation": [0, 0, 5]
				},
				"tentacle_left12": {
					"rotation": [0, 0, -5]
				},
				"tentacle_back_left1": {
					"rotation": [45, -60, -50]
				},
				"tentacle_back_left2": {
					"rotation": [0, 0, 5]
				},
				"tentacle_back_left3": {
					"rotation": [0, 0, 5]
				},
				"tentacle_back_left4": {
					"rotation": [0, 0, -5]
				}
			}
		},
		"animation.tentacruel.water_swim": {
			"loop": true,
			"bones": {
				"tentacle_front_right1": {
					"rotation": [20, -45, -5]
				},
				"tentacle_front_right2": {
					"rotation": [0, 0, -5]
				},
				"tentacle_front_right3": {
					"rotation": [0, 0, -5]
				},
				"tentacle_front_right4": {
					"rotation": [0, 0, 5]
				},
				"tentacle_right1": {
					"rotation": [15, -30, 15]
				},
				"tentacle_right2": {
					"rotation": [0, 0, -5]
				},
				"tentacle_right3": {
					"rotation": [0, 0, -2.5]
				},
				"tentacle_right4": {
					"rotation": [0, 0, 5]
				},
				"tentacle_right5": {
					"rotation": [25, 0, 25]
				},
				"tentacle_right6": {
					"rotation": [0, 0, -5]
				},
				"tentacle_right8": {
					"rotation": [0, 0, 5]
				},
				"tentacle_right9": {
					"rotation": [40, 25, 40]
				},
				"tentacle_right10": {
					"rotation": [0, 0, -5]
				},
				"tentacle_right11": {
					"rotation": [0, 0, 2.5]
				},
				"tentacle_right12": {
					"rotation": [0, 0, 5]
				},
				"tentacle_back_right1": {
					"rotation": [75, 45, 75]
				},
				"tentacle_back_right2": {
					"rotation": [0, 0, -5]
				},
				"tentacle_back_right3": {
					"rotation": [0, 0, -5]
				},
				"tentacle_back_right4": {
					"rotation": [0, 0, 5]
				},
				"tentacle_front_left1": {
					"rotation": [20, 45, 5]
				},
				"tentacle_front_left2": {
					"rotation": [0, 0, 5]
				},
				"tentacle_front_left3": {
					"rotation": [0, 0, 5]
				},
				"tentacle_front_left4": {
					"rotation": [0, 0, -5]
				},
				"tentacle_left1": {
					"rotation": [15, 30, -15]
				},
				"tentacle_left2": {
					"rotation": [0, 0, 5]
				},
				"tentacle_left3": {
					"rotation": [0, 0, 2.5]
				},
				"tentacle_left4": {
					"rotation": [0, 0, -5]
				},
				"tentacle_left5": {
					"rotation": [25, 0, -25]
				},
				"tentacle_left6": {
					"rotation": [0, 0, 5]
				},
				"tentacle_left8": {
					"rotation": [0, 0, -5]
				},
				"tentacle_left9": {
					"rotation": [40, -25, -40]
				},
				"tentacle_left10": {
					"rotation": [0, 0, 5]
				},
				"tentacle_left11": {
					"rotation": [0, 0, -2.5]
				},
				"tentacle_left12": {
					"rotation": [0, 0, -5]
				},
				"tentacle_back_left1": {
					"rotation": [75, -45, -75]
				},
				"tentacle_back_left2": {
					"rotation": [0, 0, 5]
				},
				"tentacle_back_left3": {
					"rotation": [0, 0, -5]
				},
				"tentacle_back_left4": {
					"rotation": [0, 0, -5]
				},
				"body": {
					"rotation": [15, 0, 0],
					"position": [0, 0, -3]
				}
			}
		}
	}
}