{
    "name": "cleffa",
    "nationalPokedexNumber": 173,
    "primaryType": "fairy",
    "abilities": [
        "cutecharm",
        "magicguard",
        "h:friendguard"
    ],
    "baseStats": {
        "hp": 50,
        "attack": 25,
        "defence": 28,
        "special_attack": 45,
        "special_defence": 55,
        "speed": 15
    },
    "catchRate": 150,
    "maleRatio": 0.25,
    "shoulderMountable": true,
    "forms": [],
    "baseExperienceYield": 44,
    "experienceGroup": "fast",
    "eggCycles": 10,
    "eggGroups": [
        "undiscovered"
    ],
    "moves": [
        "1:pound",
        "1:splash",
        "1:copycat",
        "4:sing",
        "8:sweetkiss",
        "12:disarmingvoice",
        "16:encore",
        "20:charm",
        "egg:aromatherapy",
        "egg:bellydrum",
        "egg:covet",
        "egg:healpulse",
        "egg:mimic",
        "egg:present",
        "egg:tickle",
        "egg:wish",
        "tm:amnesia",
        "tm:attract",
        "tm:bodyslam",
        "tm:captivate",
        "tm:charm",
        "tm:confide",
        "tm:curse",
        "tm:detect",
        "tm:dig",
        "tm:doubleteam",
        "tm:drainingkiss",
        "tm:dreameater",
        "tm:echoedvoice",
        "tm:encore",
        "tm:endure",
        "tm:facade",
        "tm:faketears",
        "tm:fireblast",
        "tm:flamethrower",
        "tm:flash",
        "tm:fling",
        "tm:frustration",
        "tm:grassknot",
        "tm:helpinghand",
        "tm:hiddenpower",
        "tm:hypervoice",
        "tm:icywind",
        "tm:incinerate",
        "tm:irontail",
        "tm:lightscreen",
        "tm:magicalleaf",
        "tm:megakick",
        "tm:megapunch",
        "tm:metronome",
        "tm:mistyterrain",
        "tm:naturalgift",
        "tm:playrough",
        "tm:protect",
        "tm:psychic",
        "tm:psychup",
        "tm:psyshock",
        "tm:raindance",
        "tm:reflect",
        "tm:rest",
        "tm:return",
        "tm:round",
        "tm:safeguard",
        "tm:secretpower",
        "tm:shadowball",
        "tm:sleeptalk",
        "tm:snore",
        "tm:solarbeam",
        "tm:storedpower",
        "tm:substitute",
        "tm:sunnyday",
        "tm:swagger",
        "tm:thunderwave",
        "tm:toxic",
        "tm:trick",
        "tm:uproar",
        "tm:wonderroom",
        "tm:workup",
        "tm:zapcannon",
        "tm:zenheadbutt",
        "tutor:afteryou",
        "tutor:counter",
        "tutor:covet",
        "tutor:defensecurl",
        "tutor:doubleedge",
        "tutor:endeavor",
        "tutor:gravity",
        "tutor:headbutt",
        "tutor:lastresort",
        "tutor:magiccoat",
        "tutor:mudslap",
        "tutor:nightmare",
        "tutor:recycle",
        "tutor:roleplay",
        "tutor:rollout",
        "tutor:seismictoss",
        "tutor:shockwave",
        "tutor:signalbeam",
        "tutor:softboiled",
        "tutor:telekinesis",
        "tutor:waterpulse"
    ],
    "labels": [
        "baby",
        "gen2"
    ],
    "pokedex": [
        "cobblemon.species.cleffa.desc1",
        "cobblemon.species.cleffa.desc2"
    ],
    "evolutions": [
        {
            "id": "cleffa_clefairy",
            "variant": "level_up",
            "result": "clefairy",
            "consumeHeldItem": false,
            "learnableMoves": [],
            "requirements": [
                {
                    "variant": "friendship",
                    "amount": 160
                }
            ]
        }
    ],
    "baseScale": 0.7,
    "hitbox": {
        "width": 0.7,
        "height": 0.6,
        "fixed": false
    },
    "baseFriendship": 140,
    "evYield": {
        "special_defence": 1
    },
    "height": 3,
    "weight": 30
}