{
    "name": "croconaw",
    "nationalPokedexNumber": 159,
    "primaryType": "water",
    "abilities": [
        "torrent",
        "h:sheerforce"
    ],
    "baseStats": {
        "hp": 65,
        "attack": 80,
        "defence": 80,
        "special_attack": 59,
        "special_defence": 63,
        "speed": 58
    },
    "catchRate": 45,
    "maleRatio": 0.875,
    "shoulderMountable": false,
    "forms": [],
    "baseExperienceYield": 142,
    "experienceGroup": "mediumslow",
    "eggCycles": 20,
    "eggGroups": [
        "monster",
        "water_1"
    ],
    "moves": [
        "1:scratch",
        "1:leer",
        "1:watergun",
        "6:watergun",
        "8:rage",
        "13:bite",
        "15:scaryface",
        "21:icefang",
        "24:flail",
        "30:crunch",
        "33:chipaway",
        "39:slash",
        "42:screech",
        "48:thrash",
        "51:aquatail",
        "57:superpower",
        "60:hydropump",
        "tm:aerialace",
        "tm:attract",
        "tm:blizzard",
        "tm:brickbreak",
        "tm:captivate",
        "tm:confide",
        "tm:curse",
        "tm:cut",
        "tm:detect",
        "tm:dig",
        "tm:dive",
        "tm:doubleteam",
        "tm:dragonclaw",
        "tm:endure",
        "tm:facade",
        "tm:fling",
        "tm:frustration",
        "tm:hail",
        "tm:hiddenpower",
        "tm:honeclaws",
        "tm:icebeam",
        "tm:naturalgift",
        "tm:poweruppunch",
        "tm:protect",
        "tm:raindance",
        "tm:rest",
        "tm:return",
        "tm:roar",
        "tm:rockslide",
        "tm:rocksmash",
        "tm:rocktomb",
        "tm:round",
        "tm:scald",
        "tm:secretpower",
        "tm:shadowclaw",
        "tm:sleeptalk",
        "tm:strength",
        "tm:substitute",
        "tm:surf",
        "tm:swagger",
        "tm:swordsdance",
        "tm:toxic",
        "tm:waterfall",
        "tm:whirlpool",
        "tm:workup",
        "tutor:ancientpower",
        "tutor:aquatail",
        "tutor:block",
        "tutor:bodyslam",
        "tutor:counter",
        "tutor:doubleedge",
        "tutor:dynamicpunch",
        "tutor:focuspunch",
        "tutor:furycutter",
        "tutor:headbutt",
        "tutor:icepunch",
        "tutor:icywind",
        "tutor:irontail",
        "tutor:lowkick",
        "tutor:megakick",
        "tutor:megapunch",
        "tutor:mimic",
        "tutor:mudslap",
        "tutor:seismictoss",
        "tutor:snore",
        "tutor:spite",
        "tutor:superpower",
        "tutor:uproar",
        "tutor:waterpledge",
        "tutor:waterpulse"
    ],
    "labels": [
        "gen2"
    ],
    "pokedex": [
        "cobblemon.species.croconaw.desc1",
        "cobblemon.species.croconaw.desc2"
    ],
    "preEvolution": "totodile",
    "evolutions": [
        {
            "id": "croconaw_feraligatr",
            "variant": "level_up",
            "result": "feraligatr",
            "consumeHeldItem": false,
            "learnableMoves": [],
            "requirements": [
                {
                    "variant": "level",
                    "minLevel": 30
                }
            ]
        }
    ],
    "baseScale": 1.0,
    "hitbox": {
        "width": 1.0,
        "height": 1.0,
        "fixed": false
    },
    "baseFriendship": 70,
    "evYield": {
        "attack": 1,
        "defence": 1
    },
    "height": 11,
    "weight": 250
}