{
    "name": "donphan",
    "nationalPokedexNumber": 232,
    "primaryType": "ground",
    "abilities": [
        "sturdy",
        "h:sandveil"
    ],
    "baseStats": {
        "hp": 90,
        "attack": 120,
        "defence": 120,
        "special_attack": 60,
        "special_defence": 60,
        "speed": 50
    },
    "catchRate": 60,
    "maleRatio": 0.5,
    "shoulderMountable": false,
    "forms": [],
    "baseExperienceYield": 175,
    "experienceGroup": "mediumfast",
    "eggCycles": 20,
    "eggGroups": [
        "field"
    ],
    "moves": [
        "0:furyattack",
        "1:hornattack",
        "1:furyattack",
        "1:growl",
        "1:defensecurl",
        "1:odorsleuth",
        "1:thunderfang",
        "1:firefang",
        "1:bulldoze",
        "6:rapidspin",
        "10:rollout",
        "15:assurance",
        "17:flail",
        "19:knockoff",
        "24:slam",
        "30:magnitude",
        "37:scaryface",
        "43:earthquake",
        "50:gigaimpact",
        "tm:attract",
        "tm:brutalswing",
        "tm:bulldoze",
        "tm:captivate",
        "tm:confide",
        "tm:curse",
        "tm:doubleteam",
        "tm:earthquake",
        "tm:echoedvoice",
        "tm:endure",
        "tm:facade",
        "tm:frustration",
        "tm:gigaimpact",
        "tm:gyroball",
        "tm:hiddenpower",
        "tm:hyperbeam",
        "tm:naturalgift",
        "tm:poisonjab",
        "tm:protect",
        "tm:rest",
        "tm:return",
        "tm:roar",
        "tm:rockpolish",
        "tm:rockslide",
        "tm:rocksmash",
        "tm:rocktomb",
        "tm:round",
        "tm:sandstorm",
        "tm:secretpower",
        "tm:sleeptalk",
        "tm:stoneedge",
        "tm:strength",
        "tm:substitute",
        "tm:sunnyday",
        "tm:swagger",
        "tm:toxic",
        "tutor:ancientpower",
        "tutor:block",
        "tutor:bodyslam",
        "tutor:bounce",
        "tutor:counter",
        "tutor:doubleedge",
        "tutor:earthpower",
        "tutor:endeavor",
        "tutor:gunkshot",
        "tutor:headbutt",
        "tutor:hypervoice",
        "tutor:irondefense",
        "tutor:irontail",
        "tutor:knockoff",
        "tutor:lastresort",
        "tutor:mimic",
        "tutor:mudslap",
        "tutor:seedbomb",
        "tutor:snore",
        "tutor:stealthrock",
        "tutor:stompingtantrum",
        "tutor:superpower"
    ],
    "labels": [
        "gen2"
    ],
    "pokedex": [
        "cobblemon.species.donphan.desc1",
        "cobblemon.species.donphan.desc2"
    ],
    "preEvolution": "phanpy",
    "evolutions": [],
    "baseScale": 1.0,
    "hitbox": {
        "width": 1.0,
        "height": 1.0,
        "fixed": false
    },
    "baseFriendship": 70,
    "evYield": {
        "attack": 1,
        "defence": 1
    },
    "height": 11,
    "weight": 1200
}