{
    "name": "dunsparce",
    "nationalPokedexNumber": 206,
    "primaryType": "normal",
    "abilities": [
        "serenegrace",
        "runaway",
        "h:rattled"
    ],
    "baseStats": {
        "hp": 100,
        "attack": 70,
        "defence": 70,
        "special_attack": 65,
        "special_defence": 65,
        "speed": 45
    },
    "catchRate": 190,
    "maleRatio": 0.5,
    "shoulderMountable": false,
    "forms": [],
    "baseExperienceYield": 145,
    "experienceGroup": "mediumfast",
    "eggCycles": 20,
    "eggGroups": [
        "field"
    ],
    "moves": [
        "1:rage",
        "1:defensecurl",
        "1:flail",
        "4:mudslap",
        "6:spite",
        "8:rollout",
        "8:pursuit",
        "12:glare",
        "16:screech",
        "20:ancientpower",
        "24:drillrun",
        "28:yawn",
        "32:bodyslam",
        "36:takedown",
        "40:roost",
        "44:dragonrush",
        "48:coil",
        "52:doubleedge",
        "56:endeavor",
        "egg:aquatail",
        "egg:astonish",
        "egg:bide",
        "egg:bite",
        "egg:curse",
        "egg:headbutt",
        "egg:lastresort",
        "egg:magiccoat",
        "egg:secretpower",
        "egg:trumpcard",
        "tm:agility",
        "tm:airslash",
        "tm:amnesia",
        "tm:attract",
        "tm:batonpass",
        "tm:blizzard",
        "tm:bodyslam",
        "tm:bulldoze",
        "tm:calmmind",
        "tm:captivate",
        "tm:chargebeam",
        "tm:confide",
        "tm:dig",
        "tm:doubleteam",
        "tm:dreameater",
        "tm:drillrun",
        "tm:earthquake",
        "tm:endure",
        "tm:facade",
        "tm:fireblast",
        "tm:flamethrower",
        "tm:frustration",
        "tm:gyroball",
        "tm:helpinghand",
        "tm:hex",
        "tm:hiddenpower",
        "tm:icebeam",
        "tm:incinerate",
        "tm:irontail",
        "tm:naturalgift",
        "tm:poisonjab",
        "tm:protect",
        "tm:psychup",
        "tm:raindance",
        "tm:rest",
        "tm:retaliate",
        "tm:return",
        "tm:rockslide",
        "tm:rocksmash",
        "tm:rocktomb",
        "tm:round",
        "tm:screech",
        "tm:shadowball",
        "tm:sleeptalk",
        "tm:snore",
        "tm:solarbeam",
        "tm:stealthrock",
        "tm:stompingtantrum",
        "tm:storedpower",
        "tm:strength",
        "tm:substitute",
        "tm:sunnyday",
        "tm:swagger",
        "tm:thief",
        "tm:thunder",
        "tm:thunderbolt",
        "tm:thunderwave",
        "tm:toxic",
        "tm:wildcharge",
        "tm:zapcannon",
        "tm:zenheadbutt",
        "tutor:bind",
        "tutor:counter",
        "tutor:dualwingbeat",
        "tutor:mimic",
        "tutor:nightmare",
        "tutor:painsplit",
        "tutor:scaleshot",
        "tutor:shockwave",
        "tutor:skittersmack",
        "tutor:spite",
        "tutor:terrainpulse",
        "tutor:waterpulse"
    ],
    "labels": [
        "gen2"
    ],
    "pokedex": [
        "cobblemon.species.dunsparce.desc1",
        "cobblemon.species.dunsparce.desc2"
    ],
    "evolutions": [],
    "baseScale": 1.0,
    "hitbox": {
        "width": 1.0,
        "height": 1.0,
        "fixed": false
    },
    "baseFriendship": 50,
    "evYield": {
        "hp": 1
    },
    "height": 15,
    "weight": 140
}