{
    "name": "gligar",
    "nationalPokedexNumber": 207,
    "primaryType": "ground",
    "secondaryType": "flying",
    "abilities": [
        "hypercutter",
        "sandveil",
        "h:immunity"
    ],
    "baseStats": {
        "hp": 65,
        "attack": 75,
        "defence": 105,
        "special_attack": 35,
        "special_defence": 65,
        "speed": 85
    },
    "catchRate": 60,
    "maleRatio": 0.5,
    "shoulderMountable": false,
    "forms": [],
    "baseExperienceYield": 86,
    "experienceGroup": "mediumslow",
    "eggCycles": 20,
    "eggGroups": [
        "bug"
    ],
    "moves": [
        "1:poisonsting",
        "4:sandattack",
        "7:harden",
        "10:knockoff",
        "13:quickattack",
        "16:furycutter",
        "19:feintattack",
        "22:acrobatics",
        "27:slash",
        "30:uturn",
        "35:screech",
        "40:xscissor",
        "45:skyuppercut",
        "50:swordsdance",
        "55:guillotine",
        "egg:agility",
        "egg:batonpass",
        "egg:counter",
        "egg:crosspoison",
        "egg:doubleedge",
        "egg:feint",
        "egg:metalclaw",
        "egg:nightslash",
        "egg:poisontail",
        "egg:powertrick",
        "egg:razorwind",
        "egg:rockclimb",
        "egg:sandtomb",
        "egg:wingattack",
        "tm:acrobatics",
        "tm:aerialace",
        "tm:attract",
        "tm:brickbreak",
        "tm:bulldoze",
        "tm:captivate",
        "tm:confide",
        "tm:curse",
        "tm:cut",
        "tm:darkpulse",
        "tm:detect",
        "tm:dig",
        "tm:doubleteam",
        "tm:earthquake",
        "tm:endure",
        "tm:facade",
        "tm:falseswipe",
        "tm:fling",
        "tm:frustration",
        "tm:hiddenpower",
        "tm:honeclaws",
        "tm:naturalgift",
        "tm:payback",
        "tm:poisonjab",
        "tm:protect",
        "tm:raindance",
        "tm:rest",
        "tm:return",
        "tm:rockpolish",
        "tm:rockslide",
        "tm:rocksmash",
        "tm:rocktomb",
        "tm:roost",
        "tm:round",
        "tm:sandstorm",
        "tm:secretpower",
        "tm:sleeptalk",
        "tm:sludgebomb",
        "tm:steelwing",
        "tm:stoneedge",
        "tm:strength",
        "tm:strugglebug",
        "tm:substitute",
        "tm:sunnyday",
        "tm:swagger",
        "tm:swordsdance",
        "tm:taunt",
        "tm:thief",
        "tm:torment",
        "tm:toxic",
        "tm:uturn",
        "tm:venoshock",
        "tm:xscissor",
        "tutor:aquatail",
        "tutor:bugbite",
        "tutor:defog",
        "tutor:dreameater",
        "tutor:earthpower",
        "tutor:headbutt",
        "tutor:irontail",
        "tutor:knockoff",
        "tutor:mimic",
        "tutor:snore",
        "tutor:stealthrock",
        "tutor:swift",
        "tutor:tailwind",
        "tutor:throatchop"
    ],
    "labels": [
        "gen2"
    ],
    "pokedex": [
        "cobblemon.species.gligar.desc1",
        "cobblemon.species.gligar.desc2"
    ],
    "evolutions": [
        {
            "id": "gligar_gliscor",
            "variant": "level_up",
            "result": "gliscor",
            "consumeHeldItem": true,
            "learnableMoves": [],
            "requirements": [
                {
                    "variant": "time_range",
                    "range": "night"
                },
                {
                    "variant": "held_item",
                    "item": "cobblemon:razor_fang"
                }
            ]
        }
    ],
    "baseScale": 1.0,
    "hitbox": {
        "width": 1.0,
        "height": 1.0,
        "fixed": false
    },
    "baseFriendship": 70,
    "evYield": {
        "defence": 1
    },
    "height": 11,
    "weight": 648
}