{
    "name": "lanturn",
    "nationalPokedexNumber": 171,
    "primaryType": "water",
    "secondaryType": "electric",
    "abilities": [
        "voltabsorb",
        "illuminate",
        "h:waterabsorb"
    ],
    "baseStats": {
        "hp": 125,
        "attack": 58,
        "defence": 58,
        "special_attack": 76,
        "special_defence": 76,
        "speed": 67
    },
    "catchRate": 75,
    "maleRatio": 0.5,
    "shoulderMountable": false,
    "forms": [],
    "baseExperienceYield": 161,
    "experienceGroup": "slow",
    "eggCycles": 20,
    "eggGroups": [
        "water_2"
    ],
    "moves": [
        "0:stockpile",
        "0:spitup",
        "0:swallow",
        "1:supersonic",
        "1:watergun",
        "1:thunderwave",
        "1:bubble",
        "1:stockpile",
        "1:spitup",
        "1:swallow",
        "1:electroball",
        "1:eerieimpulse",
        "1:spotlight",
        "12:bubblebeam",
        "16:confuseray",
        "20:spark",
        "24:charge",
        "29:signalbeam",
        "30:discharge",
        "36:aquaring",
        "42:flail",
        "48:takedown",
        "54:hydropump",
        "54:iondeluge",
        "tm:agility",
        "tm:amnesia",
        "tm:attract",
        "tm:blizzard",
        "tm:bounce",
        "tm:brine",
        "tm:captivate",
        "tm:chargebeam",
        "tm:confide",
        "tm:curse",
        "tm:dazzlinggleam",
        "tm:dive",
        "tm:doubleteam",
        "tm:eerieimpulse",
        "tm:electroball",
        "tm:endure",
        "tm:facade",
        "tm:flash",
        "tm:frustration",
        "tm:gigaimpact",
        "tm:hail",
        "tm:hiddenpower",
        "tm:hydropump",
        "tm:hyperbeam",
        "tm:icebeam",
        "tm:icywind",
        "tm:naturalgift",
        "tm:protect",
        "tm:raindance",
        "tm:rest",
        "tm:return",
        "tm:round",
        "tm:scald",
        "tm:screech",
        "tm:secretpower",
        "tm:sleeptalk",
        "tm:snore",
        "tm:substitute",
        "tm:surf",
        "tm:swagger",
        "tm:thunder",
        "tm:thunderbolt",
        "tm:thunderwave",
        "tm:toxic",
        "tm:voltswitch",
        "tm:waterfall",
        "tm:whirlpool",
        "tm:wildcharge",
        "tm:zapcannon",
        "tutor:aquatail",
        "tutor:doubleedge",
        "tutor:healbell",
        "tutor:mimic",
        "tutor:risingvoltage",
        "tutor:shockwave",
        "tutor:signalbeam",
        "tutor:suckerpunch",
        "tutor:waterpulse"
    ],
    "labels": [
        "gen2"
    ],
    "pokedex": [
        "cobblemon.species.lanturn.desc1",
        "cobblemon.species.lanturn.desc2"
    ],
    "preEvolution": "chinchou",
    "evolutions": [],
    "baseScale": 1.0,
    "hitbox": {
        "width": 1.0,
        "height": 1.0,
        "fixed": false
    },
    "baseFriendship": 50,
    "evYield": {
        "hp": 2
    },
    "height": 12,
    "weight": 225
}