{
    "name": "mantine",
    "nationalPokedexNumber": 226,
    "primaryType": "water",
    "secondaryType": "flying",
    "abilities": [
        "swiftswim",
        "waterabsorb",
        "h:waterveil"
    ],
    "baseStats": {
        "hp": 85,
        "attack": 40,
        "defence": 70,
        "special_attack": 80,
        "special_defence": 140,
        "speed": 70
    },
    "catchRate": 25,
    "maleRatio": 0.5,
    "shoulderMountable": false,
    "forms": [],
    "baseExperienceYield": 170,
    "experienceGroup": "slow",
    "eggCycles": 25,
    "eggGroups": [
        "water_1"
    ],
    "moves": [
        "1:wingattack",
        "1:tackle",
        "1:supersonic",
        "1:watergun",
        "1:psybeam",
        "1:bubble",
        "1:signalbeam",
        "1:bulletseed",
        "1:roost",
        "12:waterpulse",
        "16:wideguard",
        "20:agility",
        "24:bubblebeam",
        "28:headbutt",
        "32:airslash",
        "36:aquaring",
        "40:bounce",
        "44:takedown",
        "48:hydropump",
        "egg:confuseray",
        "egg:haze",
        "egg:mirrorcoat",
        "egg:mudsport",
        "egg:slam",
        "egg:splash",
        "egg:tailwind",
        "egg:twister",
        "egg:watersport",
        "tm:acrobatics",
        "tm:aerialace",
        "tm:agility",
        "tm:airslash",
        "tm:amnesia",
        "tm:assurance",
        "tm:attract",
        "tm:blizzard",
        "tm:bodypress",
        "tm:bodyslam",
        "tm:bounce",
        "tm:brine",
        "tm:bulldoze",
        "tm:bulletseed",
        "tm:captivate",
        "tm:confide",
        "tm:curse",
        "tm:dive",
        "tm:doubleteam",
        "tm:earthquake",
        "tm:endure",
        "tm:facade",
        "tm:frustration",
        "tm:gigaimpact",
        "tm:gunkshot",
        "tm:hail",
        "tm:helpinghand",
        "tm:hiddenpower",
        "tm:hurricane",
        "tm:hydropump",
        "tm:hyperbeam",
        "tm:icebeam",
        "tm:icywind",
        "tm:ironhead",
        "tm:liquidation",
        "tm:naturalgift",
        "tm:protect",
        "tm:raindance",
        "tm:rest",
        "tm:return",
        "tm:rockblast",
        "tm:rockslide",
        "tm:rocktomb",
        "tm:round",
        "tm:scald",
        "tm:secretpower",
        "tm:seedbomb",
        "tm:sleeptalk",
        "tm:snore",
        "tm:substitute",
        "tm:surf",
        "tm:swagger",
        "tm:swift",
        "tm:toxic",
        "tm:waterfall",
        "tm:whirlpool",
        "tutor:aircutter",
        "tutor:aquatail",
        "tutor:defog",
        "tutor:doubleedge",
        "tutor:dualwingbeat",
        "tutor:mimic",
        "tutor:mudslap",
        "tutor:signalbeam",
        "tutor:stringshot"
    ],
    "labels": [
        "gen2"
    ],
    "pokedex": [
        "cobblemon.species.mantine.desc1",
        "cobblemon.species.mantine.desc2"
    ],
    "preEvolution": "mantyke",
    "evolutions": [],
    "baseScale": 1.0,
    "hitbox": {
        "width": 1.0,
        "height": 1.0,
        "fixed": false
    },
    "baseFriendship": 50,
    "evYield": {
        "special_defence": 2
    },
    "height": 21,
    "weight": 2200
}