{
    "name": "pupitar",
    "nationalPokedexNumber": 247,
    "primaryType": "rock",
    "secondaryType": "ground",
    "abilities": [
        "shedskin"
    ],
    "baseStats": {
        "hp": 70,
        "attack": 84,
        "defence": 70,
        "special_attack": 65,
        "special_defence": 70,
        "speed": 51
    },
    "catchRate": 45,
    "maleRatio": 0.5,
    "shoulderMountable": false,
    "forms": [],
    "baseExperienceYield": 144,
    "experienceGroup": "slow",
    "eggCycles": 40,
    "eggGroups": [
        "monster"
    ],
    "moves": [
        "0:irondefense",
        "1:tackle",
        "1:leer",
        "1:rockthrow",
        "1:irondefense",
        "1:payback",
        "9:bite",
        "12:scaryface",
        "14:chipaway",
        "15:rockslide",
        "18:stompingtantrum",
        "21:screech",
        "24:darkpulse",
        "27:crunch",
        "33:earthquake",
        "37:stoneedge",
        "42:thrash",
        "47:sandstorm",
        "52:hyperbeam",
        "tm:assurance",
        "tm:attract",
        "tm:bodyslam",
        "tm:brickbreak",
        "tm:bulldoze",
        "tm:captivate",
        "tm:confide",
        "tm:crunch",
        "tm:curse",
        "tm:darkpulse",
        "tm:detect",
        "tm:dig",
        "tm:doubleteam",
        "tm:dragondance",
        "tm:earthpower",
        "tm:earthquake",
        "tm:endure",
        "tm:facade",
        "tm:focusenergy",
        "tm:frustration",
        "tm:hiddenpower",
        "tm:hyperbeam",
        "tm:irondefense",
        "tm:ironhead",
        "tm:irontail",
        "tm:muddywater",
        "tm:naturalgift",
        "tm:outrage",
        "tm:payback",
        "tm:poweruppunch",
        "tm:protect",
        "tm:raindance",
        "tm:rest",
        "tm:retaliate",
        "tm:return",
        "tm:rockpolish",
        "tm:rockslide",
        "tm:rocksmash",
        "tm:rocktomb",
        "tm:round",
        "tm:sandstorm",
        "tm:sandtomb",
        "tm:scaryface",
        "tm:screech",
        "tm:secretpower",
        "tm:sleeptalk",
        "tm:smackdown",
        "tm:snarl",
        "tm:snore",
        "tm:stealthrock",
        "tm:stompingtantrum",
        "tm:stoneedge",
        "tm:substitute",
        "tm:sunnyday",
        "tm:superpower",
        "tm:swagger",
        "tm:taunt",
        "tm:torment",
        "tm:toxic",
        "tm:uproar",
        "tutor:ancientpower",
        "tutor:doubleedge",
        "tutor:headbutt",
        "tutor:mimic",
        "tutor:mudslap",
        "tutor:spite"
    ],
    "labels": [
        "gen2"
    ],
    "pokedex": [
        "cobblemon.species.pupitar.desc1",
        "cobblemon.species.pupitar.desc2"
    ],
    "preEvolution": "larvitar",
    "evolutions": [
        {
            "id": "pupitar_tyranitar",
            "variant": "level_up",
            "result": "tyranitar",
            "consumeHeldItem": false,
            "learnableMoves": [],
            "requirements": [
                {
                    "variant": "level",
                    "minLevel": 55
                }
            ]
        }
    ],
    "baseScale": 1.0,
    "hitbox": {
        "width": 1.0,
        "height": 1.0,
        "fixed": false
    },
    "baseFriendship": 35,
    "evYield": {
        "attack": 2
    },
    "height": 12,
    "weight": 1520
}