{
  "name": "typhlosion",
  "nationalPokedexNumber": 157,
  "primaryType": "fire",
  "abilities": ["blaze", "h:flashfire"],
  "baseStats": {
    "hp": 78,
    "attack": 84,
    "defence": 78,
    "special_attack": 109,
    "special_defence": 85,
    "speed": 100
  },
  "catchRate": 45,
  "maleRatio": 0.875,
  "shoulderMountable": false,
  "forms": [
    {
      "name": "normal"
    },
    {
      "name": "hisui",
      "secondaryType": "ghost",
      "baseStats": {
        "hp": 73,
        "attack": 84,
        "defence": 78,
        "special_attack": 119,
        "special_defence": 85,
        "speed": 95
      },
      "moves": [
        "1:hex",
        "1:quickattack",
        "6:ember",
        "11:rollout",
        "18:flamewheel",
        "25:swift",
        "34:flamethrower",
        "40:infernalparade",
        "43:overheat",
        "43:shadowball",
        "tutor:aerialace",
        "tutor:bulldoze",
        "tutor:calmmind",
        "tutor:drainpunch",
        "tutor:firepunch",
        "tutor:flamethrower",
        "tutor:gigaimpact",
        "tutor:hyperbeam",
        "tutor:irontail",
        "tutor:mysticalfire",
        "tutor:ominouswind",
        "tutor:rest",
        "tutor:rockslide",
        "tutor:rocksmash",
        "tutor:shadowball",
        "tutor:shadowclaw",
        "tutor:swift",
        "tutor:thunderpunch",
        "tutor:wildcharge"
      ],
      "pokedex": [
        "cobblemon.form.typhlosion-hisui.desc1",
        "cobblemon.form.typhlosion-hisui.desc2"
      ],
      "height": 16,
      "weight": 698,
      "labels": ["gen2", "hisui_regional", "regional"],
      "preEvolution": "quilava form=hisui"
    }
  ],
  "baseExperienceYield": 240,
  "experienceGroup": "mediumslow",
  "eggCycles": 20,
  "eggGroups": ["field"],
  "moves": [
    "1:tackle",
    "1:doubleedge",
    "1:leer",
    "1:ember",
    "1:smokescreen",
    "1:eruption",
    "1:gyroball",
    "6:smokescreen",
    "10:ember",
    "13:quickattack",
    "20:flamewheel",
    "24:defensecurl",
    "31:swift",
    "35:flamecharge",
    "43:lavaplume",
    "48:flamethrower",
    "56:inferno",
    "61:rollout",
    "69:doubleedge",
    "74:burnup",
    "82:eruption",
    "tm:aerialace",
    "tm:attract",
    "tm:brickbreak",
    "tm:bulldoze",
    "tm:captivate",
    "tm:confide",
    "tm:curse",
    "tm:cut",
    "tm:detect",
    "tm:dig",
    "tm:doubleteam",
    "tm:earthquake",
    "tm:endure",
    "tm:facade",
    "tm:fireblast",
    "tm:flamecharge",
    "tm:flamethrower",
    "tm:fling",
    "tm:focusblast",
    "tm:frustration",
    "tm:gigaimpact",
    "tm:gyroball",
    "tm:hiddenpower",
    "tm:hyperbeam",
    "tm:incinerate",
    "tm:irontail",
    "tm:naturalgift",
    "tm:naturepower",
    "tm:overheat",
    "tm:poweruppunch",
    "tm:protect",
    "tm:rest",
    "tm:return",
    "tm:roar",
    "tm:rockclimb",
    "tm:rockslide",
    "tm:rocksmash",
    "tm:rocktomb",
    "tm:round",
    "tm:secretpower",
    "tm:shadowclaw",
    "tm:sleeptalk",
    "tm:solarbeam",
    "tm:strength",
    "tm:substitute",
    "tm:sunnyday",
    "tm:swagger",
    "tm:toxic",
    "tm:wildcharge",
    "tm:willowisp",
    "tm:workup",
    "tutor:blastburn",
    "tutor:bodyslam",
    "tutor:counter",
    "tutor:covet",
    "tutor:dynamicpunch",
    "tutor:firepledge",
    "tutor:firepunch",
    "tutor:focuspunch",
    "tutor:furycutter",
    "tutor:headbutt",
    "tutor:heatwave",
    "tutor:laserfocus",
    "tutor:lowkick",
    "tutor:megakick",
    "tutor:megapunch",
    "tutor:mimic",
    "tutor:mudslap",
    "tutor:seismictoss",
    "tutor:snore",
    "tutor:stompingtantrum",
    "tutor:throatchop",
    "tutor:thunderpunch"
  ],
  "labels": ["gen2", "johto_regional", "regional"],
  "pokedex": [
    "cobblemon.species.typhlosion.desc1",
    "cobblemon.species.typhlosion.desc2"
  ],
  "preEvolution": "quilava",
  "evolutions": [],
  "baseScale": 1.0,
  "hitbox": {
    "width": 1.0,
    "height": 1.0,
    "fixed": false
  },
  "baseFriendship": 70,
  "evYield": {
    "special_attack": 3
  },
  "height": 17,
  "weight": 795
}
