{
    "name": "yanma",
    "nationalPokedexNumber": 193,
    "primaryType": "bug",
    "secondaryType": "flying",
    "abilities": [
        "speedboost",
        "compoundeyes",
        "h:frisk"
    ],
    "baseStats": {
        "hp": 65,
        "attack": 65,
        "defence": 45,
        "special_attack": 75,
        "special_defence": 45,
        "speed": 95
    },
    "catchRate": 75,
    "maleRatio": 0.5,
    "shoulderMountable": false,
    "forms": [],
    "baseExperienceYield": 78,
    "experienceGroup": "mediumfast",
    "eggCycles": 20,
    "eggGroups": [
        "bug"
    ],
    "behaviour": {
        "moving": {
            "fly": {
                "canFly": true
            },
            "walk": {
                "canWalk": false
            }
        }
    },
    "moves": [
        "1:tackle",
        "1:foresight",
        "6:quickattack",
        "11:doubleteam",
        "14:sonicboom",
        "17:detect",
        "22:supersonic",
        "27:uproar",
        "30:pursuit",
        "33:ancientpower",
        "38:hypnosis",
        "43:wingattack",
        "46:screech",
        "49:uturn",
        "54:airslash",
        "57:bugbuzz",
        "egg:doubleedge",
        "egg:feint",
        "egg:feintattack",
        "egg:leechlife",
        "egg:pursuit",
        "egg:reversal",
        "egg:secretpower",
        "egg:signalbeam",
        "egg:silverwind",
        "egg:whirlwind",
        "tm:aerialace",
        "tm:attract",
        "tm:captivate",
        "tm:confide",
        "tm:curse",
        "tm:doubleteam",
        "tm:dreameater",
        "tm:endure",
        "tm:facade",
        "tm:flash",
        "tm:frustration",
        "tm:hiddenpower",
        "tm:naturalgift",
        "tm:protect",
        "tm:psychic",
        "tm:rest",
        "tm:return",
        "tm:roost",
        "tm:round",
        "tm:shadowball",
        "tm:sleeptalk",
        "tm:solarbeam",
        "tm:steelwing",
        "tm:substitute",
        "tm:sunnyday",
        "tm:swagger",
        "tm:thief",
        "tm:toxic",
        "tm:uturn",
        "tutor:aircutter",
        "tutor:bugbite",
        "tutor:defog",
        "tutor:gigadrain",
        "tutor:headbutt",
        "tutor:mimic",
        "tutor:ominouswind",
        "tutor:signalbeam",
        "tutor:snore",
        "tutor:stringshot",
        "tutor:swift",
        "tutor:tailwind",
        "tutor:uproar"
    ],
    "labels": [
        "gen2"
    ],
    "pokedex": [
        "cobblemon.species.yanma.desc1",
        "cobblemon.species.yanma.desc2"
    ],
    "evolutions": [
        {
            "id": "yanma_yanmega",
            "variant": "level_up",
            "result": "yanmega",
            "consumeHeldItem": false,
            "learnableMoves": [],
            "requirements": [
                {
                    "variant": "has_move",
                    "move": "ancientpower"
                }
            ]
        }
    ],
    "baseScale": 0.5,
    "hitbox": {
        "width": 1.0,
        "height": 1.0,
        "fixed": false
    },
    "baseFriendship": 70,
    "evYield": {
        "speed": 1
    },
    "height": 12,
    "weight": 380
}