{
	"format_version": "1.12.0",
	"minecraft:geometry": [
		{
			"description": {
				"identifier": "geometry.mr_mime",
				"texture_width": 64,
				"texture_height": 64,
				"visible_bounds_width": 5,
				"visible_bounds_height": 3.5,
				"visible_bounds_offset": [0, 1.25, 0]
			},
			"bones": [
				{
					"name": "mr_mime",
					"pivot": [0, 0, 0]
				},
				{
					"name": "body",
					"parent": "mr_mime",
					"pivot": [0, 0, 0]
				},
				{
					"name": "torso",
					"parent": "body",
					"pivot": [0, 11, 0.75],
					"cubes": [
						{"origin": [-4, 11.75, -2.5], "size": [8, 2, 6], "uv": [26, 15]},
						{"origin": [-5, 13.75, -3], "size": [10, 8, 7], "uv": [0, 0]},
						{"origin": [-9.5, 17, -2.25], "size": [5, 6, 6], "uv": [34, 0]},
						{"origin": [4.5, 17, -2.25], "size": [5, 6, 6], "uv": [32, 23]},
						{"origin": [-5.75, 11, -1.25], "size": [4, 4, 4], "uv": [18, 40]},
						{"origin": [1.75, 11, -1.25], "size": [4, 4, 4], "uv": [34, 41]}
					]
				},
				{
					"name": "head",
					"parent": "torso",
					"pivot": [0, 21.75, 0.5],
					"cubes": [
						{"origin": [-4.5, 21.75, -3.75], "size": [9, 3, 8], "uv": [0, 16]},
						{"origin": [-4.5, 24.75, -3], "size": [9, 5, 7], "uv": [0, 27]}
					]
				},
				{
					"name": "ear_right",
					"parent": "head",
					"pivot": [-3.75, 27.25, 0],
					"rotation": [-5, 5, 30],
					"cubes": [
						{"origin": [-14.75, 24.75, 0], "size": [11, 6, 0], "uv": [32, 35], "mirror": true}
					]
				},
				{
					"name": "ear_left",
					"parent": "head",
					"pivot": [3.75, 27.25, 0],
					"rotation": [-5, -5, -30],
					"cubes": [
						{"origin": [3.75, 24.75, 0], "size": [11, 6, 0], "uv": [32, 35]}
					]
				},
				{
					"name": "eye_right",
					"parent": "head",
					"pivot": [-2.1, 26.5, -3],
					"rotation": [0, 0, 2.5],
					"cubes": [
						{"origin": [-3.1, 25, -3], "size": [2, 3, 0], "inflate": 0.01, "uv": [0, 39], "mirror": true}
					]
				},
				{
					"name": "eyelid_right",
					"parent": "eye_right",
					"pivot": [-2.1, 26.5, -2.4],
					"cubes": [
						{"origin": [-3.1, 25, -2.9], "size": [2, 3, 1], "inflate": 0.02, "uv": [5, 39], "mirror": true}
					]
				},
				{
					"name": "eye_left",
					"parent": "head",
					"pivot": [2.1, 26.5, -3],
					"rotation": [0, 0, -2.5],
					"cubes": [
						{"origin": [1.1, 25, -3], "size": [2, 3, 0], "inflate": 0.01, "uv": [0, 39]}
					]
				},
				{
					"name": "eyelid_left",
					"parent": "eye_left",
					"pivot": [2.1, 26.5, -2.4],
					"cubes": [
						{"origin": [1.1, 25, -2.9], "size": [2, 3, 1], "inflate": 0.02, "uv": [5, 39]}
					]
				},
				{
					"name": "mouth",
					"parent": "head",
					"pivot": [0, 23.25, -3.75],
					"cubes": [
						{"origin": [-2, 22.75, -3.75], "size": [4, 1, 0], "inflate": 0.01, "uv": [0, 55]}
					]
				},
				{
					"name": "arm_right",
					"parent": "torso",
					"pivot": [-9.5, 20, 0.75],
					"cubes": [
						{"origin": [-15.5, 19, -0.25], "size": [7, 2, 2], "inflate": 0.01, "uv": [46, 41]}
					]
				},
				{
					"name": "arm_right2",
					"parent": "arm_right",
					"pivot": [-15.5, 20, 1.75],
					"cubes": [
						{"origin": [-20.5, 19, -0.25], "size": [5, 2, 2], "uv": [28, 49]}
					]
				},
				{
					"name": "hand_right",
					"parent": "arm_right2",
					"pivot": [-20.5, 20, 0.75],
					"cubes": [
						{"origin": [-23.5, 19, -1.25], "size": [3, 2, 4], "inflate": 0.01, "uv": [14, 48]}
					]
				},
				{
					"name": "finger_right_thumb",
					"parent": "hand_right",
					"pivot": [-22.5, 20.5, -1],
					"rotation": [0, 20, 0],
					"cubes": [
						{"origin": [-23, 19.5, -2], "size": [1, 1, 1], "uv": [30, 41]}
					]
				},
				{
					"name": "finger_right_thumb2",
					"parent": "finger_right_thumb",
					"pivot": [-22.5, 20.5, -2],
					"cubes": [
						{"origin": [-23, 19.5, -3], "size": [1, 1, 1], "inflate": 0.06, "uv": [40, 12]}
					]
				},
				{
					"name": "finger_right_index",
					"parent": "hand_right",
					"pivot": [-23.25, 20.5, -0.5],
					"rotation": [0, -15, 0],
					"cubes": [
						{"origin": [-25.25, 19.5, -1], "size": [2, 1, 1], "uv": [25, 29]}
					]
				},
				{
					"name": "finger_right_index2",
					"parent": "finger_right_index",
					"pivot": [-25.25, 20.5, -0.5],
					"cubes": [
						{"origin": [-26.25, 19.5, -1], "size": [1, 1, 1], "inflate": 0.06, "uv": [24, 48]}
					]
				},
				{
					"name": "finger_right_middle",
					"parent": "hand_right",
					"pivot": [-23.5, 20.5, 0.75],
					"cubes": [
						{"origin": [-25.5, 19.5, 0.25], "size": [2, 1, 1], "uv": [25, 31]}
					]
				},
				{
					"name": "finger_right_middle2",
					"parent": "finger_right_middle",
					"pivot": [-25.5, 20.5, 0.75],
					"cubes": [
						{"origin": [-26.5, 19.5, 0.25], "size": [1, 1, 1], "inflate": 0.06, "uv": [43, 13]}
					]
				},
				{
					"name": "finger_right_ring",
					"parent": "hand_right",
					"pivot": [-23.25, 20.5, 2],
					"rotation": [0, 15, 0],
					"cubes": [
						{"origin": [-25.25, 19.5, 1.5], "size": [2, 1, 1], "uv": [0, 31]}
					]
				},
				{
					"name": "finger_right_ring2",
					"parent": "finger_right_ring",
					"pivot": [-25.25, 20.5, 2],
					"cubes": [
						{"origin": [-26.25, 19.5, 1.5], "size": [1, 1, 1], "inflate": 0.06, "uv": [34, 41]}
					]
				},
				{
					"name": "finger_right_pinky",
					"parent": "hand_right",
					"pivot": [-22.25, 20.5, 2.25],
					"rotation": [0, -45, 0],
					"cubes": [
						{"origin": [-22.75, 19.5, 2.25], "size": [1, 1, 2], "uv": [26, 15]}
					]
				},
				{
					"name": "finger_right_pinky2",
					"parent": "finger_right_pinky",
					"pivot": [-22.25, 20.5, 4.25],
					"cubes": [
						{"origin": [-22.75, 19.5, 4.25], "size": [1, 1, 1], "inflate": 0.06, "uv": [34, 43]}
					]
				},
				{
					"name": "arm_left",
					"parent": "torso",
					"pivot": [9.5, 20, 0.75],
					"cubes": [
						{"origin": [8.5, 19, -0.25], "size": [7, 2, 2], "inflate": 0.01, "uv": [0, 44]}
					]
				},
				{
					"name": "arm_left2",
					"parent": "arm_left",
					"pivot": [15.5, 20, 1.75],
					"cubes": [
						{"origin": [15.5, 19, -0.25], "size": [5, 2, 2], "uv": [48, 23]}
					]
				},
				{
					"name": "hand_left",
					"parent": "arm_left2",
					"pivot": [20.5, 20, 0.75],
					"cubes": [
						{"origin": [20.5, 19, -1.25], "size": [3, 2, 4], "inflate": 0.01, "uv": [46, 45]}
					]
				},
				{
					"name": "finger_left_thumb",
					"parent": "hand_left",
					"pivot": [22.5, 20.5, -1],
					"rotation": [0, -20, 0],
					"cubes": [
						{"origin": [22, 19.5, -2], "size": [1, 1, 1], "uv": [37, 13]}
					]
				},
				{
					"name": "finger_left_thumb2",
					"parent": "finger_left_thumb",
					"pivot": [22.5, 20.5, -2],
					"cubes": [
						{"origin": [22, 19.5, -3], "size": [1, 1, 1], "inflate": 0.06, "uv": [36, 0]}
					]
				},
				{
					"name": "finger_left_index",
					"parent": "hand_left",
					"pivot": [23.25, 20.5, -0.5],
					"rotation": [0, 15, 0],
					"cubes": [
						{"origin": [23.25, 19.5, -1], "size": [2, 1, 1], "uv": [25, 27]}
					]
				},
				{
					"name": "finger_left_index2",
					"parent": "finger_left_index",
					"pivot": [25.25, 20.5, -0.5],
					"cubes": [
						{"origin": [25.25, 19.5, -1], "size": [1, 1, 1], "inflate": 0.06, "uv": [34, 25]}
					]
				},
				{
					"name": "finger_left_middle",
					"parent": "hand_left",
					"pivot": [23.5, 20.5, 0.75],
					"cubes": [
						{"origin": [23.5, 19.5, 0.25], "size": [2, 1, 1], "uv": [27, 5]}
					]
				},
				{
					"name": "finger_left_middle2",
					"parent": "finger_left_middle",
					"pivot": [25.5, 20.5, 0.75],
					"cubes": [
						{"origin": [25.5, 19.5, 0.25], "size": [1, 1, 1], "inflate": 0.06, "uv": [34, 23]}
					]
				},
				{
					"name": "finger_left_ring",
					"parent": "hand_left",
					"pivot": [23.25, 20.5, 2],
					"rotation": [0, -15, 0],
					"cubes": [
						{"origin": [23.25, 19.5, 1.5], "size": [2, 1, 1], "uv": [26, 18]}
					]
				},
				{
					"name": "finger_left_ring2",
					"parent": "finger_left_ring",
					"pivot": [25.25, 20.5, 2],
					"cubes": [
						{"origin": [25.25, 19.5, 1.5], "size": [1, 1, 1], "inflate": 0.06, "uv": [34, 12]}
					]
				},
				{
					"name": "finger_left_pinky",
					"parent": "hand_left",
					"pivot": [22.25, 20.5, 2.25],
					"rotation": [0, 45, 0],
					"cubes": [
						{"origin": [21.75, 19.5, 2.25], "size": [1, 1, 2], "uv": [0, 0]}
					]
				},
				{
					"name": "finger_left_pinky2",
					"parent": "finger_left_pinky",
					"pivot": [22.25, 20.5, 4.25],
					"cubes": [
						{"origin": [21.75, 19.5, 4.25], "size": [1, 1, 1], "inflate": 0.06, "uv": [31, 27]}
					]
				},
				{
					"name": "leg_right",
					"parent": "body",
					"pivot": [-3.75, 11, 0.75],
					"cubes": [
						{"origin": [-4.75, 7, -0.25], "size": [2, 5, 2], "inflate": 0.01, "uv": [26, 53]}
					]
				},
				{
					"name": "leg_right2",
					"parent": "leg_right",
					"pivot": [-3.75, 7, -0.25],
					"cubes": [
						{"origin": [-4.75, 1, -0.25], "size": [2, 6, 2], "uv": [40, 51]}
					]
				},
				{
					"name": "foot_right",
					"parent": "leg_right2",
					"pivot": [-3.75, 2, 0.75],
					"cubes": [
						{"origin": [-5.25, 0, -2], "size": [3, 2, 4], "inflate": 0.01, "uv": [48, 12]}
					]
				},
				{
					"name": "foot_right2",
					"parent": "foot_right",
					"pivot": [-3.75, 0, -2],
					"cubes": [
						{"origin": [-5.25, 0, -5], "size": [3, 2, 3], "uv": [50, 0]},
						{"origin": [-3.75, 0.75, -5.75], "size": [0, 4, 3], "pivot": [-0.25, 2.75, -4.25], "rotation": [20, 0, 0], "uv": [0, 24]}
					]
				},
				{
					"name": "leg_left",
					"parent": "body",
					"pivot": [3.75, 11, 0.75],
					"cubes": [
						{"origin": [2.75, 7, -0.25], "size": [2, 5, 2], "inflate": 0.01, "uv": [48, 51]}
					]
				},
				{
					"name": "leg_left2",
					"parent": "leg_left",
					"pivot": [3.75, 7, -0.25],
					"cubes": [
						{"origin": [2.75, 1, -0.25], "size": [2, 6, 2], "uv": [0, 15]}
					]
				},
				{
					"name": "foot_left",
					"parent": "leg_left2",
					"pivot": [3.75, 2, 0.75],
					"cubes": [
						{"origin": [2.25, 0, -2], "size": [3, 2, 4], "inflate": 0.01, "uv": [0, 48]}
					]
				},
				{
					"name": "foot_left2",
					"parent": "foot_left",
					"pivot": [3.75, 0, -2],
					"cubes": [
						{"origin": [2.25, 0, -5], "size": [3, 2, 3], "uv": [27, 0]},
						{"origin": [3.75, 0.75, -5.75], "size": [0, 4, 3], "pivot": [0.25, 2.75, -4.25], "rotation": [20, 0, 0], "uv": [0, 0]}
					]
				}
			]
		}
	]
}