{
    "id": "0084-doduo",
    "version": "1",
    "neededInstalledMods": [],
    "neededUninstalledMods": [],
    "spawns": [
        {
            "id": "doduo-1",
            "pokemon": "doduo",
            "type": "pokemon",
            "context": "grounded",
            "bucket": "common",
            "level": "8-31",
            "weight": 9.0,
            "condition": {
                "canSeeSky": true,
                "biomes": [
                    "#cobblemon:is_savanna"
                ],
                "timeRange": "day"
            }
        }
    ]
}