{
    "id": "0128-tauros",
    "version": "1",
    "neededInstalledMods": [],
    "neededUninstalledMods": [],
    "spawns": [
        {
            "id": "tauros-1",
            "pokemon": "tauros",
            "type": "pokemon",
            "context": "grounded",
            "bucket": "common",
            "level": "20-49",
            "weight": 2.0,
            "condition": {
                "canSeeSky": true,
                "biomes": [
                    "#cobblemon:is_grassland"
                ],
                "timeRange": "day"
            }
        }
    ]
}