{
    "id": "0558-crustle",
    "version": "1",
    "neededInstalledMods": [],
    "neededUninstalledMods": [],
    "spawns": [
        {
            "id": "crustle-1",
            "pokemon": "crustle",
            "type": "pokemon",
            "context": "grounded",
            "bucket": "common",
            "level": "34-48",
            "weight": 1.0,
            "condition": {
                "biomes": [
                    "#cobblemon:is_badlands"
                ]
            }
        }
    ]
}