{
    "id": "0587-emolga",
    "version": "1",
    "neededInstalledMods": [],
    "neededUninstalledMods": [],
    "spawns": [
        {
            "id": "emolga-1",
            "pokemon": "emolga",
            "type": "pokemon",
            "context": "grounded",
            "bucket": "uncommon",
            "level": "10-43",
            "weight": 10.0,
            "condition": {
                "canSeeSky": true,
                "biomes": [
                    "#cobblemon:is_taiga"
                ]
            }
        }
    ]
}