{
    "id": "0723-dartrix",
    "version": "1",
    "neededInstalledMods": [],
    "neededUninstalledMods": [],
    "spawns": [
        {
            "id": "dartrix-1",
            "pokemon": "dartrix",
            "type": "pokemon",
            "context": "grounded",
            "bucket": "ultra-rare",
            "level": "17-33",
            "weight": 1.0,
            "condition": {
                "canSeeSky": true,
                "biomes": [
                    "#cobblemon:is_taiga"
                ],
                "isRaining": false
            },
            "anticondition": {
                "biomes": [
                    "#cobblemon:is_snowy"
                ]
            }
        }
    ]
}