{
    "name": "aegislash",
    "nationalPokedexNumber": 681,
    "primaryType": "steel",
    "secondaryType": "ghost",
    "abilities": [
        "stancechange"
    ],
    "baseStats": {
        "hp": 60,
        "attack": 50,
        "defence": 140,
        "special_attack": 50,
        "special_defence": 140,
        "speed": 60
    },
    "catchRate": 45,
    "maleRatio": 0.5,
    "shoulderMountable": false,
    "baseExperienceYield": 250,
    "baseFriendship": 50,
    "evYield": {
        "defence": 2,
        "special_defence": 1
    },
    "experienceGroup": "mediumfast",
    "eggCycles": 20,
    "eggGroups": [
        "mineral"
    ],
    "moves": [
        "0:kingsshield",
        "1:swordsdance",
        "1:tackle",
        "1:slash",
        "1:furycutter",
        "1:pursuit",
        "1:metalsound",
        "1:aerialace",
        "1:irondefense",
        "1:powertrick",
        "1:nightslash",
        "1:shadowsneak",
        "1:ironhead",
        "1:headsmash",
        "1:autotomize",
        "1:retaliate",
        "1:sacredsword",
        "1:kingsshield",
        "tm:airslash",
        "tm:attract",
        "tm:brickbreak",
        "tm:brutalswing",
        "tm:closecombat",
        "tm:confide",
        "tm:cut",
        "tm:doubleteam",
        "tm:endure",
        "tm:facade",
        "tm:falseswipe",
        "tm:flashcannon",
        "tm:frustration",
        "tm:gigaimpact",
        "tm:gyroball",
        "tm:hiddenpower",
        "tm:hyperbeam",
        "tm:irondefense",
        "tm:ironhead",
        "tm:protect",
        "tm:psychocut",
        "tm:raindance",
        "tm:reflect",
        "tm:rest",
        "tm:retaliate",
        "tm:return",
        "tm:reversal",
        "tm:rockslide",
        "tm:rocksmash",
        "tm:round",
        "tm:screech",
        "tm:secretpower",
        "tm:shadowball",
        "tm:shadowclaw",
        "tm:sleeptalk",
        "tm:snore",
        "tm:solarblade",
        "tm:substitute",
        "tm:sunnyday",
        "tm:swagger",
        "tm:swordsdance",
        "tm:toxic",
        "tutor:afteryou",
        "tutor:block",
        "tutor:laserfocus",
        "tutor:magnetrise",
        "tutor:shockwave",
        "tutor:spite",
        "tutor:steelbeam"
    ],
    "labels": [
        "gen6"
    ],
    "pokedex": [
        "cobblemon.species.aegislash.desc1",
        "cobblemon.species.aegislash.desc2"
    ],
    "height": 17,
    "weight": 530,
    "preEvolution": "doublade",
    "evolutions": [],
    "forms": [
        {
            "name": "blade",
            "baseStats": {
                "hp": 60,
                "attack": 140,
                "defence": 50,
                "special_attack": 140,
                "special_defence": 50,
                "speed": 60
            },
            "evYield": {
                "attack": 2,
                "special_attack": 1
            },
            "pokedex": [
                "cobblemon.form.aegislash-blade.desc1",
                "cobblemon.form.aegislash-blade.desc2"
            ]
        }
    ]
}