{
    "name": "braixen",
    "nationalPokedexNumber": 654,
    "primaryType": "fire",
    "abilities": [
        "blaze",
        "h:magician"
    ],
    "baseStats": {
        "hp": 59,
        "attack": 59,
        "defence": 58,
        "special_attack": 90,
        "special_defence": 70,
        "speed": 73
    },
    "catchRate": 45,
    "maleRatio": 0.875,
    "shoulderMountable": false,
    "forms": [],
    "baseExperienceYield": 143,
    "experienceGroup": "mediumslow",
    "eggCycles": 20,
    "eggGroups": [
        "field"
    ],
    "moves": [
        "1:scratch",
        "1:tailwhip",
        "1:ember",
        "5:ember",
        "11:howl",
        "14:flamecharge",
        "18:psybeam",
        "22:firespin",
        "28:luckychant",
        "31:lightscreen",
        "36:psyshock",
        "41:flamethrower",
        "45:willowisp",
        "49:psychic",
        "52:sunnyday",
        "56:magicroom",
        "59:fireblast",
        "tm:attract",
        "tm:confide",
        "tm:cut",
        "tm:doubleteam",
        "tm:dreameater",
        "tm:echoedvoice",
        "tm:embargo",
        "tm:facade",
        "tm:fireblast",
        "tm:flamecharge",
        "tm:flamethrower",
        "tm:frustration",
        "tm:grassknot",
        "tm:hiddenpower",
        "tm:incinerate",
        "tm:lightscreen",
        "tm:overheat",
        "tm:poweruppunch",
        "tm:protect",
        "tm:psychic",
        "tm:psychup",
        "tm:psyshock",
        "tm:raindance",
        "tm:rest",
        "tm:return",
        "tm:round",
        "tm:safeguard",
        "tm:secretpower",
        "tm:sleeptalk",
        "tm:solarbeam",
        "tm:substitute",
        "tm:sunnyday",
        "tm:swagger",
        "tm:thief",
        "tm:toxic",
        "tm:willowisp",
        "tm:workup",
        "tutor:allyswitch",
        "tutor:covet",
        "tutor:firepledge",
        "tutor:firepunch",
        "tutor:foulplay",
        "tutor:heatwave",
        "tutor:irontail",
        "tutor:laserfocus",
        "tutor:lowkick",
        "tutor:magiccoat",
        "tutor:magicroom",
        "tutor:recycle",
        "tutor:shockwave",
        "tutor:skillswap",
        "tutor:snatch",
        "tutor:snore",
        "tutor:telekinesis",
        "tutor:thunderpunch",
        "tutor:trick",
        "tutor:wonderroom",
        "tutor:zenheadbutt"
    ],
    "labels": [
        "gen6"
    ],
    "pokedex": [
        "cobblemon.species.braixen.desc1",
        "cobblemon.species.braixen.desc2"
    ],
    "preEvolution": "fennekin",
    "evolutions": [
        {
            "id": "braixen_delphox",
            "variant": "level_up",
            "result": "delphox",
            "consumeHeldItem": false,
            "learnableMoves": [],
            "requirements": [
                {
                    "variant": "level",
                    "minLevel": 36
                }
            ]
        }
    ],
    "baseScale": 1.0,
    "hitbox": {
        "width": 1.0,
        "height": 1.0,
        "fixed": false
    },
    "baseFriendship": 70,
    "evYield": {
        "special_attack": 2
    },
    "height": 10,
    "weight": 145
}