{
    "name": "dedenne",
    "nationalPokedexNumber": 702,
    "primaryType": "electric",
    "secondaryType": "fairy",
    "abilities": [
        "cheekpouch",
        "pickup",
        "h:plus"
    ],
    "baseStats": {
        "hp": 67,
        "attack": 58,
        "defence": 57,
        "special_attack": 81,
        "special_defence": 67,
        "speed": 101
    },
    "catchRate": 180,
    "maleRatio": 0.5,
    "shoulderMountable": false,
    "forms": [],
    "baseExperienceYield": 151,
    "experienceGroup": "mediumfast",
    "eggCycles": 20,
    "eggGroups": [
        "field",
        "fairy"
    ],
    "moves": [
        "1:tailwhip",
        "1:nuzzle",
        "5:tackle",
        "10:charge",
        "15:thundershock",
        "20:charm",
        "25:paraboliccharge",
        "30:voltswitch",
        "34:chargebeam",
        "35:rest",
        "35:snore",
        "40:discharge",
        "45:playrough",
        "50:superfang",
        "55:entrainment",
        "60:thunder",
        "egg:covet",
        "egg:magnetrise",
        "egg:naturalgift",
        "egg:tearfullook",
        "tm:aerialace",
        "tm:allyswitch",
        "tm:attract",
        "tm:chargebeam",
        "tm:charm",
        "tm:confide",
        "tm:cut",
        "tm:dazzlinggleam",
        "tm:dig",
        "tm:doubleteam",
        "tm:eerieimpulse",
        "tm:electricterrain",
        "tm:electroball",
        "tm:electroweb",
        "tm:endure",
        "tm:facade",
        "tm:flash",
        "tm:fling",
        "tm:frustration",
        "tm:gigaimpact",
        "tm:grassknot",
        "tm:helpinghand",
        "tm:hiddenpower",
        "tm:irontail",
        "tm:playrough",
        "tm:protect",
        "tm:raindance",
        "tm:rest",
        "tm:retaliate",
        "tm:return",
        "tm:round",
        "tm:secretpower",
        "tm:sleeptalk",
        "tm:snore",
        "tm:substitute",
        "tm:sunnyday",
        "tm:swagger",
        "tm:thief",
        "tm:thunder",
        "tm:thunderbolt",
        "tm:thunderpunch",
        "tm:thunderwave",
        "tm:toxic",
        "tm:uturn",
        "tm:voltswitch",
        "tm:wildcharge",
        "tutor:lastresort",
        "tutor:recycle",
        "tutor:risingvoltage",
        "tutor:shockwave",
        "tutor:signalbeam"
    ],
    "labels": [
        "gen6"
    ],
    "pokedex": [
        "cobblemon.species.dedenne.desc1",
        "cobblemon.species.dedenne.desc2"
    ],
    "evolutions": [],
    "baseScale": 1.0,
    "hitbox": {
        "width": 1.0,
        "height": 1.0,
        "fixed": false
    },
    "baseFriendship": 50,
    "evYield": {
        "speed": 2
    },
    "height": 2,
    "weight": 22
}