{
    "name": "doublade",
    "nationalPokedexNumber": 680,
    "primaryType": "steel",
    "secondaryType": "ghost",
    "abilities": [
        "noguard"
    ],
    "baseStats": {
        "hp": 59,
        "attack": 110,
        "defence": 150,
        "special_attack": 45,
        "special_defence": 49,
        "speed": 35
    },
    "catchRate": 90,
    "maleRatio": 0.5,
    "shoulderMountable": false,
    "forms": [],
    "baseExperienceYield": 157,
    "experienceGroup": "mediumfast",
    "eggCycles": 20,
    "eggGroups": [
        "mineral"
    ],
    "moves": [
        "1:tackle",
        "1:furycutter",
        "1:shadowsneak",
        "1:autotomize",
        "12:aerialace",
        "13:pursuit",
        "16:metalsound",
        "20:slash",
        "24:nightslash",
        "28:retaliate",
        "32:irondefense",
        "38:ironhead",
        "44:powertrick",
        "50:swordsdance",
        "56:sacredsword",
        "tm:attract",
        "tm:brickbreak",
        "tm:brutalswing",
        "tm:closecombat",
        "tm:confide",
        "tm:cut",
        "tm:doubleteam",
        "tm:endure",
        "tm:facade",
        "tm:falseswipe",
        "tm:flashcannon",
        "tm:frustration",
        "tm:gyroball",
        "tm:hiddenpower",
        "tm:irondefense",
        "tm:ironhead",
        "tm:protect",
        "tm:psychocut",
        "tm:raindance",
        "tm:reflect",
        "tm:rest",
        "tm:retaliate",
        "tm:return",
        "tm:reversal",
        "tm:rockslide",
        "tm:rocksmash",
        "tm:round",
        "tm:screech",
        "tm:secretpower",
        "tm:shadowclaw",
        "tm:sleeptalk",
        "tm:snore",
        "tm:solarblade",
        "tm:substitute",
        "tm:swagger",
        "tm:swordsdance",
        "tm:toxic",
        "tutor:afteryou",
        "tutor:laserfocus",
        "tutor:magnetrise",
        "tutor:shockwave",
        "tutor:spite",
        "tutor:steelbeam"
    ],
    "labels": [
        "gen6"
    ],
    "pokedex": [
        "cobblemon.species.doublade.desc1",
        "cobblemon.species.doublade.desc2"
    ],
    "preEvolution": "honedge",
    "evolutions": [
        {
            "id": "doublade_aegislash",
            "variant": "item_interact",
            "result": "aegislash",
            "consumeHeldItem": false,
            "learnableMoves": [],
            "requirements": [],
            "requiredContext": "cobblemon:dusk_stone"
        }
    ],
    "baseScale": 1.0,
    "hitbox": {
        "width": 1.0,
        "height": 1.0,
        "fixed": false
    },
    "baseFriendship": 50,
    "evYield": {
        "defence": 2
    },
    "height": 8,
    "weight": 45
}