{
    "name": "greninja",
    "nationalPokedexNumber": 658,
    "primaryType": "water",
    "secondaryType": "dark",
    "abilities": [
        "torrent",
        "h:protean"
    ],
    "baseStats": {
        "hp": 72,
        "attack": 95,
        "defence": 67,
        "special_attack": 103,
        "special_defence": 71,
        "speed": 122
    },
    "catchRate": 45,
    "maleRatio": 0.875,
    "shoulderMountable": false,
    "forms": [
        {
            "name": "battle-bond",
            "abilities": [
                "battlebond"
            ],
            "moves": [
                "0:watershuriken",
                "1:pound",
                "1:growl",
                "1:quickattack",
                "1:haze",
                "1:bubble",
                "1:roleplay",
                "1:nightslash",
                "1:matblock",
                "1:watershuriken",
                "5:bubble",
                "8:quickattack",
                "10:lick",
                "14:waterpulse",
                "19:smokescreen",
                "23:shadowsneak",
                "28:spikes",
                "33:feintattack",
                "42:substitute",
                "49:extrasensory",
                "56:doubleteam",
                "68:hydropump",
                "70:haze",
                "77:nightslash",
                "tm:acrobatics",
                "tm:aerialace",
                "tm:attract",
                "tm:blizzard",
                "tm:brutalswing",
                "tm:confide",
                "tm:darkpulse",
                "tm:doubleteam",
                "tm:echoedvoice",
                "tm:facade",
                "tm:fling",
                "tm:frustration",
                "tm:gigaimpact",
                "tm:grassknot",
                "tm:hiddenpower",
                "tm:hyperbeam",
                "tm:icebeam",
                "tm:protect",
                "tm:raindance",
                "tm:rest",
                "tm:return",
                "tm:rockslide",
                "tm:rocktomb",
                "tm:round",
                "tm:scald",
                "tm:sleeptalk",
                "tm:smackdown",
                "tm:substitute",
                "tm:surf",
                "tm:swagger",
                "tm:taunt",
                "tm:thief",
                "tm:toxic",
                "tm:uturn",
                "tm:waterfall",
                "tm:workup",
                "tutor:bounce",
                "tutor:gunkshot",
                "tutor:hydrocannon",
                "tutor:icepunch",
                "tutor:icywind",
                "tutor:lowkick",
                "tutor:roleplay",
                "tutor:snatch",
                "tutor:snore",
                "tutor:spite",
                "tutor:waterpledge",
                "tutor:waterpulse"
            ],
            "pokedex": [
                "cobblemon.form.greninja-battle-bond.desc1",
                "cobblemon.form.greninja-battle-bond.desc2"
            ]
        },
        {
            "name": "ash",
            "abilities": [
                "battlebond"
            ],
            "baseStats": {
                "hp": 72,
                "attack": 145,
                "defence": 67,
                "special_attack": 153,
                "special_defence": 71,
                "speed": 132
            },
            "baseExperienceYield": 288,
            "moves": [
                "0:watershuriken",
                "1:pound",
                "1:growl",
                "1:quickattack",
                "1:haze",
                "1:bubble",
                "1:roleplay",
                "1:nightslash",
                "1:matblock",
                "1:watershuriken",
                "5:bubble",
                "8:quickattack",
                "10:lick",
                "14:waterpulse",
                "19:smokescreen",
                "23:shadowsneak",
                "28:spikes",
                "33:feintattack",
                "42:substitute",
                "49:extrasensory",
                "56:doubleteam",
                "68:hydropump",
                "70:haze",
                "77:nightslash",
                "tm:acrobatics",
                "tm:aerialace",
                "tm:attract",
                "tm:blizzard",
                "tm:brutalswing",
                "tm:confide",
                "tm:darkpulse",
                "tm:doubleteam",
                "tm:echoedvoice",
                "tm:facade",
                "tm:fling",
                "tm:frustration",
                "tm:gigaimpact",
                "tm:grassknot",
                "tm:hiddenpower",
                "tm:hyperbeam",
                "tm:icebeam",
                "tm:protect",
                "tm:raindance",
                "tm:rest",
                "tm:return",
                "tm:rockslide",
                "tm:rocktomb",
                "tm:round",
                "tm:scald",
                "tm:sleeptalk",
                "tm:smackdown",
                "tm:substitute",
                "tm:surf",
                "tm:swagger",
                "tm:taunt",
                "tm:thief",
                "tm:toxic",
                "tm:uturn",
                "tm:waterfall",
                "tm:workup",
                "tutor:bounce",
                "tutor:gunkshot",
                "tutor:hydrocannon",
                "tutor:icepunch",
                "tutor:icywind",
                "tutor:lowkick",
                "tutor:roleplay",
                "tutor:snatch",
                "tutor:snore",
                "tutor:spite",
                "tutor:waterpledge",
                "tutor:waterpulse"
            ],
            "pokedex": [
                "cobblemon.form.greninja-ash.desc1",
                "cobblemon.form.greninja-ash.desc2"
            ]
        }
    ],
    "baseExperienceYield": 239,
    "experienceGroup": "mediumslow",
    "eggCycles": 20,
    "eggGroups": [
        "water_1"
    ],
    "moves": [
        "0:watershuriken",
        "1:pound",
        "1:growl",
        "1:quickattack",
        "1:haze",
        "1:bubble",
        "1:roleplay",
        "1:nightslash",
        "1:matblock",
        "1:watershuriken",
        "5:bubble",
        "8:quickattack",
        "10:lick",
        "14:waterpulse",
        "19:smokescreen",
        "23:shadowsneak",
        "28:spikes",
        "33:feintattack",
        "42:substitute",
        "49:extrasensory",
        "56:doubleteam",
        "68:hydropump",
        "70:haze",
        "77:nightslash",
        "tm:acrobatics",
        "tm:aerialace",
        "tm:attract",
        "tm:blizzard",
        "tm:brutalswing",
        "tm:confide",
        "tm:cut",
        "tm:darkpulse",
        "tm:dig",
        "tm:dive",
        "tm:doubleteam",
        "tm:echoedvoice",
        "tm:facade",
        "tm:fling",
        "tm:frustration",
        "tm:gigaimpact",
        "tm:grassknot",
        "tm:hiddenpower",
        "tm:hyperbeam",
        "tm:icebeam",
        "tm:poweruppunch",
        "tm:protect",
        "tm:raindance",
        "tm:rest",
        "tm:return",
        "tm:rockslide",
        "tm:rocksmash",
        "tm:rocktomb",
        "tm:round",
        "tm:scald",
        "tm:secretpower",
        "tm:sleeptalk",
        "tm:smackdown",
        "tm:strength",
        "tm:substitute",
        "tm:surf",
        "tm:swagger",
        "tm:taunt",
        "tm:thief",
        "tm:toxic",
        "tm:uturn",
        "tm:waterfall",
        "tm:workup",
        "tutor:bounce",
        "tutor:gunkshot",
        "tutor:hydrocannon",
        "tutor:icepunch",
        "tutor:icywind",
        "tutor:lowkick",
        "tutor:roleplay",
        "tutor:snatch",
        "tutor:snore",
        "tutor:spite",
        "tutor:waterpledge",
        "tutor:waterpulse"
    ],
    "labels": [
        "gen6"
    ],
    "pokedex": [
        "cobblemon.species.greninja.desc1",
        "cobblemon.species.greninja.desc2"
    ],
    "preEvolution": "frogadier",
    "evolutions": [],
    "baseScale": 1.0,
    "hitbox": {
        "width": 1.0,
        "height": 1.0,
        "fixed": false
    },
    "baseFriendship": 70,
    "evYield": {
        "speed": 3
    },
    "height": 15,
    "weight": 400
}