{
    "name": "litleo",
    "nationalPokedexNumber": 667,
    "primaryType": "fire",
    "secondaryType": "normal",
    "abilities": [
        "rivalry",
        "unnerve",
        "h:moxie"
    ],
    "baseStats": {
        "hp": 62,
        "attack": 50,
        "defence": 58,
        "special_attack": 73,
        "special_defence": 54,
        "speed": 72
    },
    "catchRate": 220,
    "maleRatio": 0.125,
    "shoulderMountable": false,
    "forms": [],
    "baseExperienceYield": 74,
    "experienceGroup": "mediumslow",
    "eggCycles": 20,
    "eggGroups": [
        "field"
    ],
    "moves": [
        "1:tackle",
        "1:leer",
        "5:ember",
        "8:workup",
        "11:headbutt",
        "15:nobleroar",
        "20:takedown",
        "23:firefang",
        "28:endeavor",
        "33:echoedvoice",
        "36:flamethrower",
        "39:crunch",
        "43:hypervoice",
        "46:incinerate",
        "50:overheat",
        "egg:entrainment",
        "egg:firespin",
        "egg:flareblitz",
        "egg:snatch",
        "egg:yawn",
        "tm:attract",
        "tm:bulldoze",
        "tm:confide",
        "tm:darkpulse",
        "tm:dig",
        "tm:doubleteam",
        "tm:echoedvoice",
        "tm:facade",
        "tm:fireblast",
        "tm:flamecharge",
        "tm:flamethrower",
        "tm:frustration",
        "tm:hiddenpower",
        "tm:overheat",
        "tm:payback",
        "tm:protect",
        "tm:raindance",
        "tm:rest",
        "tm:retaliate",
        "tm:return",
        "tm:roar",
        "tm:rocksmash",
        "tm:round",
        "tm:secretpower",
        "tm:sleeptalk",
        "tm:snarl",
        "tm:solarbeam",
        "tm:strength",
        "tm:substitute",
        "tm:sunnyday",
        "tm:swagger",
        "tm:taunt",
        "tm:thief",
        "tm:toxic",
        "tm:wildcharge",
        "tm:willowisp",
        "tm:workup",
        "tutor:endeavor",
        "tutor:heatwave",
        "tutor:helpinghand",
        "tutor:hypervoice",
        "tutor:irontail",
        "tutor:snatch",
        "tutor:snore"
    ],
    "labels": [
        "gen6"
    ],
    "pokedex": [
        "cobblemon.species.litleo.desc1",
        "cobblemon.species.litleo.desc2"
    ],
    "evolutions": [
        {
            "id": "litleo_pyroar",
            "variant": "level_up",
            "result": "pyroar",
            "consumeHeldItem": false,
            "learnableMoves": [],
            "requirements": [
                {
                    "variant": "level",
                    "minLevel": 35
                }
            ]
        }
    ],
    "baseScale": 1.0,
    "hitbox": {
        "width": 1.0,
        "height": 1.0,
        "fixed": false
    },
    "baseFriendship": 70,
    "evYield": {
        "special_attack": 1
    },
    "height": 6,
    "weight": 135
}