{
    "name": "malamar",
    "nationalPokedexNumber": 687,
    "primaryType": "dark",
    "secondaryType": "psychic",
    "abilities": [
        "contrary",
        "suctioncups",
        "h:infiltrator"
    ],
    "baseStats": {
        "hp": 86,
        "attack": 92,
        "defence": 88,
        "special_attack": 68,
        "special_defence": 75,
        "speed": 73
    },
    "catchRate": 80,
    "maleRatio": 0.5,
    "shoulderMountable": false,
    "forms": [],
    "baseExperienceYield": 169,
    "experienceGroup": "mediumfast",
    "eggCycles": 20,
    "eggGroups": [
        "water_1",
        "water_2"
    ],
    "moves": [
        "1:tackle",
        "1:wrap",
        "1:peck",
        "1:hypnosis",
        "1:constrict",
        "1:reversal",
        "9:payback",
        "12:pluck",
        "13:psywave",
        "15:psybeam",
        "18:swagger",
        "21:slash",
        "24:nightslash",
        "27:psychocut",
        "33:switcheroo",
        "37:foulplay",
        "42:topsyturvy",
        "47:superpower",
        "tm:aerialace",
        "tm:allyswitch",
        "tm:attract",
        "tm:batonpass",
        "tm:brutalswing",
        "tm:calmmind",
        "tm:confide",
        "tm:cut",
        "tm:darkpulse",
        "tm:doubleteam",
        "tm:embargo",
        "tm:endure",
        "tm:facade",
        "tm:faketears",
        "tm:flamethrower",
        "tm:flash",
        "tm:fling",
        "tm:foulplay",
        "tm:frustration",
        "tm:futuresight",
        "tm:gigaimpact",
        "tm:guardswap",
        "tm:hiddenpower",
        "tm:hyperbeam",
        "tm:lightscreen",
        "tm:liquidation",
        "tm:nastyplot",
        "tm:payback",
        "tm:protect",
        "tm:psychic",
        "tm:psychocut",
        "tm:psychup",
        "tm:psyshock",
        "tm:raindance",
        "tm:reflect",
        "tm:rest",
        "tm:retaliate",
        "tm:return",
        "tm:reversal",
        "tm:rockslide",
        "tm:round",
        "tm:scaryface",
        "tm:secretpower",
        "tm:sleeptalk",
        "tm:snore",
        "tm:storedpower",
        "tm:substitute",
        "tm:sunnyday",
        "tm:superpower",
        "tm:taunt",
        "tm:thief",
        "tm:throatchop",
        "tm:thunderbolt",
        "tm:torment",
        "tm:toxic",
        "tm:trickroom",
        "tutor:bind",
        "tutor:block",
        "tutor:expandingforce",
        "tutor:knockoff",
        "tutor:lashout",
        "tutor:roleplay",
        "tutor:signalbeam",
        "tutor:snatch",
        "tutor:spite",
        "tutor:telekinesis"
    ],
    "labels": [
        "gen6"
    ],
    "pokedex": [
        "cobblemon.species.malamar.desc1",
        "cobblemon.species.malamar.desc2"
    ],
    "preEvolution": "inkay",
    "evolutions": [],
    "baseScale": 1.0,
    "hitbox": {
        "width": 1.0,
        "height": 1.0,
        "fixed": false
    },
    "baseFriendship": 50,
    "evYield": {
        "attack": 2
    },
    "height": 15,
    "weight": 470
}