{
    "name": "sylveon",
    "nationalPokedexNumber": 700,
    "primaryType": "fairy",
    "abilities": [
        "cutecharm",
        "h:pixilate"
    ],
    "baseStats": {
        "hp": 95,
        "attack": 65,
        "defence": 65,
        "special_attack": 110,
        "special_defence": 130,
        "speed": 60
    },
    "catchRate": 45,
    "maleRatio": 0.875,
    "shoulderMountable": false,
    "forms": [],
    "baseExperienceYield": 184,
    "experienceGroup": "mediumfast",
    "eggCycles": 35,
    "eggGroups": [
        "field"
    ],
    "moves": [
        "0:disarmingvoice",
        "0:fairywind",
        "1:tackle",
        "1:takedown",
        "1:doubleedge",
        "1:tailwhip",
        "1:bite",
        "1:growl",
        "1:charm",
        "1:batonpass",
        "1:helpinghand",
        "1:covet",
        "1:copycat",
        "1:disarmingvoice",
        "1:fairywind",
        "5:sandattack",
        "10:quickattack",
        "15:babydolleyes",
        "20:swift",
        "25:lightscreen",
        "30:drainingkiss",
        "35:mistyterrain",
        "40:skillswap",
        "45:psychup",
        "50:moonblast",
        "55:lastresort",
        "tm:attract",
        "tm:batonpass",
        "tm:bodyslam",
        "tm:calmmind",
        "tm:charm",
        "tm:confide",
        "tm:cut",
        "tm:dazzlinggleam",
        "tm:dig",
        "tm:doubleteam",
        "tm:drainingkiss",
        "tm:echoedvoice",
        "tm:endure",
        "tm:facade",
        "tm:faketears",
        "tm:flash",
        "tm:focusenergy",
        "tm:frustration",
        "tm:gigaimpact",
        "tm:helpinghand",
        "tm:hiddenpower",
        "tm:hyperbeam",
        "tm:hypervoice",
        "tm:irontail",
        "tm:lightscreen",
        "tm:magicalleaf",
        "tm:mistyterrain",
        "tm:mysticalfire",
        "tm:payday",
        "tm:playrough",
        "tm:protect",
        "tm:psyshock",
        "tm:raindance",
        "tm:reflect",
        "tm:rest",
        "tm:retaliate",
        "tm:return",
        "tm:round",
        "tm:safeguard",
        "tm:secretpower",
        "tm:shadowball",
        "tm:skillswap",
        "tm:sleeptalk",
        "tm:snore",
        "tm:storedpower",
        "tm:substitute",
        "tm:sunnyday",
        "tm:swagger",
        "tm:swift",
        "tm:toxic",
        "tm:weatherball",
        "tm:workup",
        "tutor:healbell",
        "tutor:laserfocus",
        "tutor:magiccoat",
        "tutor:mistyexplosion",
        "tutor:telekinesis"
    ],
    "labels": [
        "gen6"
    ],
    "pokedex": [
        "cobblemon.species.sylveon.desc1",
        "cobblemon.species.sylveon.desc2"
    ],
    "preEvolution": "eevee",
    "evolutions": [],
    "baseScale": 0.8,
    "hitbox": {
        "width": 0.85,
        "height": 1,
        "fixed": false
    },
    "baseFriendship": 50,
    "evYield": {
        "special_defence": 2
    },
    "height": 10,
    "weight": 235
}