{
    "name": "volcanion",
    "nationalPokedexNumber": 721,
    "primaryType": "fire",
    "secondaryType": "water",
    "abilities": [
        "waterabsorb"
    ],
    "baseStats": {
        "hp": 80,
        "attack": 110,
        "defence": 120,
        "special_attack": 130,
        "special_defence": 90,
        "speed": 70
    },
    "catchRate": 3,
    "maleRatio": -1,
    "shoulderMountable": false,
    "forms": [],
    "baseExperienceYield": 300,
    "experienceGroup": "slow",
    "eggCycles": 120,
    "eggGroups": [
        "undiscovered"
    ],
    "moves": [
        "1:watergun",
        "1:firespin",
        "6:leer",
        "12:weatherball",
        "18:flamecharge",
        "24:waterpulse",
        "30:scaryface",
        "36:incinerate",
        "42:stomp",
        "48:scald",
        "54:takedown",
        "60:mist",
        "60:haze",
        "66:hydropump",
        "72:steameruption",
        "78:flareblitz",
        "84:overheat",
        "90:explosion",
        "tm:bodypress",
        "tm:bodyslam",
        "tm:brickbreak",
        "tm:bulldoze",
        "tm:confide",
        "tm:cut",
        "tm:doubleteam",
        "tm:earthpower",
        "tm:earthquake",
        "tm:endure",
        "tm:facade",
        "tm:fireblast",
        "tm:firespin",
        "tm:flamethrower",
        "tm:flareblitz",
        "tm:flashcannon",
        "tm:fling",
        "tm:focusblast",
        "tm:focusenergy",
        "tm:frustration",
        "tm:gigaimpact",
        "tm:gyroball",
        "tm:heatcrash",
        "tm:heatwave",
        "tm:heavyslam",
        "tm:hiddenpower",
        "tm:hydropump",
        "tm:hyperbeam",
        "tm:liquidation",
        "tm:mistyterrain",
        "tm:mudshot",
        "tm:overheat",
        "tm:protect",
        "tm:raindance",
        "tm:rest",
        "tm:return",
        "tm:roar",
        "tm:rockslide",
        "tm:rocksmash",
        "tm:round",
        "tm:sandstorm",
        "tm:scald",
        "tm:scaryface",
        "tm:secretpower",
        "tm:selfdestruct",
        "tm:sleeptalk",
        "tm:sludgebomb",
        "tm:sludgewave",
        "tm:smackdown",
        "tm:snore",
        "tm:solarbeam",
        "tm:stompingtantrum",
        "tm:stoneedge",
        "tm:strength",
        "tm:substitute",
        "tm:sunnyday",
        "tm:superpower",
        "tm:swagger",
        "tm:thunderfang",
        "tm:toxic",
        "tm:weatherball",
        "tm:willowisp",
        "tutor:defog",
        "tutor:scorchingsands"
    ],
    "labels": [
        "gen6",
        "mythical"
    ],
    "pokedex": [
        "cobblemon.species.volcanion.desc1",
        "cobblemon.species.volcanion.desc2"
    ],
    "evolutions": [],
    "baseScale": 1.0,
    "hitbox": {
        "width": 1.0,
        "height": 1.0,
        "fixed": false
    },
    "baseFriendship": 100,
    "evYield": {
        "special_attack": 3
    },
    "height": 17,
    "weight": 1950
}