{
    "name": "accelgor",
    "nationalPokedexNumber": 617,
    "primaryType": "bug",
    "abilities": [
        "hydration",
        "stickyhold",
        "h:unburden"
    ],
    "baseStats": {
        "hp": 80,
        "attack": 70,
        "defence": 40,
        "special_attack": 100,
        "special_defence": 60,
        "speed": 145
    },
    "catchRate": 75,
    "maleRatio": 0.5,
    "shoulderMountable": false,
    "forms": [],
    "baseExperienceYield": 173,
    "experienceGroup": "mediumfast",
    "eggCycles": 15,
    "eggGroups": [
        "bug"
    ],
    "moves": [
        "1:bodyslam",
        "1:acid",
        "1:absorb",
        "1:quickattack",
        "1:doubleteam",
        "1:acidarmor",
        "1:curse",
        "1:yawn",
        "1:guardswap",
        "1:acidspray",
        "1:watershuriken",
        "12:megadrain",
        "16:strugglebug",
        "20:swift",
        "24:agility",
        "28:gigadrain",
        "28:mefirst",
        "32:powerswap",
        "36:uturn",
        "40:recover",
        "44:bugbuzz",
        "48:finalgambit",
        "52:toxic",
        "tm:agility",
        "tm:attract",
        "tm:batonpass",
        "tm:bodyslam",
        "tm:bugbuzz",
        "tm:confide",
        "tm:drainpunch",
        "tm:encore",
        "tm:endure",
        "tm:energyball",
        "tm:facade",
        "tm:focusblast",
        "tm:frustration",
        "tm:gigadrain",
        "tm:gigaimpact",
        "tm:guardswap",
        "tm:hiddenpower",
        "tm:hyperbeam",
        "tm:infestation",
        "tm:leechlife",
        "tm:mudshot",
        "tm:powerswap",
        "tm:protect",
        "tm:raindance",
        "tm:rest",
        "tm:return",
        "tm:reversal",
        "tm:round",
        "tm:sandstorm",
        "tm:secretpower",
        "tm:sleeptalk",
        "tm:sludgebomb",
        "tm:snore",
        "tm:spikes",
        "tm:substitute",
        "tm:swagger",
        "tm:swift",
        "tm:toxicspikes",
        "tm:uturn",
        "tm:venomdrench",
        "tm:venoshock",
        "tutor:bugbite",
        "tutor:gastroacid",
        "tutor:knockoff",
        "tutor:laserfocus",
        "tutor:signalbeam",
        "tutor:skittersmack"
    ],
    "labels": [
        "gen5"
    ],
    "pokedex": [
        "cobblemon.species.accelgor.desc1",
        "cobblemon.species.accelgor.desc2"
    ],
    "preEvolution": "shelmet",
    "evolutions": [],
    "baseScale": 1.0,
    "hitbox": {
        "width": 1.0,
        "height": 1.0,
        "fixed": false
    },
    "baseFriendship": 50,
    "evYield": {
        "speed": 2
    },
    "height": 8,
    "weight": 253
}