{
    "name": "archeops",
    "nationalPokedexNumber": 567,
    "primaryType": "rock",
    "secondaryType": "flying",
    "abilities": [
        "defeatist"
    ],
    "baseStats": {
        "hp": 75,
        "attack": 140,
        "defence": 65,
        "special_attack": 112,
        "special_defence": 65,
        "speed": 110
    },
    "catchRate": 45,
    "maleRatio": 0.875,
    "shoulderMountable": false,
    "forms": [],
    "baseExperienceYield": 177,
    "experienceGroup": "mediumfast",
    "eggCycles": 30,
    "eggGroups": [
        "flying",
        "water_3"
    ],
    "moves": [
        "1:wingattack",
        "1:leer",
        "1:rockthrow",
        "1:quickattack",
        "8:doubleteam",
        "9:dragonbreath",
        "12:ancientpower",
        "15:pluck",
        "18:quickguard",
        "21:uturn",
        "24:rockslide",
        "27:scaryface",
        "30:crunch",
        "33:agility",
        "36:tailwind",
        "41:dragonclaw",
        "46:thrash",
        "51:endeavor",
        "tm:acrobatics",
        "tm:aerialace",
        "tm:agility",
        "tm:airslash",
        "tm:allyswitch",
        "tm:assurance",
        "tm:attract",
        "tm:bounce",
        "tm:bulldoze",
        "tm:confide",
        "tm:crunch",
        "tm:cut",
        "tm:dig",
        "tm:doubleteam",
        "tm:dragonclaw",
        "tm:dragonpulse",
        "tm:dragontail",
        "tm:earthpower",
        "tm:earthquake",
        "tm:endure",
        "tm:facade",
        "tm:fly",
        "tm:focusblast",
        "tm:frustration",
        "tm:gigaimpact",
        "tm:heatwave",
        "tm:hiddenpower",
        "tm:honeclaws",
        "tm:hyperbeam",
        "tm:irondefense",
        "tm:irontail",
        "tm:outrage",
        "tm:protect",
        "tm:rest",
        "tm:return",
        "tm:roar",
        "tm:rockblast",
        "tm:rockpolish",
        "tm:rockslide",
        "tm:rocksmash",
        "tm:rocktomb",
        "tm:roost",
        "tm:round",
        "tm:sandstorm",
        "tm:scaryface",
        "tm:secretpower",
        "tm:shadowclaw",
        "tm:sleeptalk",
        "tm:smackdown",
        "tm:snore",
        "tm:stealthrock",
        "tm:steelwing",
        "tm:stoneedge",
        "tm:substitute",
        "tm:swagger",
        "tm:swift",
        "tm:taunt",
        "tm:torment",
        "tm:toxic",
        "tm:uproar",
        "tm:uturn",
        "tm:zenheadbutt",
        "tutor:aquatail",
        "tutor:defog",
        "tutor:dualwingbeat",
        "tutor:knockoff",
        "tutor:lashout",
        "tutor:meteorbeam",
        "tutor:skyattack"
    ],
    "labels": [
        "gen5"
    ],
    "pokedex": [
        "cobblemon.species.archeops.desc1",
        "cobblemon.species.archeops.desc2"
    ],
    "preEvolution": "archen",
    "evolutions": [],
    "baseScale": 1.0,
    "hitbox": {
        "width": 1.0,
        "height": 1.0,
        "fixed": false
    },
    "baseFriendship": 50,
    "evYield": {
        "attack": 2
    },
    "height": 14,
    "weight": 320
}