{
    "name": "chandelure",
    "nationalPokedexNumber": 609,
    "primaryType": "ghost",
    "secondaryType": "fire",
    "abilities": [
        "flashfire",
        "flamebody",
        "h:infiltrator"
    ],
    "baseStats": {
        "hp": 60,
        "attack": 55,
        "defence": 90,
        "special_attack": 145,
        "special_defence": 90,
        "speed": 80
    },
    "catchRate": 45,
    "maleRatio": 0.5,
    "shoulderMountable": false,
    "forms": [],
    "baseExperienceYield": 260,
    "experienceGroup": "mediumslow",
    "eggCycles": 20,
    "eggGroups": [
        "amorphous"
    ],
    "moves": [
        "1:ember",
        "1:firespin",
        "1:nightshade",
        "1:minimize",
        "1:confuseray",
        "1:smog",
        "1:curse",
        "1:painsplit",
        "1:shadowball",
        "1:willowisp",
        "1:memento",
        "1:imprison",
        "1:astonish",
        "1:overheat",
        "1:flameburst",
        "1:hex",
        "1:inferno",
        "tm:allyswitch",
        "tm:attract",
        "tm:calmmind",
        "tm:confide",
        "tm:darkpulse",
        "tm:doubleteam",
        "tm:dreameater",
        "tm:embargo",
        "tm:endure",
        "tm:energyball",
        "tm:facade",
        "tm:fireblast",
        "tm:firespin",
        "tm:flamecharge",
        "tm:flamethrower",
        "tm:flash",
        "tm:frustration",
        "tm:gigaimpact",
        "tm:heatwave",
        "tm:hex",
        "tm:hiddenpower",
        "tm:hyperbeam",
        "tm:imprison",
        "tm:incinerate",
        "tm:mysticalfire",
        "tm:overheat",
        "tm:payback",
        "tm:protect",
        "tm:psychic",
        "tm:psychup",
        "tm:rest",
        "tm:return",
        "tm:round",
        "tm:safeguard",
        "tm:secretpower",
        "tm:shadowball",
        "tm:sleeptalk",
        "tm:snore",
        "tm:solarbeam",
        "tm:substitute",
        "tm:sunnyday",
        "tm:swagger",
        "tm:taunt",
        "tm:thief",
        "tm:toxic",
        "tm:trick",
        "tm:trickroom",
        "tm:willowisp",
        "tutor:burningjealousy",
        "tutor:laserfocus",
        "tutor:poltergeist",
        "tutor:shockwave",
        "tutor:skittersmack",
        "tutor:spite",
        "tutor:telekinesis"
    ],
    "labels": [
        "gen5"
    ],
    "pokedex": [
        "cobblemon.species.chandelure.desc1",
        "cobblemon.species.chandelure.desc2"
    ],
    "preEvolution": "lampent",
    "evolutions": [],
    "baseScale": 1.0,
    "hitbox": {
        "width": 1.0,
        "height": 1.0,
        "fixed": false
    },
    "baseFriendship": 50,
    "evYield": {
        "special_attack": 3
    },
    "height": 10,
    "weight": 343
}