{
    "name": "cryogonal",
    "nationalPokedexNumber": 615,
    "primaryType": "ice",
    "abilities": [
        "levitate"
    ],
    "baseStats": {
        "hp": 80,
        "attack": 50,
        "defence": 50,
        "special_attack": 95,
        "special_defence": 135,
        "speed": 105
    },
    "catchRate": 25,
    "maleRatio": -1,
    "shoulderMountable": false,
    "forms": [],
    "baseExperienceYield": 180,
    "experienceGroup": "mediumfast",
    "eggCycles": 25,
    "eggGroups": [
        "mineral"
    ],
    "moves": [
        "1:bind",
        "1:sharpen",
        "1:iceshard",
        "4:confuseray",
        "8:rapidspin",
        "12:laserfocus",
        "16:icywind",
        "20:mist",
        "20:haze",
        "24:ancientpower",
        "28:aurorabeam",
        "32:slash",
        "32:nightslash",
        "36:freezedry",
        "40:lightscreen",
        "40:reflect",
        "44:recover",
        "48:icebeam",
        "52:acidarmor",
        "56:solarbeam",
        "60:sheercold",
        "tm:acrobatics",
        "tm:attract",
        "tm:auroraveil",
        "tm:avalanche",
        "tm:blizzard",
        "tm:confide",
        "tm:doubleteam",
        "tm:endure",
        "tm:explosion",
        "tm:facade",
        "tm:flashcannon",
        "tm:frostbreath",
        "tm:frustration",
        "tm:hail",
        "tm:hiddenpower",
        "tm:hyperbeam",
        "tm:icebeam",
        "tm:iciclespear",
        "tm:icywind",
        "tm:irondefense",
        "tm:lightscreen",
        "tm:poisonjab",
        "tm:protect",
        "tm:raindance",
        "tm:reflect",
        "tm:rest",
        "tm:return",
        "tm:round",
        "tm:secretpower",
        "tm:selfdestruct",
        "tm:sleeptalk",
        "tm:snore",
        "tm:solarbeam",
        "tm:substitute",
        "tm:swagger",
        "tm:toxic",
        "tutor:defog",
        "tutor:knockoff",
        "tutor:magiccoat",
        "tutor:signalbeam",
        "tutor:tripleaxel",
        "tutor:waterpulse"
    ],
    "labels": [
        "gen5"
    ],
    "pokedex": [
        "cobblemon.species.cryogonal.desc1",
        "cobblemon.species.cryogonal.desc2"
    ],
    "evolutions": [],
    "baseScale": 1.0,
    "hitbox": {
        "width": 1.0,
        "height": 1.0,
        "fixed": false
    },
    "baseFriendship": 50,
    "evYield": {
        "special_defence": 2
    },
    "height": 11,
    "weight": 1480
}