{
    "name": "ducklett",
    "nationalPokedexNumber": 580,
    "primaryType": "water",
    "secondaryType": "flying",
    "abilities": [
        "keeneye",
        "bigpecks",
        "h:hydration"
    ],
    "baseStats": {
        "hp": 62,
        "attack": 44,
        "defence": 50,
        "special_attack": 44,
        "special_defence": 50,
        "speed": 55
    },
    "catchRate": 190,
    "maleRatio": 0.5,
    "shoulderMountable": false,
    "forms": [],
    "baseExperienceYield": 61,
    "experienceGroup": "mediumfast",
    "eggCycles": 20,
    "eggGroups": [
        "water_1",
        "flying"
    ],
    "moves": [
        "1:watergun",
        "3:watersport",
        "6:defog",
        "9:wingattack",
        "13:waterpulse",
        "15:aerialace",
        "19:bubblebeam",
        "21:featherdance",
        "24:aquaring",
        "27:airslash",
        "30:roost",
        "34:raindance",
        "37:tailwind",
        "41:bravebird",
        "46:hurricane",
        "egg:aircutter",
        "egg:aquajet",
        "egg:brine",
        "egg:gust",
        "egg:luckychant",
        "egg:mefirst",
        "egg:mirrormove",
        "egg:mudsport",
        "egg:steelwing",
        "tm:aerialace",
        "tm:attract",
        "tm:confide",
        "tm:dive",
        "tm:doubleteam",
        "tm:facade",
        "tm:fly",
        "tm:frustration",
        "tm:hail",
        "tm:hiddenpower",
        "tm:icebeam",
        "tm:pluck",
        "tm:protect",
        "tm:raindance",
        "tm:rest",
        "tm:return",
        "tm:roost",
        "tm:round",
        "tm:scald",
        "tm:secretpower",
        "tm:sleeptalk",
        "tm:steelwing",
        "tm:substitute",
        "tm:surf",
        "tm:swagger",
        "tm:toxic",
        "tutor:defog",
        "tutor:endeavor",
        "tutor:icywind",
        "tutor:liquidation",
        "tutor:snore",
        "tutor:tailwind",
        "tutor:uproar",
        "tutor:waterpulse"
    ],
    "labels": [
        "gen5"
    ],
    "pokedex": [
        "cobblemon.species.ducklett.desc1",
        "cobblemon.species.ducklett.desc2"
    ],
    "evolutions": [
        {
            "id": "ducklett_swanna",
            "variant": "level_up",
            "result": "swanna",
            "consumeHeldItem": false,
            "learnableMoves": [],
            "requirements": [
                {
                    "variant": "level",
                    "minLevel": 35
                }
            ]
        }
    ],
    "baseScale": 1.0,
    "hitbox": {
        "width": 1.0,
        "height": 1.0,
        "fixed": false
    },
    "baseFriendship": 70,
    "evYield": {
        "hp": 1
    },
    "height": 5,
    "weight": 55
}