{
    "name": "ferroseed",
    "nationalPokedexNumber": 597,
    "primaryType": "grass",
    "secondaryType": "steel",
    "abilities": [
        "ironbarbs"
    ],
    "baseStats": {
        "hp": 44,
        "attack": 50,
        "defence": 91,
        "special_attack": 24,
        "special_defence": 86,
        "speed": 10
    },
    "catchRate": 255,
    "maleRatio": 0.5,
    "shoulderMountable": false,
    "forms": [],
    "baseExperienceYield": 61,
    "experienceGroup": "mediumfast",
    "eggCycles": 20,
    "eggGroups": [
        "grass",
        "mineral"
    ],
    "moves": [
        "1:tackle",
        "1:harden",
        "5:metalclaw",
        "6:rollout",
        "10:pinmissile",
        "15:ingrain",
        "20:flashcannon",
        "25:ironhead",
        "30:selfdestruct",
        "30:mirrorshot",
        "35:irondefense",
        "41:curse",
        "45:gyroball",
        "50:explosion",
        "egg:acidspray",
        "egg:gravity",
        "egg:knockoff",
        "egg:leechseed",
        "egg:rockclimb",
        "egg:toxic",
        "egg:worryseed",
        "tm:assurance",
        "tm:attract",
        "tm:bulletseed",
        "tm:confide",
        "tm:doubleteam",
        "tm:endure",
        "tm:energyball",
        "tm:facade",
        "tm:flash",
        "tm:flashcannon",
        "tm:frustration",
        "tm:gigadrain",
        "tm:gyroball",
        "tm:hiddenpower",
        "tm:honeclaws",
        "tm:irondefense",
        "tm:ironhead",
        "tm:naturepower",
        "tm:payback",
        "tm:pinmissile",
        "tm:poisonjab",
        "tm:protect",
        "tm:rest",
        "tm:return",
        "tm:revenge",
        "tm:rockpolish",
        "tm:rocksmash",
        "tm:round",
        "tm:secretpower",
        "tm:seedbomb",
        "tm:selfdestruct",
        "tm:sleeptalk",
        "tm:snore",
        "tm:solarbeam",
        "tm:spikes",
        "tm:stealthrock",
        "tm:substitute",
        "tm:sunnyday",
        "tm:swagger",
        "tm:thunderbolt",
        "tm:thunderwave",
        "tutor:endeavor",
        "tutor:magnetrise",
        "tutor:steelbeam",
        "tutor:steelroller",
        "tutor:worryseed"
    ],
    "labels": [
        "gen5"
    ],
    "pokedex": [
        "cobblemon.species.ferroseed.desc1",
        "cobblemon.species.ferroseed.desc2"
    ],
    "evolutions": [
        {
            "id": "ferroseed_ferrothorn",
            "variant": "level_up",
            "result": "ferrothorn",
            "consumeHeldItem": false,
            "learnableMoves": [],
            "requirements": [
                {
                    "variant": "level",
                    "minLevel": 40
                }
            ]
        }
    ],
    "baseScale": 1.0,
    "hitbox": {
        "width": 1.0,
        "height": 1.0,
        "fixed": false
    },
    "baseFriendship": 50,
    "evYield": {
        "defence": 1
    },
    "height": 6,
    "weight": 188
}