{
    "name": "golett",
    "nationalPokedexNumber": 622,
    "primaryType": "ground",
    "secondaryType": "ghost",
    "abilities": [
        "ironfist",
        "klutz",
        "h:noguard"
    ],
    "baseStats": {
        "hp": 59,
        "attack": 74,
        "defence": 50,
        "special_attack": 35,
        "special_defence": 50,
        "speed": 35
    },
    "catchRate": 190,
    "maleRatio": -1,
    "shoulderMountable": false,
    "forms": [],
    "baseExperienceYield": 61,
    "experienceGroup": "mediumfast",
    "eggCycles": 25,
    "eggGroups": [
        "mineral"
    ],
    "moves": [
        "1:mudslap",
        "1:astonish",
        "4:defensecurl",
        "8:pound",
        "9:rollout",
        "12:shadowpunch",
        "16:curse",
        "20:nightshade",
        "24:stompingtantrum",
        "28:irondefense",
        "30:magnitude",
        "32:megapunch",
        "36:shadowball",
        "40:heavyslam",
        "44:phantomforce",
        "48:hammerarm",
        "52:earthquake",
        "56:dynamicpunch",
        "61:focuspunch",
        "tm:allyswitch",
        "tm:brickbreak",
        "tm:bulldoze",
        "tm:confide",
        "tm:dig",
        "tm:doubleteam",
        "tm:drainpunch",
        "tm:earthpower",
        "tm:earthquake",
        "tm:endure",
        "tm:facade",
        "tm:firepunch",
        "tm:flash",
        "tm:fling",
        "tm:focusblast",
        "tm:frustration",
        "tm:grassknot",
        "tm:gyroball",
        "tm:heavyslam",
        "tm:helpinghand",
        "tm:hiddenpower",
        "tm:icebeam",
        "tm:icepunch",
        "tm:icywind",
        "tm:imprison",
        "tm:irondefense",
        "tm:lowkick",
        "tm:lowsweep",
        "tm:megakick",
        "tm:megapunch",
        "tm:phantomforce",
        "tm:poweruppunch",
        "tm:protect",
        "tm:psychic",
        "tm:raindance",
        "tm:rest",
        "tm:return",
        "tm:rockpolish",
        "tm:rockslide",
        "tm:rocksmash",
        "tm:rocktomb",
        "tm:round",
        "tm:safeguard",
        "tm:secretpower",
        "tm:selfdestruct",
        "tm:shadowball",
        "tm:sleeptalk",
        "tm:snore",
        "tm:stealthrock",
        "tm:stompingtantrum",
        "tm:strength",
        "tm:substitute",
        "tm:superpower",
        "tm:swagger",
        "tm:thief",
        "tm:thunderpunch",
        "tm:toxic",
        "tutor:block",
        "tutor:focuspunch",
        "tutor:gravity",
        "tutor:magiccoat",
        "tutor:poltergeist",
        "tutor:scorchingsands",
        "tutor:shockwave",
        "tutor:signalbeam",
        "tutor:telekinesis"
    ],
    "labels": [
        "gen5"
    ],
    "pokedex": [
        "cobblemon.species.golett.desc1",
        "cobblemon.species.golett.desc2"
    ],
    "evolutions": [
        {
            "id": "golett_golurk",
            "variant": "level_up",
            "result": "golurk",
            "consumeHeldItem": false,
            "learnableMoves": [],
            "requirements": [
                {
                    "variant": "level",
                    "minLevel": 43
                }
            ]
        }
    ],
    "baseScale": 1.0,
    "hitbox": {
        "width": 1.0,
        "height": 1.0,
        "fixed": false
    },
    "baseFriendship": 50,
    "evYield": {
        "attack": 1
    },
    "height": 10,
    "weight": 920
}