{
  "name": "lilligant",
  "nationalPokedexNumber": 549,
  "primaryType": "grass",
  "abilities": ["chlorophyll", "owntempo", "h:leafguard"],
  "baseStats": {
    "hp": 70,
    "attack": 60,
    "defence": 75,
    "special_attack": 110,
    "special_defence": 75,
    "speed": 90
  },
  "catchRate": 75,
  "maleRatio": 0.0,
  "shoulderMountable": false,
  "forms": [
    {
      "name": "normal"
    },
    {
      "name": "hisui",
      "secondaryType": "fighting",
      "abilities": ["chlorophyll", "hustle", "h:leafguard"],
      "baseStats": {
        "hp": 70,
        "attack": 105,
        "defence": 75,
        "special_attack": 50,
        "special_defence": 75,
        "speed": 105
      },
      "moves": [
        "1:rocksmash",
        "1:absorb",
        "5:leafage",
        "9:stunspore",
        "15:poisonpowder",
        "21:energyball",
        "29:sleeppowder",
        "34:drainpunch",
        "37:leafblade",
        "37:recover",
        "42:victorydance",
        "47:leafstorm",
        "53:petaldance",
        "57:closecombat",
        "tutor:aerialace",
        "tutor:babydolleyes",
        "tutor:drainpunch",
        "tutor:energyball",
        "tutor:focusenergy",
        "tutor:gigaimpact",
        "tutor:hyperbeam",
        "tutor:magicalleaf",
        "tutor:poisonjab",
        "tutor:rest",
        "tutor:rocksmash"
      ],
      "pokedex": [
        "cobblemon.form.lilligant-hisui.desc1",
        "cobblemon.form.lilligant-hisui.desc2"
      ],
      "height": 12,
      "weight": 192,
      "labels": ["gen5", "hisui_regional", "regional"]
    }
  ],
  "baseExperienceYield": 168,
  "experienceGroup": "mediumfast",
  "eggCycles": 20,
  "eggGroups": ["grass"],
  "moves": [
    "0:petaldance",
    "1:absorb",
    "1:megadrain",
    "1:leechseed",
    "1:growth",
    "1:stunspore",
    "1:sleeppowder",
    "1:petaldance",
    "1:gigadrain",
    "1:synthesis",
    "1:sunnyday",
    "1:helpinghand",
    "1:teeterdance",
    "1:aromatherapy",
    "1:magicalleaf",
    "1:energyball",
    "1:leafstorm",
    "1:quiverdance",
    "1:entrainment",
    "1:afteryou",
    "1:petalblizzard",
    "tm:attract",
    "tm:charm",
    "tm:confide",
    "tm:cut",
    "tm:doubleteam",
    "tm:dreameater",
    "tm:encore",
    "tm:endure",
    "tm:energyball",
    "tm:facade",
    "tm:flash",
    "tm:frustration",
    "tm:gigadrain",
    "tm:gigaimpact",
    "tm:grassknot",
    "tm:grassyterrain",
    "tm:helpinghand",
    "tm:hiddenpower",
    "tm:hyperbeam",
    "tm:leafblade",
    "tm:leafstorm",
    "tm:lightscreen",
    "tm:magicalleaf",
    "tm:naturepower",
    "tm:pollenpuff",
    "tm:protect",
    "tm:rest",
    "tm:return",
    "tm:round",
    "tm:safeguard",
    "tm:secretpower",
    "tm:seedbomb",
    "tm:sleeptalk",
    "tm:snore",
    "tm:solarbeam",
    "tm:solarblade",
    "tm:substitute",
    "tm:sunnyday",
    "tm:swagger",
    "tm:swordsdance",
    "tm:toxic",
    "tutor:covet",
    "tutor:grassyglide",
    "tutor:healbell",
    "tutor:laserfocus",
    "tutor:roleplay",
    "tutor:worryseed"
  ],
  "labels": ["gen5", "unova_regional", "regional"],
  "pokedex": [
    "cobblemon.species.lilligant.desc1",
    "cobblemon.species.lilligant.desc2"
  ],
  "preEvolution": "petilil",
  "evolutions": [],
  "baseScale": 1.0,
  "hitbox": {
    "width": 1.0,
    "height": 1.0,
    "fixed": false
  },
  "baseFriendship": 50,
  "evYield": {
    "special_attack": 2
  },
  "height": 11,
  "weight": 163
}
