{
    "name": "reuniclus",
    "nationalPokedexNumber": 579,
    "primaryType": "psychic",
    "abilities": [
        "overcoat",
        "magicguard",
        "h:regenerator"
    ],
    "baseStats": {
        "hp": 110,
        "attack": 65,
        "defence": 75,
        "special_attack": 125,
        "special_defence": 85,
        "speed": 30
    },
    "catchRate": 50,
    "maleRatio": 0.5,
    "shoulderMountable": false,
    "forms": [],
    "baseExperienceYield": 245,
    "experienceGroup": "mediumslow",
    "eggCycles": 20,
    "eggGroups": [
        "amorphous"
    ],
    "moves": [
        "0:dizzypunch",
        "0:hammerarm",
        "1:confusion",
        "1:recover",
        "1:dizzypunch",
        "1:psywave",
        "1:protect",
        "1:rollout",
        "1:endeavor",
        "1:snatch",
        "1:hammerarm",
        "7:rollout",
        "10:snatch",
        "12:psybeam",
        "14:hiddenpower",
        "16:charm",
        "20:psyshock",
        "24:lightscreen",
        "24:reflect",
        "28:allyswitch",
        "35:painsplit",
        "40:psychic",
        "48:skillswap",
        "54:healblock",
        "56:futuresight",
        "64:wonderroom",
        "tm:allyswitch",
        "tm:attract",
        "tm:calmmind",
        "tm:charm",
        "tm:confide",
        "tm:doubleteam",
        "tm:drainpunch",
        "tm:dreameater",
        "tm:embargo",
        "tm:encore",
        "tm:endure",
        "tm:energyball",
        "tm:explosion",
        "tm:facade",
        "tm:firepunch",
        "tm:flash",
        "tm:flashcannon",
        "tm:fling",
        "tm:focusblast",
        "tm:frustration",
        "tm:futuresight",
        "tm:gigaimpact",
        "tm:grassknot",
        "tm:guardswap",
        "tm:gyroball",
        "tm:helpinghand",
        "tm:hiddenpower",
        "tm:hyperbeam",
        "tm:icepunch",
        "tm:imprison",
        "tm:infestation",
        "tm:irondefense",
        "tm:lightscreen",
        "tm:megapunch",
        "tm:powerswap",
        "tm:poweruppunch",
        "tm:protect",
        "tm:psychic",
        "tm:psychicterrain",
        "tm:psychup",
        "tm:psyshock",
        "tm:raindance",
        "tm:reflect",
        "tm:rest",
        "tm:return",
        "tm:rockslide",
        "tm:rocksmash",
        "tm:rocktomb",
        "tm:round",
        "tm:safeguard",
        "tm:secretpower",
        "tm:shadowball",
        "tm:skillswap",
        "tm:sleeptalk",
        "tm:snore",
        "tm:storedpower",
        "tm:strength",
        "tm:substitute",
        "tm:superpower",
        "tm:swagger",
        "tm:thunder",
        "tm:thunderpunch",
        "tm:thunderwave",
        "tm:toxic",
        "tm:trick",
        "tm:trickroom",
        "tm:wonderroom",
        "tm:zenheadbutt",
        "tutor:afteryou",
        "tutor:expandingforce",
        "tutor:focuspunch",
        "tutor:gravity",
        "tutor:knockoff",
        "tutor:laserfocus",
        "tutor:magiccoat",
        "tutor:roleplay",
        "tutor:shockwave",
        "tutor:signalbeam",
        "tutor:snatch",
        "tutor:steelroller",
        "tutor:telekinesis"
    ],
    "labels": [
        "gen5"
    ],
    "pokedex": [
        "cobblemon.species.reuniclus.desc1",
        "cobblemon.species.reuniclus.desc2"
    ],
    "preEvolution": "duosion",
    "evolutions": [],
    "baseScale": 1.0,
    "hitbox": {
        "width": 1.0,
        "height": 1.0,
        "fixed": false
    },
    "baseFriendship": 50,
    "evYield": {
        "special_attack": 3
    },
    "height": 10,
    "weight": 201
}