{
    "name": "swanna",
    "nationalPokedexNumber": 581,
    "primaryType": "water",
    "secondaryType": "flying",
    "abilities": [
        "keeneye",
        "bigpecks",
        "h:hydration"
    ],
    "baseStats": {
        "hp": 75,
        "attack": 87,
        "defence": 63,
        "special_attack": 87,
        "special_defence": 63,
        "speed": 98
    },
    "catchRate": 45,
    "maleRatio": 0.5,
    "shoulderMountable": false,
    "forms": [],
    "baseExperienceYield": 166,
    "experienceGroup": "mediumfast",
    "eggCycles": 20,
    "eggGroups": [
        "water_1",
        "flying"
    ],
    "moves": [
        "1:wingattack",
        "1:watergun",
        "1:watersport",
        "1:defog",
        "3:watersport",
        "6:defog",
        "9:wingattack",
        "13:waterpulse",
        "15:aerialace",
        "19:bubblebeam",
        "21:featherdance",
        "24:aquaring",
        "27:airslash",
        "30:roost",
        "34:raindance",
        "40:tailwind",
        "47:bravebird",
        "55:hurricane",
        "tm:aerialace",
        "tm:attract",
        "tm:confide",
        "tm:dive",
        "tm:doubleteam",
        "tm:facade",
        "tm:fly",
        "tm:frustration",
        "tm:gigaimpact",
        "tm:hail",
        "tm:hiddenpower",
        "tm:hyperbeam",
        "tm:icebeam",
        "tm:pluck",
        "tm:protect",
        "tm:raindance",
        "tm:rest",
        "tm:return",
        "tm:roost",
        "tm:round",
        "tm:scald",
        "tm:secretpower",
        "tm:sleeptalk",
        "tm:steelwing",
        "tm:substitute",
        "tm:surf",
        "tm:swagger",
        "tm:toxic",
        "tutor:defog",
        "tutor:endeavor",
        "tutor:icywind",
        "tutor:liquidation",
        "tutor:skyattack",
        "tutor:snore",
        "tutor:tailwind",
        "tutor:uproar",
        "tutor:waterpulse"
    ],
    "labels": [
        "gen5"
    ],
    "pokedex": [
        "cobblemon.species.swanna.desc1",
        "cobblemon.species.swanna.desc2"
    ],
    "preEvolution": "ducklett",
    "evolutions": [],
    "baseScale": 1.0,
    "hitbox": {
        "width": 1.0,
        "height": 1.0,
        "fixed": false
    },
    "baseFriendship": 70,
    "evYield": {
        "speed": 2
    },
    "height": 13,
    "weight": 242
}