{
    "name": "swoobat",
    "nationalPokedexNumber": 528,
    "primaryType": "psychic",
    "secondaryType": "flying",
    "abilities": [
        "unaware",
        "klutz",
        "h:simple"
    ],
    "baseStats": {
        "hp": 67,
        "attack": 57,
        "defence": 55,
        "special_attack": 77,
        "special_defence": 55,
        "speed": 114
    },
    "catchRate": 45,
    "maleRatio": 0.5,
    "shoulderMountable": false,
    "forms": [],
    "baseExperienceYield": 149,
    "experienceGroup": "mediumfast",
    "eggCycles": 15,
    "eggGroups": [
        "flying",
        "field"
    ],
    "moves": [
        "1:gust",
        "1:confusion",
        "1:attract",
        "1:endeavor",
        "1:odorsleuth",
        "4:odorsleuth",
        "15:aircutter",
        "15:heartstamp",
        "20:imprison",
        "25:assurance",
        "30:amnesia",
        "35:airslash",
        "40:psychic",
        "45:calmmind",
        "50:futuresight",
        "55:simplebeam",
        "tm:acrobatics",
        "tm:aerialace",
        "tm:airslash",
        "tm:allyswitch",
        "tm:amnesia",
        "tm:assurance",
        "tm:attract",
        "tm:batonpass",
        "tm:calmmind",
        "tm:chargebeam",
        "tm:charm",
        "tm:confide",
        "tm:doubleteam",
        "tm:dreameater",
        "tm:embargo",
        "tm:endure",
        "tm:energyball",
        "tm:facade",
        "tm:faketears",
        "tm:flash",
        "tm:fly",
        "tm:frustration",
        "tm:futuresight",
        "tm:gigadrain",
        "tm:gigaimpact",
        "tm:gyroball",
        "tm:heatwave",
        "tm:helpinghand",
        "tm:hiddenpower",
        "tm:hyperbeam",
        "tm:imprison",
        "tm:lightscreen",
        "tm:nastyplot",
        "tm:pluck",
        "tm:protect",
        "tm:psychic",
        "tm:psychicfangs",
        "tm:psychocut",
        "tm:psychup",
        "tm:psyshock",
        "tm:raindance",
        "tm:reflect",
        "tm:rest",
        "tm:return",
        "tm:roost",
        "tm:round",
        "tm:safeguard",
        "tm:secretpower",
        "tm:shadowball",
        "tm:skillswap",
        "tm:sleeptalk",
        "tm:snore",
        "tm:speedswap",
        "tm:steelwing",
        "tm:storedpower",
        "tm:substitute",
        "tm:swagger",
        "tm:swift",
        "tm:taunt",
        "tm:thief",
        "tm:thunderwave",
        "tm:torment",
        "tm:toxic",
        "tm:trick",
        "tm:trickroom",
        "tm:uproar",
        "tm:uturn",
        "tm:venomdrench",
        "tm:zenheadbutt",
        "tutor:afteryou",
        "tutor:defog",
        "tutor:dualwingbeat",
        "tutor:expandingforce",
        "tutor:knockoff",
        "tutor:laserfocus",
        "tutor:magiccoat",
        "tutor:shockwave",
        "tutor:signalbeam",
        "tutor:skyattack",
        "tutor:superfang",
        "tutor:tailwind",
        "tutor:telekinesis"
    ],
    "labels": [
        "gen5"
    ],
    "pokedex": [
        "cobblemon.species.swoobat.desc1",
        "cobblemon.species.swoobat.desc2"
    ],
    "preEvolution": "woobat",
    "evolutions": [],
    "baseScale": 1.0,
    "hitbox": {
        "width": 1.0,
        "height": 1.0,
        "fixed": false
    },
    "baseFriendship": 50,
    "evYield": {
        "speed": 2
    },
    "height": 9,
    "weight": 105
}