{
    "name": "whimsicott",
    "nationalPokedexNumber": 547,
    "primaryType": "grass",
    "secondaryType": "fairy",
    "abilities": [
        "prankster",
        "infiltrator",
        "h:chlorophyll"
    ],
    "baseStats": {
        "hp": 60,
        "attack": 67,
        "defence": 85,
        "special_attack": 77,
        "special_defence": 75,
        "speed": 116
    },
    "catchRate": 75,
    "maleRatio": 0.5,
    "shoulderMountable": false,
    "forms": [],
    "baseExperienceYield": 168,
    "experienceGroup": "mediumfast",
    "eggCycles": 20,
    "eggGroups": [
        "fairy",
        "grass"
    ],
    "moves": [
        "1:gust",
        "1:absorb",
        "1:megadrain",
        "1:leechseed",
        "1:growth",
        "1:razorleaf",
        "1:solarbeam",
        "1:poisonpowder",
        "1:stunspore",
        "1:cottonspore",
        "1:gigadrain",
        "1:charm",
        "1:sunnyday",
        "1:memento",
        "1:helpinghand",
        "1:endeavor",
        "1:tailwind",
        "1:energyball",
        "1:cottonguard",
        "1:hurricane",
        "1:fairywind",
        "1:moonblast",
        "tm:attract",
        "tm:beatup",
        "tm:charm",
        "tm:confide",
        "tm:dazzlinggleam",
        "tm:doubleteam",
        "tm:dreameater",
        "tm:encore",
        "tm:endure",
        "tm:energyball",
        "tm:facade",
        "tm:faketears",
        "tm:flash",
        "tm:fling",
        "tm:frustration",
        "tm:gigadrain",
        "tm:gigaimpact",
        "tm:grassknot",
        "tm:grassyterrain",
        "tm:helpinghand",
        "tm:hiddenpower",
        "tm:hurricane",
        "tm:hyperbeam",
        "tm:lightscreen",
        "tm:mistyterrain",
        "tm:naturepower",
        "tm:playrough",
        "tm:protect",
        "tm:psychic",
        "tm:rest",
        "tm:return",
        "tm:round",
        "tm:safeguard",
        "tm:secretpower",
        "tm:seedbomb",
        "tm:shadowball",
        "tm:sleeptalk",
        "tm:snore",
        "tm:solarbeam",
        "tm:substitute",
        "tm:sunnyday",
        "tm:swagger",
        "tm:swift",
        "tm:taunt",
        "tm:thief",
        "tm:toxic",
        "tm:trickroom",
        "tm:uturn",
        "tutor:covet",
        "tutor:defog",
        "tutor:grassyglide",
        "tutor:knockoff",
        "tutor:worryseed"
    ],
    "labels": [
        "gen5"
    ],
    "pokedex": [
        "cobblemon.species.whimsicott.desc1",
        "cobblemon.species.whimsicott.desc2"
    ],
    "preEvolution": "cottonee",
    "evolutions": [],
    "baseScale": 1.0,
    "hitbox": {
        "width": 1.0,
        "height": 1.0,
        "fixed": false
    },
    "baseFriendship": 50,
    "evYield": {
        "speed": 2
    },
    "height": 7,
    "weight": 66
}