{
	"format_version": "1.12.0",
	"minecraft:geometry": [
		{
			"description": {
				"identifier": "geometry.onix",
				"texture_width": 128,
				"texture_height": 128,
				"visible_bounds_width": 9,
				"visible_bounds_height": 2.5,
				"visible_bounds_offset": [0, 0.75, 0]
			},
			"bones": [
				{
					"name": "onix",
					"pivot": [0, 0, 0]
				},
				{
					"name": "body",
					"parent": "onix",
					"pivot": [0, 5, -47.5]
				},
				{
					"name": "head",
					"parent": "body",
					"pivot": [0, 5, -39.5],
					"cubes": [
						{"origin": [-6.5, -0.5, -47.5], "size": [13, 11, 8], "inflate": 0.01, "uv": [0, 22]},
						{"origin": [-6.5, 1.5, -50.5], "size": [13, 9, 3], "uv": [0, 60]},
						{"origin": [-6.30322, -0.5, -50.48704], "size": [0, 2, 3], "pivot": [-6.30322, 0.5, -48.98704], "rotation": [0, -7.5, 0], "uv": [0, 0]},
						{"origin": [6.30421, -0.5, -50.48717], "size": [0, 2, 3], "pivot": [6.30421, 0.5, -48.98717], "rotation": [0, 7.5, 0], "uv": [0, 2]},
						{"origin": [0, 10.5, -46.25], "size": [0, 12, 6], "pivot": [0, 10.5, -46.25], "rotation": [-2.5, 0, 0], "uv": [24, 74]},
						{"origin": [-6, 2.5, -56.5], "size": [12, 4, 6], "uv": [33, 0]},
						{"origin": [-1.5, 4.975, -58.375], "size": [3, 4, 9], "pivot": [0, 7.475, -52.875], "rotation": [25, 0, 0], "uv": [42, 71]},
						{"origin": [-5, 2.5, -58.5], "size": [10, 4, 2], "uv": [78, 20]}
					]
				},
				{
					"name": "jaw",
					"parent": "head",
					"pivot": [0, 2.5, -47.5],
					"cubes": [
						{"origin": [-5.5, -0.5, -51.5], "size": [11, 3, 4], "uv": [69, 13]},
						{"origin": [-5, -0.5, -56.5], "size": [10, 3, 5], "uv": [62, 31]},
						{"origin": [-3.5, -0.25, -58.25], "size": [7, 3, 2], "uv": [72, 39]}
					]
				},
				{
					"name": "eye_right",
					"parent": "head",
					"pivot": [3.75, 7.75, -50.51],
					"rotation": [0, 0, -10],
					"cubes": [
						{"origin": [1.25, 6.25, -50.51], "size": [5, 3, 0], "uv": [0, 86]}
					]
				},
				{
					"name": "pupil_right",
					"parent": "eye_right",
					"pivot": [3, 7.75, -50.51],
					"rotation": [0, 0, 10],
					"cubes": [
						{"origin": [2.5, 6.75, -50.51], "size": [1, 2, 0], "inflate": 0.01, "uv": [0, 89]}
					]
				},
				{
					"name": "eyelid_right",
					"parent": "eye_right",
					"pivot": [3.75, 7.75, -49.91],
					"cubes": [
						{"origin": [1.25, 6.25, -50.41], "size": [5, 3, 1], "inflate": 0.02, "uv": [11, 86]}
					]
				},
				{
					"name": "eye_left",
					"parent": "head",
					"pivot": [-3.75, 7.75, -50.51],
					"rotation": [0, 0, 10],
					"cubes": [
						{"origin": [-6.25, 6.25, -50.51], "size": [5, 3, 0], "uv": [0, 86], "mirror": true}
					]
				},
				{
					"name": "pupil_left",
					"parent": "eye_left",
					"pivot": [-3, 7.75, -50.51],
					"rotation": [0, 0, -10],
					"cubes": [
						{"origin": [-3.5, 6.75, -50.51], "size": [1, 2, 0], "inflate": 0.01, "uv": [0, 89], "mirror": true}
					]
				},
				{
					"name": "eyelid_left",
					"parent": "eye_left",
					"pivot": [-3.75, 7.75, -49.91],
					"cubes": [
						{"origin": [-6.25, 6.25, -50.41], "size": [5, 3, 1], "inflate": 0.02, "uv": [11, 86], "mirror": true}
					]
				},
				{
					"name": "segment1",
					"parent": "body",
					"pivot": [0, 5, -39.5],
					"rotation": [0, 0, 0]
				},
				{
					"name": "boulder1",
					"parent": "segment1",
					"pivot": [0, 5, -34],
					"cubes": [
						{"origin": [-5.5, -0.5, -39.5], "size": [11, 11, 11], "uv": [0, 0]}
					]
				},
				{
					"name": "segment2",
					"parent": "segment1",
					"pivot": [0, 5, -28.5],
					"rotation": [0, 0, 0]
				},
				{
					"name": "boulder2",
					"parent": "segment2",
					"pivot": [0, 5, -24],
					"cubes": [
						{"origin": [-4.5, 0.5, -28.5], "size": [9, 9, 9], "uv": [42, 13]}
					]
				},
				{
					"name": "segment3",
					"parent": "segment2",
					"pivot": [0, 5, -19.5],
					"rotation": [0, 0, 0]
				},
				{
					"name": "boulder3",
					"parent": "segment3",
					"pivot": [0, 5, -16],
					"cubes": [
						{"origin": [-3.5, 1.5, -19.5], "size": [7, 7, 7], "uv": [0, 92]}
					]
				},
				{
					"name": "segment4",
					"parent": "segment3",
					"pivot": [0, 5, -12.5],
					"rotation": [0, 0, 0]
				},
				{
					"name": "boulder4",
					"parent": "segment4",
					"pivot": [0, 4.75, -7.5],
					"cubes": [
						{"origin": [-5, -0.25, -12.5], "size": [10, 10, 10], "uv": [32, 31]}
					]
				},
				{
					"name": "segment5",
					"parent": "segment4",
					"pivot": [0, 4.75, -2.5],
					"rotation": [0, 0, 0]
				},
				{
					"name": "boulder5",
					"parent": "segment5",
					"pivot": [0, 4.75, 2],
					"cubes": [
						{"origin": [-4.5, 0.25, -2.5], "size": [9, 9, 9], "uv": [0, 42]}
					]
				},
				{
					"name": "segment6",
					"parent": "segment5",
					"pivot": [0, 4.75, 6.5],
					"rotation": [0, 0, 0]
				},
				{
					"name": "boulder6",
					"parent": "segment6",
					"pivot": [0, 4.75, 10.5],
					"cubes": [
						{"origin": [-4, 0.75, 6.5], "size": [8, 8, 8], "uv": [36, 51]}
					]
				},
				{
					"name": "segment7",
					"parent": "segment6",
					"pivot": [0, 4.75, 14.5],
					"rotation": [0, 0, 0]
				},
				{
					"name": "boulder7",
					"parent": "segment7",
					"pivot": [0, 4.75, 18],
					"cubes": [
						{"origin": [-3, 1.75, 14.5], "size": [6, 6, 7], "uv": [25, 67]}
					]
				},
				{
					"name": "segment8",
					"parent": "segment7",
					"pivot": [0, 4.75, 21.5],
					"rotation": [0, 0, 0]
				},
				{
					"name": "boulder8",
					"parent": "segment8",
					"pivot": [0, 4.75, 25],
					"cubes": [
						{"origin": [-3, 1.75, 21.5], "size": [6, 6, 7], "inflate": 0.01, "uv": [65, 44]}
					]
				},
				{
					"name": "segment9",
					"parent": "segment8",
					"pivot": [0, 4.75, 28.5],
					"rotation": [0, 0, 0]
				},
				{
					"name": "boulder9",
					"parent": "segment9",
					"pivot": [0, 4.75, 32],
					"cubes": [
						{"origin": [-3, 1.75, 28.5], "size": [6, 6, 7], "uv": [61, 60]}
					]
				},
				{
					"name": "segment10",
					"parent": "segment9",
					"pivot": [0, 4.75, 35.5],
					"rotation": [0, 0, 0]
				},
				{
					"name": "boulder10",
					"parent": "segment10",
					"pivot": [0, 4.75, 38],
					"cubes": [
						{"origin": [-2.5, 2.25, 35.5], "size": [5, 5, 5], "uv": [66, 73]}
					]
				},
				{
					"name": "segment11",
					"parent": "segment10",
					"pivot": [0, 4.75, 40.5],
					"rotation": [0, 0, 0]
				},
				{
					"name": "boulder11",
					"parent": "segment11",
					"pivot": [0, 4.75, 42.5],
					"cubes": [
						{"origin": [-2, 2.75, 40.5], "size": [4, 4, 4], "inflate": 0.01, "uv": [82, 79]}
					]
				},
				{
					"name": "segment12",
					"parent": "segment11",
					"pivot": [0, 4.75, 44.5],
					"rotation": [0, 0, 0]
				},
				{
					"name": "boulder12",
					"parent": "segment12",
					"pivot": [0, 4.75, 46.5],
					"cubes": [
						{"origin": [-2, 2.75, 44.5], "size": [4, 4, 4], "uv": [80, 57]}
					]
				},
				{
					"name": "segment13",
					"parent": "segment12",
					"pivot": [0, 4.75, 48.5],
					"rotation": [0, 0, 0]
				},
				{
					"name": "boulder13",
					"parent": "segment13",
					"pivot": [0, 4.75, 52.5],
					"cubes": [
						{"origin": [-2, 2.25, 48.5], "size": [4, 5, 8], "inflate": 0.01, "uv": [0, 72]}
					]
				},
				{
					"name": "segment14",
					"parent": "segment13",
					"pivot": [0, 5, 56.5],
					"rotation": [0, 0, 0]
				},
				{
					"name": "boulder14",
					"parent": "segment14",
					"pivot": [0, 5, 58.5],
					"cubes": [
						{"origin": [-1.5, 3.5, 56.5], "size": [3, 3, 4], "uv": [62, 83]}
					]
				}
			]
		}
	]
}