{
    "name": "bastiodon",
    "nationalPokedexNumber": 411,
    "primaryType": "rock",
    "secondaryType": "steel",
    "abilities": [
        "sturdy",
        "h:soundproof"
    ],
    "baseStats": {
        "hp": 60,
        "attack": 52,
        "defence": 168,
        "special_attack": 47,
        "special_defence": 138,
        "speed": 30
    },
    "catchRate": 45,
    "maleRatio": 0.875,
    "shoulderMountable": false,
    "forms": [],
    "baseExperienceYield": 173,
    "experienceGroup": "erratic",
    "eggCycles": 30,
    "eggGroups": [
        "monster"
    ],
    "moves": [
        "0:block",
        "1:tackle",
        "1:protect",
        "1:taunt",
        "1:metalsound",
        "1:block",
        "6:taunt",
        "10:metalsound",
        "15:takedown",
        "19:irondefense",
        "24:swagger",
        "28:ancientpower",
        "36:endure",
        "43:metalburst",
        "51:ironhead",
        "58:heavyslam",
        "tm:attract",
        "tm:avalanche",
        "tm:blizzard",
        "tm:bulldoze",
        "tm:captivate",
        "tm:confide",
        "tm:dig",
        "tm:doubleteam",
        "tm:earthquake",
        "tm:facade",
        "tm:fireblast",
        "tm:flamethrower",
        "tm:flashcannon",
        "tm:frustration",
        "tm:gigaimpact",
        "tm:hiddenpower",
        "tm:hyperbeam",
        "tm:icebeam",
        "tm:incinerate",
        "tm:naturalgift",
        "tm:protect",
        "tm:raindance",
        "tm:rest",
        "tm:return",
        "tm:roar",
        "tm:rockpolish",
        "tm:rockslide",
        "tm:rocksmash",
        "tm:rocktomb",
        "tm:round",
        "tm:sandstorm",
        "tm:secretpower",
        "tm:sleeptalk",
        "tm:smackdown",
        "tm:stoneedge",
        "tm:strength",
        "tm:substitute",
        "tm:sunnyday",
        "tm:swagger",
        "tm:taunt",
        "tm:thunder",
        "tm:thunderbolt",
        "tm:torment",
        "tm:toxic",
        "tutor:block",
        "tutor:earthpower",
        "tutor:headbutt",
        "tutor:irondefense",
        "tutor:ironhead",
        "tutor:irontail",
        "tutor:magiccoat",
        "tutor:magnetrise",
        "tutor:mudslap",
        "tutor:outrage",
        "tutor:shockwave",
        "tutor:snore",
        "tutor:stealthrock",
        "tutor:stompingtantrum"
    ],
    "labels": [
        "gen4"
    ],
    "pokedex": [
        "cobblemon.species.bastiodon.desc1",
        "cobblemon.species.bastiodon.desc2"
    ],
    "preEvolution": "shieldon",
    "evolutions": [],
    "baseScale": 1.0,
    "hitbox": {
        "width": 1.0,
        "height": 1.0,
        "fixed": false
    },
    "baseFriendship": 70,
    "evYield": {
        "defence": 2
    },
    "height": 13,
    "weight": 1495
}