{
    "name": "bidoof",
    "nationalPokedexNumber": 399,
    "primaryType": "normal",
    "abilities": [
        "simple",
        "unaware",
        "h:moody"
    ],
    "baseStats": {
        "hp": 59,
        "attack": 45,
        "defence": 40,
        "special_attack": 35,
        "special_defence": 40,
        "speed": 31
    },
    "catchRate": 255,
    "maleRatio": 0.5,
    "shoulderMountable": false,
    "forms": [],
    "baseExperienceYield": 50,
    "experienceGroup": "mediumfast",
    "eggCycles": 15,
    "eggGroups": [
        "water_1",
        "field"
    ],
    "behaviour": {
        "moving": {
            "swim": {
                "canSwimInWater": true,
                "canBreatheUnderwater": true
            }
        }
    },
    "drops": {
        "amount": "1",
        "entries": [
            {
                "item": "minecraft:stick",
                "percentage": 50
            }
        ]
    },
    "moves": [
        "1:tackle",
        "1:growl",
        "5:defensecurl",
        "9:rollout",
        "13:headbutt",
        "17:hyperfang",
        "21:yawn",
        "25:crunch",
        "29:takedown",
        "33:superfang",
        "37:swordsdance",
        "41:amnesia",
        "45:superpower",
        "49:curse",
        "egg:aquatail",
        "egg:defensecurl",
        "egg:doubleedge",
        "egg:endure",
        "egg:furyswipes",
        "egg:mudsport",
        "egg:odorsleuth",
        "egg:quickattack",
        "egg:rockclimb",
        "egg:rollout",
        "egg:skullbash",
        "egg:sleeptalk",
        "egg:watersport",
        "tm:attract",
        "tm:blizzard",
        "tm:captivate",
        "tm:chargebeam",
        "tm:confide",
        "tm:cut",
        "tm:dig",
        "tm:doubleteam",
        "tm:echoedvoice",
        "tm:facade",
        "tm:frustration",
        "tm:grassknot",
        "tm:hiddenpower",
        "tm:icebeam",
        "tm:naturalgift",
        "tm:pluck",
        "tm:protect",
        "tm:raindance",
        "tm:rest",
        "tm:retaliate",
        "tm:return",
        "tm:rocksmash",
        "tm:round",
        "tm:secretpower",
        "tm:shadowball",
        "tm:sleeptalk",
        "tm:substitute",
        "tm:sunnyday",
        "tm:swagger",
        "tm:swordsdance",
        "tm:taunt",
        "tm:thief",
        "tm:thunder",
        "tm:thunderbolt",
        "tm:thunderwave",
        "tm:toxic",
        "tm:workup",
        "tutor:aquatail",
        "tutor:covet",
        "tutor:furycutter",
        "tutor:icywind",
        "tutor:irontail",
        "tutor:lastresort",
        "tutor:mudslap",
        "tutor:shockwave",
        "tutor:snore",
        "tutor:stealthrock",
        "tutor:superfang",
        "tutor:superpower",
        "tutor:swift"
    ],
    "labels": [
        "gen4"
    ],
    "pokedex": [
        "cobblemon.species.bidoof.desc1",
        "cobblemon.species.bidoof.desc2"
    ],
    "evolutions": [
        {
            "id": "bidoof_bibarel",
            "variant": "level_up",
            "result": "bibarel",
            "consumeHeldItem": false,
            "learnableMoves": [],
            "requirements": [
                {
                    "variant": "level",
                    "minLevel": 15
                }
            ]
        }
    ],
    "baseScale": 1.0,
    "hitbox": {
        "width": 1.0,
        "height": 1.0,
        "fixed": false
    },
    "baseFriendship": 70,
    "evYield": {
        "hp": 1
    },
    "height": 5,
    "weight": 200
}