{
    "name": "cherrim",
    "nationalPokedexNumber": 421,
    "primaryType": "grass",
    "abilities": [
        "flowergift"
    ],
    "baseStats": {
        "hp": 70,
        "attack": 60,
        "defence": 70,
        "special_attack": 87,
        "special_defence": 78,
        "speed": 85
    },
    "catchRate": 75,
    "maleRatio": 0.5,
    "shoulderMountable": false,
    "forms": [],
    "baseExperienceYield": 158,
    "experienceGroup": "mediumfast",
    "eggCycles": 20,
    "eggGroups": [
        "fairy",
        "grass"
    ],
    "moves": [
        "0:sunnyday",
        "1:tackle",
        "1:growth",
        "1:morningsun",
        "1:sunnyday",
        "1:flowershield",
        "1:leafage",
        "15:helpinghand",
        "20:magicalleaf",
        "28:leechseed",
        "34:takedown",
        "41:petalblizzard",
        "48:luckychant",
        "48:worryseed",
        "55:solarbeam",
        "62:petaldance",
        "tm:attract",
        "tm:bulletseed",
        "tm:captivate",
        "tm:confide",
        "tm:dazzlinggleam",
        "tm:doubleteam",
        "tm:drainingkiss",
        "tm:endure",
        "tm:energyball",
        "tm:facade",
        "tm:flash",
        "tm:frustration",
        "tm:gigadrain",
        "tm:gigaimpact",
        "tm:grassknot",
        "tm:grassyterrain",
        "tm:helpinghand",
        "tm:hiddenpower",
        "tm:hyperbeam",
        "tm:magicalleaf",
        "tm:naturalgift",
        "tm:naturepower",
        "tm:playrough",
        "tm:pollenpuff",
        "tm:protect",
        "tm:rest",
        "tm:return",
        "tm:round",
        "tm:safeguard",
        "tm:secretpower",
        "tm:seedbomb",
        "tm:sleeptalk",
        "tm:snore",
        "tm:solarbeam",
        "tm:solarblade",
        "tm:substitute",
        "tm:sunnyday",
        "tm:swagger",
        "tm:swordsdance",
        "tm:toxic",
        "tm:weatherball",
        "tutor:grassyglide",
        "tutor:laserfocus",
        "tutor:rollout",
        "tutor:synthesis"
    ],
    "labels": [
        "gen4"
    ],
    "pokedex": [
        "cobblemon.species.cherrim.desc1",
        "cobblemon.species.cherrim.desc2"
    ],
    "preEvolution": "cherubi",
    "evolutions": [],
    "baseScale": 1.0,
    "hitbox": {
        "width": 1.0,
        "height": 1.0,
        "fixed": false
    },
    "baseFriendship": 50,
    "evYield": {
        "special_attack": 2
    },
    "height": 5,
    "weight": 93
}