{
    "name": "magmortar",
    "nationalPokedexNumber": 467,
    "primaryType": "fire",
    "abilities": [
        "flamebody",
        "h:vitalspirit"
    ],
    "baseStats": {
        "hp": 75,
        "attack": 95,
        "defence": 67,
        "special_attack": 125,
        "special_defence": 95,
        "speed": 83
    },
    "catchRate": 30,
    "maleRatio": 0.75,
    "shoulderMountable": false,
    "forms": [],
    "baseExperienceYield": 270,
    "experienceGroup": "mediumfast",
    "eggCycles": 25,
    "eggGroups": [
        "human_like"
    ],
    "moves": [
        "1:leer",
        "1:ember",
        "1:smokescreen",
        "1:smog",
        "12:feintattack",
        "12:clearsmog",
        "16:flamewheel",
        "20:confuseray",
        "22:flameburst",
        "24:scaryface",
        "28:firepunch",
        "34:lavaplume",
        "40:lowkick",
        "46:flamethrower",
        "52:sunnyday",
        "58:fireblast",
        "64:hyperbeam",
        "tm:attract",
        "tm:bodyslam",
        "tm:brickbreak",
        "tm:bulldoze",
        "tm:captivate",
        "tm:confide",
        "tm:doubleteam",
        "tm:earthquake",
        "tm:endure",
        "tm:facade",
        "tm:fireblast",
        "tm:firepunch",
        "tm:firespin",
        "tm:flamecharge",
        "tm:flamethrower",
        "tm:flareblitz",
        "tm:fling",
        "tm:focusblast",
        "tm:focusenergy",
        "tm:frustration",
        "tm:gigaimpact",
        "tm:heatwave",
        "tm:helpinghand",
        "tm:hiddenpower",
        "tm:hyperbeam",
        "tm:incinerate",
        "tm:irontail",
        "tm:lowkick",
        "tm:lowsweep",
        "tm:megakick",
        "tm:megapunch",
        "tm:mysticalfire",
        "tm:naturalgift",
        "tm:overheat",
        "tm:powerswap",
        "tm:poweruppunch",
        "tm:protect",
        "tm:psychic",
        "tm:rest",
        "tm:return",
        "tm:rockclimb",
        "tm:rockslide",
        "tm:rocksmash",
        "tm:rocktomb",
        "tm:round",
        "tm:scaryface",
        "tm:screech",
        "tm:secretpower",
        "tm:sleeptalk",
        "tm:snore",
        "tm:solarbeam",
        "tm:stompingtantrum",
        "tm:strength",
        "tm:substitute",
        "tm:sunnyday",
        "tm:swagger",
        "tm:taunt",
        "tm:thief",
        "tm:thunderbolt",
        "tm:thunderpunch",
        "tm:torment",
        "tm:toxic",
        "tm:uproar",
        "tm:weatherball",
        "tm:willowisp",
        "tutor:burningjealousy",
        "tutor:covet",
        "tutor:dualchop",
        "tutor:focuspunch",
        "tutor:headbutt",
        "tutor:mudslap",
        "tutor:scorchingsands"
    ],
    "labels": [
        "gen4"
    ],
    "pokedex": [
        "cobblemon.species.magmortar.desc1",
        "cobblemon.species.magmortar.desc2"
    ],
    "preEvolution": "magmar",
    "evolutions": [],
    "baseScale": 1.2,
    "hitbox": {
        "width": 1,
        "height": 2,
        "fixed": false
    },
    "baseFriendship": 50,
    "evYield": {
        "special_attack": 3
    },
    "height": 16,
    "weight": 680
}