{
    "name": "munchlax",
    "nationalPokedexNumber": 446,
    "primaryType": "normal",
    "abilities": [
        "pickup",
        "thickfat",
        "h:gluttony"
    ],
    "baseStats": {
        "hp": 135,
        "attack": 85,
        "defence": 40,
        "special_attack": 40,
        "special_defence": 85,
        "speed": 5
    },
    "catchRate": 50,
    "maleRatio": 0.875,
    "shoulderMountable": false,
    "forms": [],
    "baseExperienceYield": 78,
    "experienceGroup": "slow",
    "eggCycles": 40,
    "eggGroups": [
        "undiscovered"
    ],
    "drops": {
        "amount": "1",
        "entries": [
            {
                "item": "minecraft:apple",
                "quantityRange": "1-3",
                "percentage": 75,
                "maxSelectableTimes": 2
            }
        ]
    },
    "moves": [
        "1:tackle",
        "1:lick",
        "1:odorsleuth",
        "4:defensecurl",
        "8:recycle",
        "12:covet",
        "16:bite",
        "17:chipaway",
        "20:stockpile",
        "20:swallow",
        "24:screech",
        "28:bodyslam",
        "32:fling",
        "36:amnesia",
        "36:rollout",
        "40:metronome",
        "44:flail",
        "48:bellydrum",
        "49:naturalgift",
        "50:snatch",
        "52:lastresort",
        "egg:afteryou",
        "egg:belch",
        "egg:counter",
        "egg:curse",
        "egg:doubleedge",
        "egg:fissure",
        "egg:naturalgift",
        "egg:pursuit",
        "egg:whirlwind",
        "tm:amnesia",
        "tm:attract",
        "tm:blizzard",
        "tm:bodyslam",
        "tm:brickbreak",
        "tm:bulldoze",
        "tm:captivate",
        "tm:charm",
        "tm:confide",
        "tm:doubleteam",
        "tm:earthquake",
        "tm:encore",
        "tm:endure",
        "tm:facade",
        "tm:fireblast",
        "tm:firepunch",
        "tm:flamethrower",
        "tm:fling",
        "tm:frustration",
        "tm:gunkshot",
        "tm:hiddenpower",
        "tm:hydropump",
        "tm:hypervoice",
        "tm:icebeam",
        "tm:icepunch",
        "tm:icywind",
        "tm:incinerate",
        "tm:megakick",
        "tm:megapunch",
        "tm:metronome",
        "tm:payday",
        "tm:poweruppunch",
        "tm:protect",
        "tm:psychic",
        "tm:raindance",
        "tm:rest",
        "tm:retaliate",
        "tm:return",
        "tm:rockclimb",
        "tm:rockslide",
        "tm:rocksmash",
        "tm:rocktomb",
        "tm:round",
        "tm:sandstorm",
        "tm:screech",
        "tm:secretpower",
        "tm:seedbomb",
        "tm:selfdestruct",
        "tm:shadowball",
        "tm:sleeptalk",
        "tm:snore",
        "tm:solarbeam",
        "tm:stompingtantrum",
        "tm:strength",
        "tm:substitute",
        "tm:sunnyday",
        "tm:superpower",
        "tm:surf",
        "tm:swagger",
        "tm:thunder",
        "tm:thunderbolt",
        "tm:thunderpunch",
        "tm:toxic",
        "tm:uproar",
        "tm:whirlpool",
        "tm:workup",
        "tm:zenheadbutt",
        "tutor:afteryou",
        "tutor:focuspunch",
        "tutor:headbutt",
        "tutor:mudslap",
        "tutor:shockwave",
        "tutor:snatch",
        "tutor:waterpulse"
    ],
    "labels": [
        "baby",
        "gen4"
    ],
    "pokedex": [
        "cobblemon.species.munchlax.desc1",
        "cobblemon.species.munchlax.desc2"
    ],
    "evolutions": [
        {
            "id": "munchlax_snorlax",
            "variant": "level_up",
            "result": "snorlax",
            "consumeHeldItem": false,
            "learnableMoves": [],
            "requirements": [
                {
                    "variant": "friendship",
                    "amount": 160
                }
            ]
        }
    ],
    "baseScale": 1,
    "hitbox": {
        "width": 0.7,
        "height": 1,
        "fixed": false
    },
    "baseFriendship": 50,
    "evYield": {
        "hp": 1
    },
    "height": 6,
    "weight": 1050
}