{
    "name": "pachirisu",
    "nationalPokedexNumber": 417,
    "primaryType": "electric",
    "abilities": [
        "runaway",
        "pickup",
        "h:voltabsorb"
    ],
    "baseStats": {
        "hp": 60,
        "attack": 45,
        "defence": 70,
        "special_attack": 45,
        "special_defence": 90,
        "speed": 95
    },
    "catchRate": 200,
    "maleRatio": 0.5,
    "shoulderMountable": false,
    "forms": [],
    "baseExperienceYield": 142,
    "experienceGroup": "mediumfast",
    "eggCycles": 10,
    "eggGroups": [
        "field",
        "fairy"
    ],
    "moves": [
        "1:growl",
        "1:bide",
        "5:quickattack",
        "9:charm",
        "13:spark",
        "17:endure",
        "19:nuzzle",
        "21:swift",
        "25:electroball",
        "29:sweetkiss",
        "33:thunderwave",
        "37:superfang",
        "41:discharge",
        "45:lastresort",
        "49:hyperfang",
        "egg:babydolleyes",
        "egg:bestow",
        "egg:bite",
        "egg:charge",
        "egg:covet",
        "egg:defensecurl",
        "egg:faketears",
        "egg:flail",
        "egg:flatter",
        "egg:followme",
        "egg:iondeluge",
        "egg:irontail",
        "egg:rollout",
        "egg:tailwhip",
        "tm:attract",
        "tm:captivate",
        "tm:chargebeam",
        "tm:confide",
        "tm:cut",
        "tm:dig",
        "tm:doubleteam",
        "tm:echoedvoice",
        "tm:facade",
        "tm:flash",
        "tm:fling",
        "tm:frustration",
        "tm:grassknot",
        "tm:hiddenpower",
        "tm:lightscreen",
        "tm:naturalgift",
        "tm:protect",
        "tm:raindance",
        "tm:rest",
        "tm:return",
        "tm:round",
        "tm:secretpower",
        "tm:sleeptalk",
        "tm:substitute",
        "tm:swagger",
        "tm:thunder",
        "tm:thunderbolt",
        "tm:thunderwave",
        "tm:toxic",
        "tm:uturn",
        "tm:voltswitch",
        "tutor:covet",
        "tutor:electroweb",
        "tutor:gunkshot",
        "tutor:headbutt",
        "tutor:helpinghand",
        "tutor:irontail",
        "tutor:laserfocus",
        "tutor:lastresort",
        "tutor:magnetrise",
        "tutor:mudslap",
        "tutor:seedbomb",
        "tutor:shockwave",
        "tutor:snore",
        "tutor:superfang",
        "tutor:thunderpunch",
        "tutor:uproar"
    ],
    "labels": [
        "gen4"
    ],
    "pokedex": [
        "cobblemon.species.pachirisu.desc1",
        "cobblemon.species.pachirisu.desc2"
    ],
    "evolutions": [],
    "baseScale": 1.0,
    "hitbox": {
        "width": 1.0,
        "height": 1.0,
        "fixed": false
    },
    "baseFriendship": 100,
    "evYield": {
        "speed": 1
    },
    "height": 4,
    "weight": 39
}