{
    "name": "palkia",
    "nationalPokedexNumber": 484,
    "primaryType": "water",
    "secondaryType": "dragon",
    "abilities": [
        "pressure",
        "h:telepathy"
    ],
    "baseStats": {
        "hp": 90,
        "attack": 120,
        "defence": 100,
        "special_attack": 150,
        "special_defence": 120,
        "speed": 100
    },
    "catchRate": 3,
    "maleRatio": -1,
    "shoulderMountable": false,
    "forms": [
        {
            "name": "origin",
            "baseStats": {
                "hp": 90,
                "attack": 100,
                "defence": 100,
                "special_attack": 150,
                "special_defence": 120,
                "speed": 120
            },
            "baseExperienceYield": null,
            "moves": [],
            "pokedex": [
                "cobblemon.form.palkia-origin.desc1",
                "cobblemon.form.palkia-origin.desc2"
            ],
            "height": 63,
            "weight": 6590
        }
    ],
    "baseExperienceYield": 340,
    "experienceGroup": "slow",
    "eggCycles": 120,
    "eggGroups": [
        "undiscovered"
    ],
    "moves": [
        "1:scaryface",
        "1:waterpulse",
        "8:dragonbreath",
        "16:ancientpower",
        "24:slash",
        "32:aquaring",
        "40:dragonclaw",
        "48:aurasphere",
        "50:healblock",
        "56:powergem",
        "64:aquatail",
        "72:earthpower",
        "80:spacialrend",
        "88:hydropump",
        "tm:aerialace",
        "tm:aurasphere",
        "tm:avalanche",
        "tm:blizzard",
        "tm:bodypress",
        "tm:bodyslam",
        "tm:breakingswipe",
        "tm:brickbreak",
        "tm:brine",
        "tm:bulkup",
        "tm:bulldoze",
        "tm:confide",
        "tm:cut",
        "tm:dive",
        "tm:doubleteam",
        "tm:dragonclaw",
        "tm:dragonpulse",
        "tm:dragontail",
        "tm:earthpower",
        "tm:earthquake",
        "tm:echoedvoice",
        "tm:endure",
        "tm:facade",
        "tm:fireblast",
        "tm:flamethrower",
        "tm:fling",
        "tm:focusblast",
        "tm:frustration",
        "tm:gigaimpact",
        "tm:hail",
        "tm:heavyslam",
        "tm:hiddenpower",
        "tm:honeclaws",
        "tm:hydropump",
        "tm:hyperbeam",
        "tm:hypervoice",
        "tm:icebeam",
        "tm:incinerate",
        "tm:liquidation",
        "tm:naturalgift",
        "tm:outrage",
        "tm:powergem",
        "tm:protect",
        "tm:psychup",
        "tm:raindance",
        "tm:rest",
        "tm:return",
        "tm:roar",
        "tm:rockslide",
        "tm:rocksmash",
        "tm:rocktomb",
        "tm:round",
        "tm:safeguard",
        "tm:sandstorm",
        "tm:scaryface",
        "tm:secretpower",
        "tm:shadowclaw",
        "tm:sleeptalk",
        "tm:snore",
        "tm:stompingtantrum",
        "tm:stoneedge",
        "tm:strength",
        "tm:substitute",
        "tm:sunnyday",
        "tm:surf",
        "tm:swagger",
        "tm:swift",
        "tm:thunder",
        "tm:thunderbolt",
        "tm:thunderwave",
        "tm:toxic",
        "tm:trickroom",
        "tm:whirlpool",
        "tutor:dracometeor",
        "tutor:dualwingbeat",
        "tutor:focuspunch",
        "tutor:furycutter",
        "tutor:gravity",
        "tutor:headbutt",
        "tutor:mudslap",
        "tutor:scaleshot",
        "tutor:shockwave",
        "tutor:twister"
    ],
    "labels": [
        "gen4",
        "legendary"
    ],
    "pokedex": [
        "cobblemon.species.palkia.desc1",
        "cobblemon.species.palkia.desc2"
    ],
    "evolutions": [],
    "baseScale": 1.0,
    "hitbox": {
        "width": 1.0,
        "height": 1.0,
        "fixed": false
    },
    "baseFriendship": 0,
    "evYield": {
        "special_attack": 3
    },
    "height": 42,
    "weight": 3360
}