{
    "name": "regigigas",
    "nationalPokedexNumber": 486,
    "primaryType": "normal",
    "abilities": [
        "slowstart"
    ],
    "baseStats": {
        "hp": 110,
        "attack": 160,
        "defence": 110,
        "special_attack": 80,
        "special_defence": 110,
        "speed": 100
    },
    "catchRate": 3,
    "maleRatio": -1,
    "shoulderMountable": false,
    "forms": [],
    "baseExperienceYield": 335,
    "experienceGroup": "slow",
    "eggCycles": 120,
    "eggGroups": [
        "undiscovered"
    ],
    "moves": [
        "1:pound",
        "1:confuseray",
        "1:dizzypunch",
        "1:foresight",
        "6:payback",
        "12:revenge",
        "18:stomp",
        "24:protect",
        "30:knockoff",
        "36:megapunch",
        "42:bodypress",
        "48:wideguard",
        "54:zenheadbutt",
        "60:heavyslam",
        "66:hammerarm",
        "72:gigaimpact",
        "78:crushgrip",
        "tm:aerialace",
        "tm:avalanche",
        "tm:bodypress",
        "tm:bodyslam",
        "tm:brickbreak",
        "tm:bulldoze",
        "tm:confide",
        "tm:darkestlariat",
        "tm:doubleteam",
        "tm:drainpunch",
        "tm:earthpower",
        "tm:earthquake",
        "tm:endure",
        "tm:facade",
        "tm:firepunch",
        "tm:fling",
        "tm:focusblast",
        "tm:frustration",
        "tm:gigaimpact",
        "tm:heatcrash",
        "tm:heavyslam",
        "tm:hiddenpower",
        "tm:highhorsepower",
        "tm:hyperbeam",
        "tm:icepunch",
        "tm:icywind",
        "tm:ironhead",
        "tm:megakick",
        "tm:megapunch",
        "tm:naturalgift",
        "tm:naturepower",
        "tm:payback",
        "tm:poweruppunch",
        "tm:protect",
        "tm:psychup",
        "tm:raindance",
        "tm:rest",
        "tm:retaliate",
        "tm:return",
        "tm:revenge",
        "tm:rockclimb",
        "tm:rockpolish",
        "tm:rockslide",
        "tm:rocksmash",
        "tm:rocktomb",
        "tm:round",
        "tm:safeguard",
        "tm:secretpower",
        "tm:sleeptalk",
        "tm:smackdown",
        "tm:snore",
        "tm:stompingtantrum",
        "tm:stoneedge",
        "tm:strength",
        "tm:substitute",
        "tm:sunnyday",
        "tm:superpower",
        "tm:swagger",
        "tm:thunder",
        "tm:thunderbolt",
        "tm:thunderpunch",
        "tm:thunderwave",
        "tm:toxic",
        "tm:zenheadbutt",
        "tutor:ancientpower",
        "tutor:block",
        "tutor:focuspunch",
        "tutor:gravity",
        "tutor:headbutt",
        "tutor:mudslap",
        "tutor:shockwave",
        "tutor:terrainpulse"
    ],
    "labels": [
        "gen4",
        "legendary"
    ],
    "pokedex": [
        "cobblemon.species.regigigas.desc1",
        "cobblemon.species.regigigas.desc2"
    ],
    "evolutions": [],
    "baseScale": 1.0,
    "hitbox": {
        "width": 1.0,
        "height": 1.0,
        "fixed": false
    },
    "baseFriendship": 0,
    "evYield": {
        "attack": 3
    },
    "height": 37,
    "weight": 4200
}