{
    "name": "togekiss",
    "nationalPokedexNumber": 468,
    "primaryType": "fairy",
    "secondaryType": "flying",
    "abilities": [
        "hustle",
        "serenegrace",
        "h:superluck"
    ],
    "baseStats": {
        "hp": 85,
        "attack": 50,
        "defence": 95,
        "special_attack": 120,
        "special_defence": 115,
        "speed": 80
    },
    "catchRate": 30,
    "maleRatio": 0.875,
    "shoulderMountable": false,
    "forms": [],
    "baseExperienceYield": 273,
    "experienceGroup": "fast",
    "eggCycles": 10,
    "eggGroups": [
        "flying",
        "fairy"
    ],
    "moves": [
        "0:airslash",
        "1:pound",
        "1:doubleedge",
        "1:growl",
        "1:metronome",
        "1:skyattack",
        "1:triattack",
        "1:sweetkiss",
        "1:charm",
        "1:safeguard",
        "1:batonpass",
        "1:extremespeed",
        "1:ancientpower",
        "1:followme",
        "1:wish",
        "1:yawn",
        "1:lastresort",
        "1:aurasphere",
        "1:airslash",
        "1:afteryou",
        "1:fairywind",
        "1:lifedew",
        "tm:aerialace",
        "tm:airslash",
        "tm:allyswitch",
        "tm:amnesia",
        "tm:attract",
        "tm:aurasphere",
        "tm:batonpass",
        "tm:bodyslam",
        "tm:brickbreak",
        "tm:captivate",
        "tm:charm",
        "tm:confide",
        "tm:dazzlinggleam",
        "tm:doubleteam",
        "tm:drainingkiss",
        "tm:drainpunch",
        "tm:dreameater",
        "tm:echoedvoice",
        "tm:encore",
        "tm:endure",
        "tm:facade",
        "tm:fireblast",
        "tm:flamethrower",
        "tm:flash",
        "tm:fling",
        "tm:fly",
        "tm:frustration",
        "tm:futuresight",
        "tm:gigaimpact",
        "tm:grassknot",
        "tm:heatwave",
        "tm:helpinghand",
        "tm:hiddenpower",
        "tm:hyperbeam",
        "tm:hypervoice",
        "tm:imprison",
        "tm:incinerate",
        "tm:lightscreen",
        "tm:magicalleaf",
        "tm:megakick",
        "tm:megapunch",
        "tm:metronome",
        "tm:mysticalfire",
        "tm:nastyplot",
        "tm:naturalgift",
        "tm:playrough",
        "tm:pluck",
        "tm:protect",
        "tm:psychic",
        "tm:psychup",
        "tm:psyshock",
        "tm:raindance",
        "tm:reflect",
        "tm:rest",
        "tm:retaliate",
        "tm:return",
        "tm:rocksmash",
        "tm:roost",
        "tm:round",
        "tm:safeguard",
        "tm:secretpower",
        "tm:shadowball",
        "tm:silverwind",
        "tm:sleeptalk",
        "tm:smartstrike",
        "tm:snore",
        "tm:solarbeam",
        "tm:steelwing",
        "tm:storedpower",
        "tm:substitute",
        "tm:sunnyday",
        "tm:swagger",
        "tm:swift",
        "tm:thunderwave",
        "tm:toxic",
        "tm:triattack",
        "tm:trick",
        "tm:uproar",
        "tm:workup",
        "tm:zenheadbutt",
        "tutor:aircutter",
        "tutor:covet",
        "tutor:defog",
        "tutor:dualwingbeat",
        "tutor:endeavor",
        "tutor:focuspunch",
        "tutor:headbutt",
        "tutor:healbell",
        "tutor:laserfocus",
        "tutor:magiccoat",
        "tutor:mudslap",
        "tutor:ominouswind",
        "tutor:rollout",
        "tutor:shockwave",
        "tutor:signalbeam",
        "tutor:tailwind",
        "tutor:telekinesis",
        "tutor:twister",
        "tutor:waterpulse"
    ],
    "labels": [
        "gen4"
    ],
    "pokedex": [
        "cobblemon.species.togekiss.desc1",
        "cobblemon.species.togekiss.desc2"
    ],
    "preEvolution": "togetic",
    "evolutions": [],
    "baseScale": 1.0,
    "hitbox": {
        "width": 1.0,
        "height": 1.0,
        "fixed": false
    },
    "baseFriendship": 50,
    "evYield": {
        "special_attack": 2,
        "special_defence": 1
    },
    "height": 15,
    "weight": 380
}