{
    "name": "toxicroak",
    "nationalPokedexNumber": 454,
    "primaryType": "poison",
    "secondaryType": "fighting",
    "abilities": [
        "anticipation",
        "dryskin",
        "h:poisontouch"
    ],
    "baseStats": {
        "hp": 83,
        "attack": 106,
        "defence": 65,
        "special_attack": 86,
        "special_defence": 65,
        "speed": 85
    },
    "catchRate": 75,
    "maleRatio": 0.5,
    "shoulderMountable": false,
    "forms": [],
    "baseExperienceYield": 172,
    "experienceGroup": "mediumfast",
    "eggCycles": 20,
    "eggGroups": [
        "human_like"
    ],
    "moves": [
        "1:poisonsting",
        "1:mudslap",
        "1:taunt",
        "1:astonish",
        "12:flatter",
        "15:pursuit",
        "16:revenge",
        "17:feintattack",
        "20:venoshock",
        "24:suckerpunch",
        "28:swagger",
        "29:mudbomb",
        "32:poisonjab",
        "36:toxic",
        "42:nastyplot",
        "48:sludgebomb",
        "54:belch",
        "tm:assurance",
        "tm:attract",
        "tm:batonpass",
        "tm:bounce",
        "tm:brickbreak",
        "tm:bulkup",
        "tm:bulldoze",
        "tm:captivate",
        "tm:confide",
        "tm:crosspoison",
        "tm:cut",
        "tm:darkpulse",
        "tm:dig",
        "tm:doubleteam",
        "tm:drainpunch",
        "tm:earthquake",
        "tm:embargo",
        "tm:encore",
        "tm:endure",
        "tm:facade",
        "tm:fling",
        "tm:focusblast",
        "tm:foulplay",
        "tm:frustration",
        "tm:gigaimpact",
        "tm:gunkshot",
        "tm:helpinghand",
        "tm:hiddenpower",
        "tm:hyperbeam",
        "tm:icepunch",
        "tm:icywind",
        "tm:lowkick",
        "tm:lowsweep",
        "tm:megakick",
        "tm:megapunch",
        "tm:nastyplot",
        "tm:naturalgift",
        "tm:payback",
        "tm:poisonjab",
        "tm:poweruppunch",
        "tm:protect",
        "tm:raindance",
        "tm:rest",
        "tm:retaliate",
        "tm:return",
        "tm:revenge",
        "tm:rockclimb",
        "tm:rockslide",
        "tm:rocksmash",
        "tm:rocktomb",
        "tm:round",
        "tm:screech",
        "tm:secretpower",
        "tm:shadowball",
        "tm:sleeptalk",
        "tm:sludgebomb",
        "tm:sludgewave",
        "tm:snore",
        "tm:stoneedge",
        "tm:strength",
        "tm:substitute",
        "tm:sunnyday",
        "tm:swordsdance",
        "tm:taunt",
        "tm:thief",
        "tm:throatchop",
        "tm:thunderpunch",
        "tm:torment",
        "tm:venomdrench",
        "tm:venoshock",
        "tm:workup",
        "tm:xscissor",
        "tutor:coaching",
        "tutor:corrosivegas",
        "tutor:dualchop",
        "tutor:focuspunch",
        "tutor:furycutter",
        "tutor:headbutt",
        "tutor:knockoff",
        "tutor:lashout",
        "tutor:roleplay",
        "tutor:snatch",
        "tutor:spite",
        "tutor:superfang",
        "tutor:vacuumwave"
    ],
    "labels": [
        "gen4"
    ],
    "pokedex": [
        "cobblemon.species.toxicroak.desc1",
        "cobblemon.species.toxicroak.desc2"
    ],
    "preEvolution": "croagunk",
    "evolutions": [],
    "baseScale": 1.0,
    "hitbox": {
        "width": 1.0,
        "height": 1.0,
        "fixed": false
    },
    "baseFriendship": 50,
    "evYield": {
        "attack": 2
    },
    "height": 13,
    "weight": 444
}