{
    "name": "turtwig",
    "nationalPokedexNumber": 387,
    "primaryType": "grass",
    "abilities": [
        "overgrow",
        "h:shellarmor"
    ],
    "baseStats": {
        "hp": 55,
        "attack": 68,
        "defence": 64,
        "special_attack": 45,
        "special_defence": 55,
        "speed": 31
    },
    "catchRate": 45,
    "maleRatio": 0.875,
    "shoulderMountable": false,
    "forms": [],
    "baseExperienceYield": 64,
    "experienceGroup": "mediumslow",
    "eggCycles": 20,
    "eggGroups": [
        "monster",
        "grass"
    ],
    "moves": [
        "1:tackle",
        "5:withdraw",
        "9:absorb",
        "13:razorleaf",
        "17:curse",
        "21:bite",
        "25:megadrain",
        "29:leechseed",
        "33:synthesis",
        "37:crunch",
        "41:gigadrain",
        "45:leafstorm",
        "egg:amnesia",
        "egg:bodyslam",
        "egg:doubleedge",
        "egg:earthpower",
        "egg:grassyterrain",
        "egg:growth",
        "egg:heavyslam",
        "egg:sandtomb",
        "egg:seedbomb",
        "egg:spitup",
        "egg:stockpile",
        "egg:superpower",
        "egg:swallow",
        "egg:thrash",
        "egg:tickle",
        "egg:wideguard",
        "egg:worryseed",
        "tm:attract",
        "tm:bulletseed",
        "tm:captivate",
        "tm:confide",
        "tm:cut",
        "tm:doubleteam",
        "tm:endure",
        "tm:energyball",
        "tm:facade",
        "tm:flash",
        "tm:frustration",
        "tm:grassknot",
        "tm:hiddenpower",
        "tm:lightscreen",
        "tm:naturalgift",
        "tm:naturepower",
        "tm:protect",
        "tm:reflect",
        "tm:rest",
        "tm:return",
        "tm:rockclimb",
        "tm:rocksmash",
        "tm:round",
        "tm:safeguard",
        "tm:secretpower",
        "tm:sleeptalk",
        "tm:solarbeam",
        "tm:strength",
        "tm:substitute",
        "tm:sunnyday",
        "tm:swagger",
        "tm:swordsdance",
        "tm:toxic",
        "tm:workup",
        "tutor:earthpower",
        "tutor:gigadrain",
        "tutor:grasspledge",
        "tutor:headbutt",
        "tutor:irontail",
        "tutor:mudslap",
        "tutor:seedbomb",
        "tutor:snore",
        "tutor:stealthrock",
        "tutor:superpower",
        "tutor:synthesis",
        "tutor:worryseed"
    ],
    "labels": [
        "gen4"
    ],
    "pokedex": [
        "cobblemon.species.turtwig.desc1",
        "cobblemon.species.turtwig.desc2"
    ],
    "evolutions": [
        {
            "id": "turtwig_grotle",
            "variant": "level_up",
            "result": "grotle",
            "consumeHeldItem": false,
            "learnableMoves": [],
            "requirements": [
                {
                    "variant": "level",
                    "minLevel": 18
                }
            ]
        }
    ],
    "baseScale": 1.0,
    "hitbox": {
        "width": 1.0,
        "height": 1.0,
        "fixed": false
    },
    "baseFriendship": 70,
    "evYield": {
        "attack": 1
    },
    "height": 4,
    "weight": 102
}