{
    "name": "weavile",
    "nationalPokedexNumber": 461,
    "primaryType": "dark",
    "secondaryType": "ice",
    "abilities": [
        "pressure",
        "h:pickpocket"
    ],
    "baseStats": {
        "hp": 70,
        "attack": 120,
        "defence": 65,
        "special_attack": 45,
        "special_defence": 85,
        "speed": 125
    },
    "catchRate": 45,
    "maleRatio": 0.5,
    "shoulderMountable": false,
    "forms": [],
    "baseExperienceYield": 179,
    "experienceGroup": "mediumslow",
    "eggCycles": 20,
    "eggGroups": [
        "field"
    ],
    "moves": [
        "1:scratch",
        "1:leer",
        "1:agility",
        "1:quickattack",
        "1:slash",
        "1:beatup",
        "1:taunt",
        "1:revenge",
        "1:assurance",
        "1:embargo",
        "1:iceshard",
        "10:feintattack",
        "18:metalclaw",
        "24:icywind",
        "30:furyswipes",
        "36:honeclaws",
        "40:snatch",
        "42:fling",
        "44:punishment",
        "48:nastyplot",
        "54:screech",
        "60:nightslash",
        "66:darkpulse",
        "tm:aerialace",
        "tm:agility",
        "tm:assurance",
        "tm:attract",
        "tm:avalanche",
        "tm:beatup",
        "tm:blizzard",
        "tm:brickbreak",
        "tm:calmmind",
        "tm:captivate",
        "tm:confide",
        "tm:cut",
        "tm:darkpulse",
        "tm:dig",
        "tm:doubleteam",
        "tm:dreameater",
        "tm:embargo",
        "tm:endure",
        "tm:facade",
        "tm:faketears",
        "tm:falseswipe",
        "tm:fling",
        "tm:focusblast",
        "tm:foulplay",
        "tm:frustration",
        "tm:gigaimpact",
        "tm:hail",
        "tm:hiddenpower",
        "tm:hyperbeam",
        "tm:icebeam",
        "tm:icepunch",
        "tm:iciclespear",
        "tm:icywind",
        "tm:irontail",
        "tm:lowkick",
        "tm:lowsweep",
        "tm:megakick",
        "tm:megapunch",
        "tm:nastyplot",
        "tm:naturalgift",
        "tm:payback",
        "tm:poisonjab",
        "tm:poweruppunch",
        "tm:protect",
        "tm:psychocut",
        "tm:psychup",
        "tm:raindance",
        "tm:reflect",
        "tm:rest",
        "tm:retaliate",
        "tm:return",
        "tm:revenge",
        "tm:rocksmash",
        "tm:round",
        "tm:screech",
        "tm:secretpower",
        "tm:shadowball",
        "tm:shadowclaw",
        "tm:sleeptalk",
        "tm:snarl",
        "tm:snore",
        "tm:strength",
        "tm:substitute",
        "tm:sunnyday",
        "tm:surf",
        "tm:swagger",
        "tm:swift",
        "tm:swordsdance",
        "tm:taunt",
        "tm:thief",
        "tm:throatchop",
        "tm:torment",
        "tm:toxic",
        "tm:whirlpool",
        "tm:xscissor",
        "tutor:focuspunch",
        "tutor:furycutter",
        "tutor:headbutt",
        "tutor:knockoff",
        "tutor:laserfocus",
        "tutor:lashout",
        "tutor:mudslap",
        "tutor:snatch",
        "tutor:spite",
        "tutor:tripleaxel"
    ],
    "labels": [
        "gen4"
    ],
    "pokedex": [
        "cobblemon.species.weavile.desc1",
        "cobblemon.species.weavile.desc2"
    ],
    "preEvolution": "sneasel",
    "evolutions": [],
    "baseScale": 1.0,
    "hitbox": {
        "width": 1.0,
        "height": 1.0,
        "fixed": false
    },
    "baseFriendship": 35,
    "evYield": {
        "attack": 1,
        "speed": 1
    },
    "height": 11,
    "weight": 340
}