{
	"format_version": "1.8.0",
	"animations": {
		"animation.nidoking.ground_idle": {
			"loop": true,
			"bones": {
				"head": {
					"rotation": [2.5, 0, 0]
				},
				"forearm_left": {
					"rotation": [0, -15, 60]
				},
				"hand_left": {
					"rotation": [90, 75, 0]
				},
				"forearm_right": {
					"rotation": [0, 15, -60]
				},
				"hand_right": {
					"rotation": [90, -75, 0]
				},
				"tail": {
					"rotation": [-10, 0, 0]
				},
				"tail2": {
					"rotation": [5, 0, 0]
				},
				"tail3": {
					"rotation": [5, 0, 0]
				},
				"tail4": {
					"rotation": [5, 0, 0]
				}
			}
		}
	}
}