{
  "name": "airslash",
  "type": "Flying",
  "damageCategory": "Special",
  "target": "any",
  "power": 75,
  "accuracy": 95,
  "pp": 15,
  "priority": 0,
  "effectChance": 30,
  "flags": {
    "protect": 1,
    "mirror": 1,
    "distance": 1
  }
}