{
  "name": "aromaticmist",
  "type": "Fairy",
  "damageCategory": "Status",
  "target": "adjacentAlly",
  "power": 0,
  "accuracy": 100.0,
  "pp": 20,
  "priority": 0,
  "flags": {
    "bypasssub": 1
  }
}