{
  "name": "boneclub",
  "type": "Ground",
  "damageCategory": "Physical",
  "target": "normal",
  "power": 65,
  "accuracy": 85,
  "pp": 20,
  "priority": 0,
  "effectChance": 10,
  "flags": {
    "protect": 1,
    "mirror": 1
  }
}