{
  "name": "boomburst",
  "type": "Normal",
  "damageCategory": "Special",
  "target": "allAdjacent",
  "power": 140,
  "accuracy": 100,
  "pp": 10,
  "priority": 0,
  "flags": {
    "protect": 1,
    "mirror": 1,
    "sound": 1,
    "bypasssub": 1
  }
}