{
  "name": "breakingswipe",
  "type": "Dragon",
  "damageCategory": "Physical",
  "target": "allAdjacentFoes",
  "power": 60,
  "accuracy": 100,
  "pp": 15,
  "priority": 0,
  "effectChance": 100,
  "flags": {
    "contact": 1,
    "protect": 1,
    "mirror": 1
  }
}