{
  "name": "chatter",
  "type": "Flying",
  "damageCategory": "Special",
  "target": "any",
  "power": 65,
  "accuracy": 100,
  "pp": 20,
  "priority": 0,
  "effectChance": 100,
  "flags": {
    "protect": 1,
    "mirror": 1,
    "sound": 1,
    "distance": 1,
    "bypasssub": 1
  }
}