{
  "name": "darkpulse",
  "type": "Dark",
  "damageCategory": "Special",
  "target": "any",
  "power": 80,
  "accuracy": 100,
  "pp": 15,
  "priority": 0,
  "effectChance": 20,
  "flags": {
    "protect": 1,
    "pulse": 1,
    "mirror": 1,
    "distance": 1
  }
}