{
  "name": "gastroacid",
  "type": "Poison",
  "damageCategory": "Status",
  "target": "normal",
  "power": 0,
  "accuracy": 100,
  "pp": 10,
  "priority": 0,
  "flags": {
    "protect": 1,
    "reflectable": 1,
    "mirror": 1,
    "allyanim": 1
  }
}