{
  "name": "iciclecrash",
  "type": "Ice",
  "damageCategory": "Physical",
  "target": "normal",
  "power": 85,
  "accuracy": 90,
  "pp": 10,
  "priority": 0,
  "effectChance": 30,
  "flags": {
    "protect": 1,
    "mirror": 1
  }
}