{
  "name": "incinerate",
  "type": "Fire",
  "damageCategory": "Special",
  "target": "allAdjacentFoes",
  "power": 60,
  "accuracy": 100,
  "pp": 15,
  "priority": 0,
  "flags": {
    "protect": 1,
    "mirror": 1
  }
}