{
  "name": "letssnuggleforever",
  "type": "Fairy",
  "damageCategory": "Physical",
  "target": "normal",
  "power": 190,
  "accuracy": 100.0,
  "pp": 1,
  "priority": 0,
  "flags": {
    "contact": 1
  }
}