{
  "name": "megahorn",
  "type": "Bug",
  "damageCategory": "Physical",
  "target": "normal",
  "power": 120,
  "accuracy": 85,
  "pp": 10,
  "priority": 0,
  "flags": {
    "contact": 1,
    "protect": 1,
    "mirror": 1
  }
}