{
  "name": "oblivionwing",
  "type": "Flying",
  "damageCategory": "Special",
  "target": "any",
  "power": 80,
  "accuracy": 100,
  "pp": 10,
  "priority": 0,
  "flags": {
    "protect": 1,
    "mirror": 1,
    "distance": 1,
    "heal": 1
  }
}