{
  "name": "outrage",
  "type": "Dragon",
  "damageCategory": "Physical",
  "target": "randomNormal",
  "power": 120,
  "accuracy": 100,
  "pp": 10,
  "priority": 0,
  "flags": {
    "contact": 1,
    "protect": 1,
    "mirror": 1
  }
}