{
  "name": "poisontail",
  "type": "Poison",
  "damageCategory": "Physical",
  "target": "normal",
  "power": 50,
  "accuracy": 100,
  "pp": 25,
  "priority": 0,
  "critRatio": 2,
  "effectChance": 10,
  "effectStatus": "psn",
  "flags": {
    "contact": 1,
    "protect": 1,
    "mirror": 1
  }
}