{
  "name": "powdersnow",
  "type": "Ice",
  "damageCategory": "Special",
  "target": "allAdjacentFoes",
  "power": 40,
  "accuracy": 100,
  "pp": 25,
  "priority": 0,
  "effectChance": 10,
  "effectStatus": "frz",
  "flags": {
    "protect": 1,
    "mirror": 1
  }
}