{
  "name": "precipiceblades",
  "type": "Ground",
  "damageCategory": "Physical",
  "target": "allAdjacentFoes",
  "power": 120,
  "accuracy": 85,
  "pp": 10,
  "priority": 0,
  "flags": {
    "protect": 1,
    "mirror": 1,
    "nonsky": 1
  }
}