{
  "name": "razorleaf",
  "type": "Grass",
  "damageCategory": "Physical",
  "target": "allAdjacentFoes",
  "power": 55,
  "accuracy": 95,
  "pp": 25,
  "priority": 0,
  "critRatio": 2,
  "flags": {
    "protect": 1,
    "mirror": 1
  }
}