{
  "name": "revenge",
  "type": "Fighting",
  "damageCategory": "Physical",
  "target": "normal",
  "power": 60,
  "accuracy": 100,
  "pp": 10,
  "priority": -4,
  "flags": {
    "contact": 1,
    "protect": 1,
    "mirror": 1
  }
}