{
  "name": "rockthrow",
  "type": "Rock",
  "damageCategory": "Physical",
  "target": "normal",
  "power": 50,
  "accuracy": 90,
  "pp": 15,
  "priority": 0,
  "flags": {
    "protect": 1,
    "mirror": 1
  }
}