{
  "name": "rocksmash",
  "type": "Fighting",
  "damageCategory": "Physical",
  "target": "normal",
  "power": 40,
  "accuracy": 100,
  "pp": 15,
  "priority": 0,
  "effectChance": 50,
  "flags": {
    "contact": 1,
    "protect": 1,
    "mirror": 1
  }
}