{
  "name": "rocktomb",
  "type": "Rock",
  "damageCategory": "Physical",
  "target": "normal",
  "power": 60,
  "accuracy": 95,
  "pp": 15,
  "priority": 0,
  "effectChance": 100,
  "flags": {
    "protect": 1,
    "mirror": 1
  }
}