{
  "name": "sacredfire",
  "type": "Fire",
  "damageCategory": "Physical",
  "target": "normal",
  "power": 100,
  "accuracy": 95,
  "pp": 5,
  "priority": 0,
  "effectChance": 50,
  "effectStatus": "brn",
  "flags": {
    "protect": 1,
    "mirror": 1,
    "defrost": 1
  }
}