{
  "name": "sappyseed",
  "type": "Grass",
  "damageCategory": "Physical",
  "target": "normal",
  "power": 100,
  "accuracy": 90,
  "pp": 10,
  "priority": 0,
  "flags": {
    "protect": 1,
    "reflectable": 1
  }
}