{
  "name": "scald",
  "type": "Water",
  "damageCategory": "Special",
  "target": "normal",
  "power": 80,
  "accuracy": 100,
  "pp": 15,
  "priority": 0,
  "effectChance": 30,
  "effectStatus": "brn",
  "flags": {
    "protect": 1,
    "mirror": 1,
    "defrost": 1
  }
}