{
  "name": "secretpower",
  "type": "Normal",
  "damageCategory": "Physical",
  "target": "normal",
  "power": 70,
  "accuracy": 100,
  "pp": 20,
  "priority": 0,
  "effectChance": 30,
  "effectStatus": "par",
  "flags": {
    "protect": 1,
    "mirror": 1
  }
}