{
  "name": "shadowsneak",
  "type": "Ghost",
  "damageCategory": "Physical",
  "target": "normal",
  "power": 40,
  "accuracy": 100,
  "pp": 30,
  "priority": 1,
  "flags": {
    "contact": 1,
    "protect": 1,
    "mirror": 1
  }
}