{
  "name": "shelltrap",
  "type": "Fire",
  "damageCategory": "Special",
  "target": "allAdjacentFoes",
  "power": 150,
  "accuracy": 100,
  "pp": 5,
  "priority": -3,
  "flags": {
    "protect": 1
  }
}