{
  "name": "spacialrend",
  "type": "Dragon",
  "damageCategory": "Special",
  "target": "normal",
  "power": 100,
  "accuracy": 95,
  "pp": 5,
  "priority": 0,
  "critRatio": 2,
  "flags": {
    "protect": 1,
    "mirror": 1
  }
}