{
  "name": "splishysplash",
  "type": "Water",
  "damageCategory": "Special",
  "target": "allAdjacentFoes",
  "power": 90,
  "accuracy": 100,
  "pp": 15,
  "priority": 0,
  "effectChance": 30,
  "effectStatus": "par",
  "flags": {
    "protect": 1
  }
}