{
  "name": "steameruption",
  "type": "Water",
  "damageCategory": "Special",
  "target": "normal",
  "power": 110,
  "accuracy": 95,
  "pp": 5,
  "priority": 0,
  "effectChance": 30,
  "effectStatus": "brn",
  "flags": {
    "protect": 1,
    "mirror": 1,
    "defrost": 1
  }
}