{
  "name": "submission",
  "type": "Fighting",
  "damageCategory": "Physical",
  "target": "normal",
  "power": 80,
  "accuracy": 80,
  "pp": 20,
  "priority": 0,
  "flags": {
    "contact": 1,
    "protect": 1,
    "mirror": 1
  }
}