{
	"format_version": "1.12.0",
	"minecraft:geometry": [
		{
			"description": {
				"identifier": "geometry.steelix",
				"texture_width": 128,
				"texture_height": 128,
				"visible_bounds_width": 6,
				"visible_bounds_height": 2.5,
				"visible_bounds_offset": [0, 0.75, 0]
			},
			"bones": [
				{
					"name": "steelix",
					"pivot": [0, 0, 0]
				},
				{
					"name": "head",
					"parent": "steelix",
					"pivot": [0, 5.25, -18],
					"cubes": [
						{"origin": [2, 0.75, -21], "size": [3, 2, 3], "inflate": -0.02, "pivot": [3.5, 1.75, -19.5], "rotation": [0, 0, -10], "uv": [59, 46]},
						{"origin": [-5.5, 6, -23], "size": [11, 4, 5], "uv": [0, 33]},
						{"origin": [-5.5, 9.5, -22], "size": [3, 3, 4], "pivot": [-4, 11, -20], "rotation": [-5, 0, -10], "uv": [52, 56]},
						{"origin": [2.5, 9.5, -22], "size": [3, 3, 4], "pivot": [4, 11, -20], "rotation": [-5, 0, 10], "uv": [24, 15]},
						{"origin": [-5.5, 2, -21], "size": [11, 4, 3], "uv": [33, 0]},
						{"origin": [-10, 3, -22], "size": [5, 3, 4], "inflate": -0.02, "pivot": [-7.5, 4.5, -20], "rotation": [0, 0, -10], "uv": [18, 56]},
						{"origin": [5, 3, -22], "size": [5, 3, 4], "inflate": -0.02, "pivot": [7.5, 4.5, -20], "rotation": [0, 0, 10], "uv": [51, 33]},
						{"origin": [-5, 6.5, -31], "size": [10, 3, 8], "uv": [24, 22]},
						{"origin": [3.72815, 9.5, -31.00048], "size": [0, 2, 9], "pivot": [3.72815, 10.5, -26.50048], "rotation": [0, 7.5, -7.5], "uv": [0, 59], "mirror": true},
						{"origin": [-3.72815, 9.5, -31.00048], "size": [0, 2, 9], "pivot": [-3.72815, 10.5, -26.50048], "rotation": [0, -7.5, 7.5], "uv": [0, 59]},
						{"origin": [-5, 0.75, -21], "size": [3, 2, 3], "inflate": -0.02, "pivot": [-3.5, 1.75, -19.5], "rotation": [0, 0, 10], "uv": [27, 33]},
						{"origin": [1.05, 5.5, -31], "size": [2, 1, 0], "uv": [0, 1]},
						{"origin": [-3.05, 5.5, -31], "size": [2, 1, 0], "uv": [0, 2]}
					]
				},
				{
					"name": "lefteyelid",
					"parent": "head",
					"pivot": [3.775, 8.02181, -28.80048],
					"cubes": [
						{"origin": [2.775, 7, -30.8], "size": [2, 2, 4], "pivot": [3.775, 8, -29.3], "rotation": [2.5, 0, 0], "uv": [82, 6], "mirror": true}
					]
				},
				{
					"name": "righteyelid",
					"parent": "head",
					"pivot": [-3.775, 8.02181, -28.80048],
					"cubes": [
						{"origin": [-4.775, 7, -30.8], "size": [2, 2, 4], "pivot": [-3.775, 8, -29.3], "rotation": [2.5, 0, 0], "uv": [82, 6]}
					]
				},
				{
					"name": "lefteye",
					"parent": "head",
					"pivot": [4.025, 8.02181, -29.05048],
					"cubes": [
						{"origin": [3.025, 7, -31.05], "size": [2, 2, 4], "pivot": [4.025, 8, -29.55], "rotation": [2.5, 0, 0], "uv": [82, 0], "mirror": true}
					]
				},
				{
					"name": "righteye",
					"parent": "head",
					"pivot": [-4.025, 8.02181, -29.05048],
					"cubes": [
						{"origin": [-5.025, 7, -31.05], "size": [2, 2, 4], "pivot": [-4.025, 8, -29.55], "rotation": [2.5, 0, 0], "uv": [82, 0]}
					]
				},
				{
					"name": "jaw",
					"parent": "head",
					"pivot": [0, 4, -21],
					"cubes": [
						{"origin": [-5.5, 2, -32], "size": [11, 4, 11], "uv": [0, 0]},
						{"origin": [-4.75, 0.75, -26], "size": [3, 2, 3], "inflate": -0.02, "pivot": [-3.25, 1.75, -24.5], "rotation": [0, -5, 10], "uv": [0, 63]},
						{"origin": [1.75, 0.75, -26], "size": [3, 2, 3], "inflate": -0.02, "pivot": [3.25, 1.75, -24.5], "rotation": [0, 5, -10], "uv": [62, 53]},
						{"origin": [5.33716, 5.74619, -29], "size": [0, 2, 6], "pivot": [5.33716, 6.74619, -26], "rotation": [0, 2.5, 5], "uv": [12, 24]},
						{"origin": [-5.33716, 5.74619, -29], "size": [0, 2, 6], "pivot": [-5.33716, 6.74619, -26], "rotation": [0, -2.5, -5], "uv": [0, 24]},
						{"origin": [-1, 6, -30.975], "size": [2, 1, 0], "uv": [0, 4]},
						{"origin": [-5.1, 6, -30.5], "size": [2, 1, 0], "pivot": [-4.1, 6.5, -30.75], "rotation": [0, 25, 0], "uv": [0, 3]},
						{"origin": [3.1, 6, -30.5], "size": [2, 1, 0], "pivot": [4.1, 6.5, -30.75], "rotation": [0, -25, 0], "uv": [0, 3], "mirror": true}
					]
				},
				{
					"name": "tail",
					"parent": "steelix",
					"pivot": [0, 5.25, -18],
					"cubes": [
						{"origin": [-4, 1.75, -18], "size": [8, 7, 8], "uv": [0, 15]}
					]
				},
				{
					"name": "tail2",
					"parent": "tail",
					"pivot": [0, 5.25, -10],
					"cubes": [
						{"origin": [-3.5, 2.25, -10], "size": [7, 6, 6], "uv": [38, 9]},
						{"origin": [-9.25, 4.5, -8], "size": [6, 1, 2], "pivot": [-6.25, 5, -7], "rotation": [0, 0, -5], "uv": [58, 40]},
						{"origin": [3.25, 4.5, -8], "size": [6, 1, 2], "pivot": [6.25, 5, -7], "rotation": [0, 0, 5], "uv": [58, 10]}
					]
				},
				{
					"name": "tail3",
					"parent": "tail2",
					"pivot": [0, 5.25, -4],
					"cubes": [
						{"origin": [-2.5, 2.75, -4], "size": [5, 5, 5], "uv": [44, 46]}
					]
				},
				{
					"name": "tail4",
					"parent": "tail3",
					"pivot": [0, 5.25, 1],
					"cubes": [
						{"origin": [-3, 2.25, 1], "size": [6, 6, 7], "uv": [32, 33]},
						{"origin": [-8.75, 4.5, 3.5], "size": [6, 1, 2], "pivot": [-5.75, 5, 4.5], "rotation": [0, 0, -5], "uv": [58, 7]},
						{"origin": [2.75, 4.5, 3.5], "size": [6, 1, 2], "pivot": [5.75, 5, 4.5], "rotation": [0, 0, 5], "uv": [58, 0]}
					]
				},
				{
					"name": "tail5",
					"parent": "tail4",
					"pivot": [0, 5.25, 8],
					"cubes": [
						{"origin": [-2.5, 2.75, 8], "size": [5, 5, 5], "uv": [24, 46]}
					]
				},
				{
					"name": "tail6",
					"parent": "tail5",
					"pivot": [0, 5.25, 13],
					"cubes": [
						{"origin": [-3, 2.25, 13], "size": [6, 6, 6], "uv": [0, 42]},
						{"origin": [2.75, 4.5, 15], "size": [5, 1, 2], "pivot": [5.25, 5, 16], "rotation": [0, 0, 5], "uv": [18, 42]},
						{"origin": [-7.75, 4.5, 15], "size": [5, 1, 2], "pivot": [-5.25, 5, 16], "rotation": [0, 0, -5], "uv": [58, 43]}
					]
				},
				{
					"name": "tail7",
					"parent": "tail6",
					"pivot": [0, 5.25, 19],
					"cubes": [
						{"origin": [-2, 3.25, 19], "size": [4, 4, 4], "uv": [36, 56]}
					]
				},
				{
					"name": "tail8",
					"parent": "tail7",
					"pivot": [0, 5.25, 23],
					"cubes": [
						{"origin": [-2.5, 2.75, 23], "size": [5, 5, 4], "uv": [0, 54]},
						{"origin": [-1.5, 3.75, 27], "size": [3, 3, 6], "uv": [52, 21]}
					]
				}
			]
		}
	]
}