{
	"format_version": "1.12.0",
	"minecraft:geometry": [
		{
			"description": {
				"identifier": "geometry.quagsire_female",
				"texture_width": 128,
				"texture_height": 128,
				"visible_bounds_width": 3,
				"visible_bounds_height": 2.5,
				"visible_bounds_offset": [0, 0.75, 0]
			},
			"bones": [
				{
					"name": "quagsire",
					"pivot": [0, 0, 0]
				},
				{
					"name": "body",
					"parent": "quagsire",
					"pivot": [0, 9.5, -1],
					"cubes": [
						{"origin": [-5.5, 10, -5], "size": [11, 6, 8], "uv": [30, 25]},
						{"origin": [-6, 2, -5], "size": [12, 8, 8], "uv": [0, 0]},
						{"origin": [0, 7, 3], "size": [0, 9, 4], "inflate": 0.02, "uv": [0, 49]}
					]
				},
				{
					"name": "head",
					"parent": "body",
					"pivot": [0, 15.5, -1],
					"cubes": [
						{"origin": [-5, 15, -6.25], "size": [10, 8, 9], "uv": [0, 16]}
					]
				},
				{
					"name": "lefteyelid",
					"parent": "head",
					"pivot": [3.5, 20.5, -5.525],
					"rotation": [0, 0, 2.5],
					"cubes": [
						{"origin": [2.5, 20, -6.025], "size": [2, 1, 1], "inflate": 0.02, "uv": [58, 0]}
					]
				},
				{
					"name": "righteyelid",
					"parent": "head",
					"pivot": [-3.5, 20.5, -5.525],
					"rotation": [0, 0, -2.5],
					"cubes": [
						{"origin": [-4.5, 20, -6.025], "size": [2, 1, 1], "inflate": 0.02, "uv": [58, 0], "mirror": true}
					]
				},
				{
					"name": "leftarm",
					"parent": "body",
					"pivot": [5.5, 13.25, -3],
					"cubes": [
						{"origin": [5.5, 11.25, -4.5], "size": [8, 4, 3], "uv": [32, 0]}
					]
				},
				{
					"name": "rightarm",
					"parent": "body",
					"pivot": [-5.5, 13.25, -3],
					"cubes": [
						{"origin": [-13.5, 11.25, -4.5], "size": [8, 4, 3], "uv": [37, 48]}
					]
				},
				{
					"name": "tail",
					"parent": "body",
					"pivot": [0, 4.25, 3],
					"cubes": [
						{"origin": [-2, 2.75, 2], "size": [4, 3, 6], "uv": [40, 39]},
						{"origin": [0, 5.75, 2], "size": [0, 2, 5], "uv": [16, 65]}
					]
				},
				{
					"name": "tail2",
					"parent": "tail",
					"pivot": [0, 4.25, 7],
					"cubes": [
						{"origin": [-2.5, 2.25, 7], "size": [5, 4, 8], "uv": [32, 8]},
						{"origin": [0, 6.25, 7], "size": [0, 2, 8], "uv": [29, 49]}
					]
				},
				{
					"name": "leftfoot",
					"parent": "body",
					"pivot": [3.5, 2, 0.5],
					"cubes": [
						{"origin": [1.5, 0, -5.5], "size": [4, 2, 8], "uv": [0, 33]}
					]
				},
				{
					"name": "rightfoot",
					"parent": "body",
					"pivot": [-3.5, 2, 0.5],
					"cubes": [
						{"origin": [-5.5, 0, -5.5], "size": [4, 2, 8], "uv": [16, 39]}
					]
				}
			]
		}
	]
}