{
	"format_version": "1.12.0",
	"minecraft:geometry": [
		{
			"description": {
				"identifier": "geometry.primeape",
				"texture_width": 64,
				"texture_height": 64,
				"visible_bounds_width": 4,
				"visible_bounds_height": 2.5,
				"visible_bounds_offset": [0, 0.75, 0]
			},
			"bones": [
				{
					"name": "primeape",
					"pivot": [0, -0.75, 0]
				},
				{
					"name": "body",
					"parent": "primeape",
					"pivot": [0, 13.25, 0],
					"cubes": [
						{"origin": [-5.5, 8.25, -4.5], "size": [11, 10, 9], "uv": [0, 0]},
						{"origin": [-2, 11.25, -5.5], "size": [4, 2, 1], "uv": [45, 2]}
					]
				},
				{
					"name": "eyes",
					"parent": "body",
					"pivot": [0, 14.5, -4.55],
					"cubes": [
						{"origin": [-4.75, 13.5, -4.55], "size": [4, 2, 0], "inflate": 0.01, "pivot": [-2.75, 14.5, -4.55], "rotation": [0, 0, 10], "uv": [28, 30]},
						{"origin": [0.75, 13.5, -4.55], "size": [4, 2, 0], "inflate": 0.01, "pivot": [2.75, 14.5, -4.55], "rotation": [0, 0, -10], "uv": [0, 7]}
					]
				},
				{
					"name": "eyelids",
					"parent": "eyes",
					"pivot": [0, 14.5, -3.95],
					"cubes": [
						{"origin": [-4.75, 13.5, -4.45], "size": [4, 2, 1], "inflate": 0.04, "pivot": [-2.75, 14.5, -4.45], "rotation": [0, 0, 10], "uv": [0, 55]},
						{"origin": [0.75, 13.5, -4.45], "size": [4, 2, 1], "inflate": 0.04, "pivot": [2.75, 14.5, -4.45], "rotation": [0, 0, -10], "uv": [0, 52]}
					]
				},
				{
					"name": "ear_right",
					"parent": "body",
					"pivot": [-3, 17.25, -1.75],
					"rotation": [5, 15, -15],
					"cubes": [
						{"origin": [-5, 17.25, -1.75], "size": [4, 5, 0], "inflate": 0.01, "uv": [20, 45]}
					]
				},
				{
					"name": "ear_left",
					"parent": "body",
					"pivot": [3, 17.25, -1.75],
					"rotation": [5, -15, 15],
					"cubes": [
						{"origin": [1, 17.25, -1.75], "size": [4, 5, 0], "inflate": 0.01, "uv": [40, 23]}
					]
				},
				{
					"name": "hair",
					"parent": "body",
					"pivot": [0, 18.25, 0.5],
					"rotation": [-50, 0, 0],
					"cubes": [
						{"origin": [-5.5, 17.75, 0.5], "size": [11, 6, 0], "inflate": 0.01, "uv": [0, 30]}
					]
				},
				{
					"name": "hair_back1",
					"parent": "body",
					"pivot": [0, 16.25, 4.5],
					"rotation": [10, 0, 0],
					"cubes": [
						{"origin": [-5.5, 16.25, 4.5], "size": [11, 0, 2], "inflate": 0.01, "uv": [29, 0]}
					]
				},
				{
					"name": "hair_back2",
					"parent": "body",
					"pivot": [0, 13.5, 4.5],
					"rotation": [-5, 0, 0],
					"cubes": [
						{"origin": [-5.5, 13.5, 4.5], "size": [11, 0, 2], "inflate": 0.01, "uv": [22, 28]}
					]
				},
				{
					"name": "hair_back3",
					"parent": "body",
					"pivot": [0, 10.5, 4.5],
					"rotation": [-17.5, 0, 0],
					"cubes": [
						{"origin": [-5.5, 10.5, 4.5], "size": [11, 0, 2], "inflate": 0.01, "uv": [0, 28]}
					]
				},
				{
					"name": "hair_right",
					"parent": "body",
					"pivot": [-5.5, 13.25, 0.5],
					"rotation": [0, 50, 0],
					"cubes": [
						{"origin": [-10.5, 8.25, 0.5], "size": [5, 10, 0], "inflate": 0.01, "uv": [0, 36]}
					]
				},
				{
					"name": "hair_left",
					"parent": "body",
					"pivot": [5.5, 13.25, 0.5],
					"rotation": [0, -50, 0],
					"cubes": [
						{"origin": [5.5, 8.25, 0.5], "size": [5, 10, 0], "inflate": 0.01, "uv": [10, 38]}
					]
				},
				{
					"name": "arm_right",
					"parent": "body",
					"pivot": [-5.5, 13.25, -1.5],
					"cubes": [
						{"origin": [-10.5, 11.75, -2.5], "size": [6, 2, 2], "inflate": 0.02, "uv": [40, 10]}
					]
				},
				{
					"name": "forearm_right",
					"parent": "arm_right",
					"pivot": [-10.5, 12.75, -0.5],
					"cubes": [
						{"origin": [-15.5, 11.75, -2.5], "size": [5, 2, 2], "uv": [40, 6]},
						{"origin": [-14.25, 11.25, -3], "size": [2, 3, 3], "uv": [32, 40]}
					]
				},
				{
					"name": "hand_right",
					"parent": "forearm_right",
					"pivot": [-14.5, 12.75, -1.5],
					"cubes": [
						{"origin": [-19.5, 10.5, -4], "size": [5, 4, 5], "inflate": 0.02, "uv": [20, 19]}
					]
				},
				{
					"name": "arm_left",
					"parent": "body",
					"pivot": [5.5, 13.25, -1.5],
					"cubes": [
						{"origin": [4.5, 11.75, -2.5], "size": [6, 2, 2], "inflate": 0.02, "uv": [35, 19]}
					]
				},
				{
					"name": "forearm_left",
					"parent": "arm_left",
					"pivot": [10.5, 12.75, -0.5],
					"cubes": [
						{"origin": [10.5, 11.75, -2.5], "size": [5, 2, 2], "uv": [31, 2]},
						{"origin": [12.25, 11.25, -3], "size": [2, 3, 3], "uv": [40, 30]}
					]
				},
				{
					"name": "hand_left",
					"parent": "forearm_left",
					"pivot": [14.5, 12.75, -1.5],
					"cubes": [
						{"origin": [14.5, 10.5, -4], "size": [5, 4, 5], "inflate": 0.02, "uv": [0, 19]}
					]
				},
				{
					"name": "leg_right",
					"parent": "body",
					"pivot": [-3.5, 8.25, -0.25],
					"rotation": [-15, 10, 5],
					"cubes": [
						{"origin": [-4.5, 5.25, -1.25], "size": [2, 4, 2], "inflate": 0.02, "uv": [0, 46]}
					]
				},
				{
					"name": "knee_right",
					"parent": "leg_right",
					"pivot": [-3.5, 5.25, -1.25],
					"rotation": [27.5, 0, 0],
					"cubes": [
						{"origin": [-4.5, 0.25, -1.25], "size": [2, 5, 2], "uv": [42, 40]},
						{"origin": [-5, 1.75, -1.75], "size": [3, 2, 3], "uv": [20, 40]}
					]
				},
				{
					"name": "foot_right",
					"parent": "knee_right",
					"pivot": [-3.5, 1.25, -0.25],
					"rotation": [-10, 0, -5],
					"cubes": [
						{"origin": [-5, -0.75, -4.5], "size": [3, 2, 6], "uv": [28, 32]}
					]
				},
				{
					"name": "leg_left",
					"parent": "body",
					"pivot": [3.5, 8.25, -0.25],
					"rotation": [-15, -10, -5],
					"cubes": [
						{"origin": [2.5, 5.25, -1.25], "size": [2, 4, 2], "inflate": 0.02, "uv": [50, 40]}
					]
				},
				{
					"name": "knee_left",
					"parent": "leg_left",
					"pivot": [3.5, 5.25, -1.25],
					"rotation": [27.5, 0, 0],
					"cubes": [
						{"origin": [2.5, 0.25, -1.25], "size": [2, 5, 2], "uv": [0, 0]},
						{"origin": [2, 1.75, -1.75], "size": [3, 2, 3], "uv": [40, 14]}
					]
				},
				{
					"name": "foot_left",
					"parent": "knee_left",
					"pivot": [3.5, 1.25, -0.25],
					"rotation": [-10, 0, 5],
					"cubes": [
						{"origin": [2, -0.75, -4.5], "size": [3, 2, 6], "uv": [16, 30]}
					]
				}
			]
		}
	]
}