{
	"format_version": "1.12.0",
	"minecraft:geometry": [
		{
			"description": {
				"identifier": "geometry.kabuto",
				"texture_width": 32,
				"texture_height": 32,
				"visible_bounds_width": 2,
				"visible_bounds_height": 1.5,
				"visible_bounds_offset": [0, 0.25, 0]
			},
			"bones": [
				{
					"name": "kabuto",
					"pivot": [0, 0, 0]
				},
				{
					"name": "body",
					"parent": "kabuto",
					"pivot": [0, 3.75, 0.5],
					"cubes": [
						{"origin": [-3, 1.75, -3], "size": [6, 4, 7], "uv": [0, 12]},
						{"origin": [-3.5, 2.25, -3.5], "size": [7, 4, 8], "pivot": [0, 4.25, 0.5], "rotation": [-5, 0, 0], "uv": [0, 0]}
					]
				},
				{
					"name": "lefteye",
					"parent": "body",
					"pivot": [1.5, 2.25, -2.525],
					"cubes": [
						{"origin": [1, 1.75, -3.025], "size": [1, 1, 1], "inflate": 0.02, "uv": [26, 0]}
					]
				},
				{
					"name": "righteye",
					"parent": "body",
					"pivot": [-1.5, 2.25, -2.525],
					"cubes": [
						{"origin": [-2, 1.75, -3.025], "size": [1, 1, 1], "inflate": 0.02, "uv": [26, 0], "mirror": true}
					]
				},
				{
					"name": "leftfrontarm",
					"parent": "body",
					"pivot": [2.25, 2, -1],
					"rotation": [0, 0, 10],
					"cubes": [
						{"origin": [0.75, 0, -1], "size": [2, 2, 0], "uv": [4, 0]}
					]
				},
				{
					"name": "rightfrontarm",
					"parent": "body",
					"pivot": [-2.25, 2, -1],
					"rotation": [0, 0, -10],
					"cubes": [
						{"origin": [-2.75, 0, -1], "size": [2, 2, 0], "uv": [0, 4]}
					]
				},
				{
					"name": "leftbackarm",
					"parent": "body",
					"pivot": [2.25, 2, 2.25],
					"rotation": [0, 0, 10],
					"cubes": [
						{"origin": [0.75, 0, 2.25], "size": [2, 2, 0], "uv": [0, 0]}
					]
				},
				{
					"name": "rightbackarm",
					"parent": "body",
					"pivot": [-2.25, 2, 2.25],
					"rotation": [0, 0, -10],
					"cubes": [
						{"origin": [-2.75, 0, 2.25], "size": [2, 2, 0], "uv": [0, 2]}
					]
				}
			]
		}
	]
}