{
	"format_version": "1.8.0",
	"animations": {
		"animation.slowbro.ground_idle": {
			"loop": true,
			"bones": {
				"tail": {
					"rotation": [15, 0, 0]
				},
				"tail2": {
					"rotation": [35, 0, 0]
				},
				"leftarm": {
					"rotation": [110.94102, 40.7895, 110.3612]
				},
				"rightarm": {
					"rotation": [110.94102, -40.78947, -110.3612]
				}
			}
		},
		"animation.slowbro.water_idle": {
			"loop": true,
			"bones": {
				"body": {
					"rotation": [60, 0, 0]
				},
				"head": {
					"rotation": [-60, 0, 0],
					"position": [0, 1, -3]
				},
				"tail": {
					"rotation": [-60, 0, 0],
					"position": [0, -1, -1]
				},
				"tail2": {
					"rotation": [5, 0, 0]
				},
				"fesh": {
					"rotation": [5, 0, 0]
				},
				"leftarm": {
					"rotation": [0, 15, 30]
				},
				"rightarm": {
					"rotation": [0, -15, -30]
				},
				"leftleg": {
					"rotation": [0, 0, 15]
				},
				"rightleg": {
					"rotation": [0, 0, -15]
				}
			}
		},
		"animation.slowbro.water_swim": {
			"loop": true,
			"bones": {
				"body": {
					"rotation": [75, 0, 0]
				},
				"head": {
					"rotation": [-70, 0, 0],
					"position": [0, 2, -3]
				},
				"tail": {
					"rotation": [-80, 0, 0],
					"position": [0, -1, -1]
				},
				"tail2": {
					"rotation": [5, 0, 0]
				},
				"fesh": {
					"rotation": [5, 0, 0]
				},
				"leftarm": {
					"rotation": [0, 15, 45]
				},
				"rightarm": {
					"rotation": [0, -15, -45]
				}
			}
		}
	}
}