{
	"format_version": "1.12.0",
	"minecraft:geometry": [
		{
			"description": {
				"identifier": "geometry.exeggcute",
				"texture_width": 64,
				"texture_height": 64,
				"visible_bounds_width": 3,
				"visible_bounds_height": 1.5,
				"visible_bounds_offset": [0, 0.25, 0]
			},
			"bones": [
				{
					"name": "exeggcute",
					"pivot": [0, 0, 0]
				},
				{
					"name": "body",
					"parent": "exeggcute",
					"pivot": [0, 0, 0]
				},
				{
					"name": "egg",
					"parent": "body",
					"pivot": [0, 0, -4],
					"cubes": [
						{"origin": [-3, 0, -7], "size": [6, 7, 6], "uv": [24, 0]}
					]
				},
				{
					"name": "eye_right",
					"parent": "egg",
					"pivot": [1.65, 5, -7],
					"rotation": [0, 0, -12.5],
					"cubes": [
						{"origin": [0.65, 4, -7], "size": [2, 2, 0], "inflate": 0.01, "uv": [0, 13]}
					]
				},
				{
					"name": "eyelid_right",
					"parent": "eye_right",
					"pivot": [1.65, 5, -6.4],
					"cubes": [
						{"origin": [0.65, 4, -6.9], "size": [2, 2, 1], "inflate": 0.02, "uv": [0, 16]}
					]
				},
				{
					"name": "eye_left",
					"parent": "egg",
					"pivot": [-1.65, 5, -7],
					"rotation": [0, 0, 12.5],
					"cubes": [
						{"origin": [-2.65, 4, -7], "size": [2, 2, 0], "inflate": 0.01, "uv": [0, 13], "mirror": true}
					]
				},
				{
					"name": "eyelid_left",
					"parent": "eye_left",
					"pivot": [-1.65, 5, -6.4],
					"cubes": [
						{"origin": [-2.65, 4, -6.9], "size": [2, 2, 1], "inflate": 0.02, "uv": [0, 16], "mirror": true}
					]
				},
				{
					"name": "mouth",
					"parent": "egg",
					"pivot": [0, 3, -7],
					"rotation": [0, 0, -2.5],
					"cubes": [
						{"origin": [-1.5, 2.5, -7], "size": [3, 1, 0], "inflate": 0.01, "uv": [0, 4]}
					]
				},
				{
					"name": "egg2",
					"parent": "body",
					"pivot": [-8, 0, -2],
					"cubes": [
						{"origin": [-11, 0, -5], "size": [6, 7, 6], "uv": [18, 20]}
					]
				},
				{
					"name": "eye_right2",
					"parent": "egg2",
					"pivot": [-6.35, 3.5, -5],
					"rotation": [0, 0, -5],
					"cubes": [
						{"origin": [-7.35, 2.5, -5], "size": [2, 2, 0], "inflate": 0.01, "uv": [0, 13]}
					]
				},
				{
					"name": "eyelid_right2",
					"parent": "eye_right2",
					"pivot": [-6.35, 3.5, -4.4],
					"cubes": [
						{"origin": [-7.35, 2.5, -4.9], "size": [2, 2, 1], "inflate": 0.02, "uv": [0, 16]}
					]
				},
				{
					"name": "eye_left2",
					"parent": "egg2",
					"pivot": [-9.65, 3.5, -5],
					"rotation": [0, 0, 5],
					"cubes": [
						{"origin": [-10.65, 2.5, -5], "size": [2, 2, 0], "inflate": 0.01, "uv": [0, 13], "mirror": true}
					]
				},
				{
					"name": "eyelid_left2",
					"parent": "eye_left2",
					"pivot": [-9.65, 3.5, -4.4],
					"cubes": [
						{"origin": [-10.65, 2.5, -4.9], "size": [2, 2, 1], "inflate": 0.02, "uv": [0, 16], "mirror": true}
					]
				},
				{
					"name": "mouth2",
					"parent": "egg2",
					"pivot": [-8, 1.75, -5],
					"cubes": [
						{"origin": [-8.5, 1.25, -5], "size": [1, 1, 0], "inflate": 0.01, "uv": [0, 4]}
					]
				},
				{
					"name": "egg3",
					"parent": "body",
					"pivot": [8, 0, -2],
					"cubes": [
						{"origin": [5, 0, -5], "size": [6, 7, 6], "uv": [0, 13]}
					]
				},
				{
					"name": "eye_right3",
					"parent": "egg3",
					"pivot": [9.75, 3.75, -5],
					"rotation": [0, 0, -7.5],
					"cubes": [
						{"origin": [8.75, 2.75, -5], "size": [2, 2, 0], "inflate": 0.01, "uv": [0, 13]}
					]
				},
				{
					"name": "eyelid_right3",
					"parent": "eye_right3",
					"pivot": [9.75, 3.75, -4.4],
					"cubes": [
						{"origin": [8.75, 2.75, -4.9], "size": [2, 2, 1], "inflate": 0.02, "uv": [0, 16]}
					]
				},
				{
					"name": "eye_left3",
					"parent": "egg3",
					"pivot": [6.25, 3.75, -5],
					"rotation": [0, 0, 7.5],
					"cubes": [
						{"origin": [5.25, 2.75, -5], "size": [2, 2, 0], "inflate": 0.01, "uv": [0, 13], "mirror": true}
					]
				},
				{
					"name": "eyelid_left3",
					"parent": "eye_left3",
					"pivot": [6.25, 3.75, -4.4],
					"cubes": [
						{"origin": [5.25, 2.75, -4.9], "size": [2, 2, 1], "inflate": 0.02, "uv": [0, 16], "mirror": true}
					]
				},
				{
					"name": "mouth3",
					"parent": "egg3",
					"pivot": [8, 1.75, -5],
					"cubes": [
						{"origin": [7, 1.25, -5], "size": [2, 1, 0], "inflate": 0.01, "uv": [0, 15]}
					]
				},
				{
					"name": "egg4",
					"parent": "body",
					"pivot": [4, 0, 5],
					"cubes": [
						{"origin": [1, 0, 2], "size": [6, 7, 6], "uv": [0, 0]}
					]
				},
				{
					"name": "eye_right4",
					"parent": "egg4",
					"pivot": [5.65, 4.75, 2],
					"rotation": [0, 0, 10],
					"cubes": [
						{"origin": [4.65, 3.75, 2], "size": [2, 2, 0], "inflate": 0.01, "uv": [0, 13]}
					]
				},
				{
					"name": "eyelid_right4",
					"parent": "eye_right4",
					"pivot": [5.65, 4.75, 2.6],
					"cubes": [
						{"origin": [4.65, 3.75, 2.1], "size": [2, 2, 1], "inflate": 0.02, "uv": [0, 16]}
					]
				},
				{
					"name": "eye_left4",
					"parent": "egg4",
					"pivot": [2.35, 4.75, 2],
					"rotation": [0, 0, -10],
					"cubes": [
						{"origin": [1.35, 3.75, 2], "size": [2, 2, 0], "inflate": 0.01, "uv": [0, 13], "mirror": true}
					]
				},
				{
					"name": "eyelid_left4",
					"parent": "eye_left4",
					"pivot": [2.35, 4.75, 2.6],
					"cubes": [
						{"origin": [1.35, 3.75, 2.1], "size": [2, 2, 1], "inflate": 0.02, "uv": [0, 16], "mirror": true}
					]
				},
				{
					"name": "mouth4",
					"parent": "egg4",
					"pivot": [4.05, 3.1, 2],
					"rotation": [0, 0, -2.5],
					"cubes": [
						{"origin": [3.05, 2.6, 2], "size": [2, 1, 0], "inflate": 0.01, "uv": [0, 2]}
					]
				},
				{
					"name": "egg5",
					"parent": "body",
					"pivot": [-4, 0, 5],
					"cubes": [
						{"origin": [-1, 1, 2], "size": [0, 6, 6], "uv": [20, 27]},
						{"origin": [-7, 1, 8], "size": [6, 6, 0], "uv": [32, 33]},
						{"origin": [-7, 1, 2], "size": [6, 6, 0], "uv": [18, 0]},
						{"origin": [-7, 0, 2], "size": [6, 1, 6], "uv": [24, 13]},
						{"origin": [-7, 1, 2], "size": [0, 6, 6], "uv": [18, 7]}
					]
				},
				{
					"name": "yoke",
					"parent": "egg5",
					"pivot": [-4, 1, 5],
					"cubes": [
						{"origin": [-6.5, 1, 2.5], "size": [5, 5, 5], "uv": [0, 28]}
					]
				},
				{
					"name": "eye_right5",
					"parent": "egg5",
					"pivot": [-2.35, 3.25, 2],
					"rotation": [0, 0, -2.5],
					"cubes": [
						{"origin": [-3.35, 2.25, 2], "size": [2, 2, 0], "inflate": 0.01, "uv": [0, 13]}
					]
				},
				{
					"name": "eyelid_right5",
					"parent": "eye_right5",
					"pivot": [-2.35, 3.25, 2.6],
					"cubes": [
						{"origin": [-3.35, 2.25, 2.1], "size": [2, 2, 1], "inflate": 0.02, "uv": [0, 16]}
					]
				},
				{
					"name": "eye_left5",
					"parent": "egg5",
					"pivot": [-5.65, 3.25, 2],
					"rotation": [0, 0, 2.5],
					"cubes": [
						{"origin": [-6.65, 2.25, 2], "size": [2, 2, 0], "inflate": 0.01, "uv": [0, 13], "mirror": true}
					]
				},
				{
					"name": "eyelid_left5",
					"parent": "eye_left5",
					"pivot": [-5.65, 3.25, 2.6],
					"cubes": [
						{"origin": [-6.65, 2.25, 2.1], "size": [2, 2, 1], "inflate": 0.02, "uv": [0, 16], "mirror": true}
					]
				},
				{
					"name": "mouth5",
					"parent": "egg5",
					"pivot": [-3.95, 1.55, 2],
					"rotation": [0, 0, -2.5],
					"cubes": [
						{"origin": [-4.45, 1.05, 2], "size": [1, 1, 0], "inflate": 0.01, "uv": [0, 2]}
					]
				}
			]
		}
	]
}