{
	"format_version": "1.12.0",
	"minecraft:geometry": [
		{
			"description": {
				"identifier": "geometry.decidueye_folded_wings",
				"texture_width": 64,
				"texture_height": 64,
				"visible_bounds_width": 3,
				"visible_bounds_height": 3.5,
				"visible_bounds_offset": [0, 1.25, 0]
			},
			"bones": [
				{
					"name": "decidueye",
					"pivot": [0, 0, 0]
				},
				{
					"name": "body",
					"parent": "decidueye",
					"pivot": [0, 0, 0]
				},
				{
					"name": "torso",
					"parent": "body",
					"pivot": [0, 11, -1.5],
					"cubes": [
						{"origin": [-3.5, 9.5, -4.75], "size": [7, 10, 6], "uv": [0, 14]}
					]
				},
				{
					"name": "head",
					"parent": "torso",
					"pivot": [0, 19.5, -1.75],
					"cubes": [
						{"origin": [-4, 19.5, -5.25], "size": [8, 7, 7], "inflate": 0.01, "uv": [0, 0]},
						{"origin": [-7, 19.75, -1.75], "size": [3, 7, 0], "inflate": 0.01, "pivot": [-4, 23.25, -1.75], "rotation": [0, 70, 0], "uv": [14, 56]},
						{"origin": [4, 19.75, -1.75], "size": [3, 7, 0], "inflate": 0.01, "pivot": [4, 23.25, -1.75], "rotation": [0, -70, 0], "uv": [8, 56]},
						{"origin": [-1, 21.5, -6.25], "size": [2, 2, 1], "uv": [48, 43]}
					]
				},
				{
					"name": "eyes",
					"parent": "head",
					"pivot": [0, 23.25, -5.275],
					"cubes": [
						{"origin": [-3.9, 21.5, -5.275], "size": [3, 3, 0], "inflate": 0.01, "pivot": [-2.4, 23, -5.275], "rotation": [0, 0, 2.5], "uv": [58, 4], "mirror": true},
						{"origin": [0.9, 21.5, -5.275], "size": [3, 3, 0], "inflate": 0.01, "pivot": [2.4, 23, -5.275], "rotation": [0, 0, -2.5], "uv": [58, 4]}
					]
				},
				{
					"name": "eyelids",
					"parent": "head",
					"pivot": [0, 23.25, -5.175],
					"cubes": [
						{"origin": [-3.9, 21.5, -5.175], "size": [3, 3, 1], "inflate": 0.02, "pivot": [-2.4, 23, -5.175], "rotation": [0, 0, 2.5], "uv": [0, 39], "mirror": true},
						{"origin": [0.9, 21.5, -5.175], "size": [3, 3, 1], "inflate": 0.02, "pivot": [2.4, 23, -5.175], "rotation": [0, 0, -2.5], "uv": [0, 39]}
					]
				},
				{
					"name": "jaw",
					"parent": "head",
					"pivot": [0, 21.5, -5.25],
					"cubes": [
						{"origin": [-1, 20.5, -6.25], "size": [2, 1, 1], "uv": [10, 37]}
					]
				},
				{
					"name": "head_feather1",
					"parent": "head",
					"pivot": [0, 26.5, -1.25],
					"rotation": [-65, 0, 0],
					"cubes": [
						{"origin": [-1.5, 26.5, -1.25], "size": [3, 4, 0], "inflate": 0.01, "uv": [20, 60]}
					]
				},
				{
					"name": "head_feather2",
					"parent": "head_feather1",
					"pivot": [0, 30.5, -1.25],
					"cubes": [
						{"origin": [-2.5, 30.5, -1.25], "size": [5, 4, 0], "inflate": 0.01, "uv": [53, 0]}
					]
				},
				{
					"name": "hood_right",
					"parent": "head",
					"pivot": [-4, 23, -5.25],
					"rotation": [0, -5, 0],
					"cubes": [
						{"origin": [-4, 19.5, -7.25], "size": [0, 7, 2], "inflate": 0.01, "uv": [0, 28]}
					]
				},
				{
					"name": "hood_left",
					"parent": "head",
					"pivot": [4, 23, -5.25],
					"rotation": [0, 5, 0],
					"cubes": [
						{"origin": [4, 19.5, -7.25], "size": [0, 7, 2], "inflate": 0.01, "uv": [54, 55]}
					]
				},
				{
					"name": "hood_top",
					"parent": "head",
					"pivot": [0, 26.5, -5.25],
					"rotation": [5, 0, 0],
					"cubes": [
						{"origin": [-4, 26.5, -8.25], "size": [8, 0, 3], "inflate": 0.01, "uv": [37, 17]}
					]
				},
				{
					"name": "hood_bottom",
					"parent": "head",
					"pivot": [0, 19.5, -5.25],
					"rotation": [-5, 0, 0],
					"cubes": [
						{"origin": [-4, 19.5, -7.25], "size": [8, 0, 2], "inflate": 0.01, "uv": [38, 25]}
					]
				},
				{
					"name": "tail1",
					"parent": "torso",
					"pivot": [0, 18.5, 1.25],
					"rotation": [17.5, 0, 0],
					"cubes": [
						{"origin": [-2, 8.5, 1.25], "size": [4, 10, 0], "inflate": 0.02, "uv": [37, 49]}
					]
				},
				{
					"name": "tail_joint1",
					"parent": "tail1",
					"pivot": [0, 8.5, 1.25],
					"rotation": [-5, 0, 0],
					"cubes": [
						{"origin": [-2, 0.5, 1.25], "size": [4, 8, 0], "inflate": 0.01, "uv": [53, 27]}
					]
				},
				{
					"name": "tail2",
					"parent": "torso",
					"pivot": [0.5, 18.5, 1.25],
					"rotation": [15, 0, -17.5],
					"cubes": [
						{"origin": [-1.5, 8.5, 1.25], "size": [4, 10, 0], "inflate": 0.02, "uv": [29, 49]}
					]
				},
				{
					"name": "tail_joint2",
					"parent": "tail2",
					"pivot": [2.5, 8.5, 1.25],
					"rotation": [-5, 0, 5],
					"cubes": [
						{"origin": [-1.5, 0.5, 1.25], "size": [4, 8, 0], "inflate": 0.01, "uv": [0, 50]}
					]
				},
				{
					"name": "tail3",
					"parent": "torso",
					"pivot": [-0.5, 18.5, 1.25],
					"rotation": [15, 0, 17.5],
					"cubes": [
						{"origin": [-2.5, 8.5, 1.25], "size": [4, 10, 0], "inflate": 0.02, "uv": [21, 49]}
					]
				},
				{
					"name": "tail_joint3",
					"parent": "tail3",
					"pivot": [-2.5, 8.5, 1.25],
					"rotation": [-5, 0, -5],
					"cubes": [
						{"origin": [-2.5, 0.5, 1.25], "size": [4, 8, 0], "inflate": 0.01, "uv": [48, 6]}
					]
				},
				{
					"name": "right_upper_coat",
					"parent": "torso",
					"pivot": [-3.5, 19.5, -1.75],
					"rotation": [0, 0, -60],
					"cubes": [
						{"origin": [-9.5, 19.5, -5.25], "size": [6, 0, 7], "inflate": 0.01, "uv": [19, 23], "mirror": true}
					]
				},
				{
					"name": "right_upper_coat_joint1",
					"parent": "right_upper_coat",
					"pivot": [-6.5, 19.5, 1.75],
					"rotation": [-50, 0, 0],
					"cubes": [
						{"origin": [-9.5, 19.5, 1.75], "size": [6, 0, 3], "inflate": 0.01, "uv": [37, 30], "mirror": true}
					]
				},
				{
					"name": "right_upper_coat_joint2",
					"parent": "right_upper_coat",
					"pivot": [-6.5, 19.5, -5.25],
					"rotation": [50, 0, 0],
					"cubes": [
						{"origin": [-9.5, 19.5, -8.25], "size": [6, 0, 3], "inflate": 0.01, "uv": [37, 27], "mirror": true}
					]
				},
				{
					"name": "left_upper_coat",
					"parent": "torso",
					"pivot": [3.5, 19.5, -1.75],
					"rotation": [0, 0, 60],
					"cubes": [
						{"origin": [3.5, 19.5, -5.25], "size": [6, 0, 7], "inflate": 0.01, "uv": [19, 23]}
					]
				},
				{
					"name": "left_upper_coat_joint1",
					"parent": "left_upper_coat",
					"pivot": [6.5, 19.5, 1.75],
					"rotation": [-50, 0, 0],
					"cubes": [
						{"origin": [3.5, 19.5, 1.75], "size": [6, 0, 3], "inflate": 0.01, "uv": [37, 30]}
					]
				},
				{
					"name": "left_upper_coat_joint2",
					"parent": "left_upper_coat",
					"pivot": [6.5, 19.5, -5.25],
					"rotation": [50, 0, 0],
					"cubes": [
						{"origin": [3.5, 19.5, -8.25], "size": [6, 0, 3], "inflate": 0.01, "uv": [37, 27]}
					]
				},
				{
					"name": "front_upper_cloak",
					"parent": "torso",
					"pivot": [0, 19.5, -4.85],
					"rotation": [-5, 0, 0],
					"cubes": [
						{"origin": [-3.5, 15.5, -4.85], "size": [7, 4, 0], "inflate": 0.01, "uv": [44, 39]}
					]
				},
				{
					"name": "back_upper_cloak",
					"parent": "torso",
					"pivot": [0, 19.5, 1.25],
					"rotation": [-65, 0, 0],
					"cubes": [
						{"origin": [-3.5, 19.5, 1.25], "size": [7, 0, 7], "inflate": 0.01, "uv": [19, 16]}
					]
				},
				{
					"name": "cloak_string_right1",
					"parent": "torso",
					"pivot": [-1.75, 18, -4.75],
					"rotation": [-5, 0, 5],
					"cubes": [
						{"origin": [-2.25, 14, -4.75], "size": [1, 4, 0], "inflate": 0.01, "uv": [2, 44]}
					]
				},
				{
					"name": "cloak_string_right2",
					"parent": "cloak_string_right1",
					"pivot": [-1.75, 14, -4.75],
					"cubes": [
						{"origin": [-2.25, 11, -4.75], "size": [1, 3, 0], "inflate": 0.02, "uv": [35, 36]}
					]
				},
				{
					"name": "cloak_string_right3",
					"parent": "cloak_string_right2",
					"pivot": [-1.75, 11, -4.75],
					"cubes": [
						{"origin": [-2.75, 8, -4.75], "size": [2, 3, 0], "inflate": 0.01, "uv": [43, 0]}
					]
				},
				{
					"name": "cloak_string_left1",
					"parent": "torso",
					"pivot": [1.75, 18, -4.75],
					"rotation": [-5, 0, -5],
					"cubes": [
						{"origin": [1.25, 14, -4.75], "size": [1, 4, 0], "inflate": 0.01, "uv": [0, 44]}
					]
				},
				{
					"name": "cloak_string_left2",
					"parent": "cloak_string_left1",
					"pivot": [1.75, 14, -4.75],
					"cubes": [
						{"origin": [1.25, 11, -4.75], "size": [1, 3, 0], "inflate": 0.02, "uv": [4, 30]}
					]
				},
				{
					"name": "cloak_string_left3",
					"parent": "cloak_string_left2",
					"pivot": [1.75, 11, -4.75],
					"cubes": [
						{"origin": [0.75, 8, -4.75], "size": [2, 3, 0], "inflate": 0.01, "uv": [20, 39]}
					]
				},
				{
					"name": "wing_bottom_right1",
					"parent": "torso",
					"pivot": [-3.5, 18.75, -1.75],
					"rotation": [0, 0, -70],
					"cubes": [
						{"origin": [-13.5, 18.75, -5.25], "size": [10, 0, 7], "inflate": 0.01, "uv": [16, 0], "mirror": true}
					]
				},
				{
					"name": "wing_front_right1",
					"parent": "wing_bottom_right1",
					"pivot": [-8.5, 18.75, -5.25],
					"rotation": [50, 0, 0],
					"cubes": [
						{"origin": [-13.5, 18.75, -8.25], "size": [10, 0, 3], "inflate": 0.01, "uv": [14, 33], "mirror": true}
					]
				},
				{
					"name": "wing_back_right1",
					"parent": "wing_bottom_right1",
					"pivot": [-8.5, 18.75, 1.75],
					"rotation": [-50, 0, 0],
					"cubes": [
						{"origin": [-13.5, 18.75, 1.75], "size": [10, 0, 3], "inflate": 0.01, "uv": [14, 30], "mirror": true}
					]
				},
				{
					"name": "wing_bottom_right2",
					"parent": "wing_bottom_right1",
					"pivot": [-13.5, 18.75, -1.75],
					"rotation": [0, 0, -10],
					"cubes": [
						{"origin": [-22.5, 18.75, -5.25], "size": [9, 0, 7], "inflate": 0.01, "uv": [23, 7], "mirror": true}
					]
				},
				{
					"name": "wing_front_right2",
					"parent": "wing_bottom_right2",
					"pivot": [-18, 18.75, -5.25],
					"rotation": [50, 0, 0],
					"cubes": [
						{"origin": [-22.5, 18.75, -8.25], "size": [9, 0, 3], "inflate": 0.01, "uv": [37, 14], "mirror": true}
					]
				},
				{
					"name": "wing_back_right2",
					"parent": "wing_bottom_right2",
					"pivot": [-18, 18.75, 1.75],
					"rotation": [-50, 0, 0],
					"cubes": [
						{"origin": [-22.5, 18.75, 1.75], "size": [9, 0, 3], "inflate": 0.01, "uv": [14, 36], "mirror": true}
					]
				},
				{
					"name": "wing_bottom_left1",
					"parent": "torso",
					"pivot": [3.5, 18.75, -1.75],
					"rotation": [0, 0, 70],
					"cubes": [
						{"origin": [3.5, 18.75, -5.25], "size": [10, 0, 7], "inflate": 0.01, "uv": [16, 0]}
					]
				},
				{
					"name": "wing_front_left1",
					"parent": "wing_bottom_left1",
					"pivot": [8.5, 18.75, -5.25],
					"rotation": [50, 0, 0],
					"cubes": [
						{"origin": [3.5, 18.75, -8.25], "size": [10, 0, 3], "inflate": 0.01, "uv": [14, 33]}
					]
				},
				{
					"name": "wing_back_left1",
					"parent": "wing_bottom_left1",
					"pivot": [8.5, 18.75, 1.75],
					"rotation": [-50, 0, 0],
					"cubes": [
						{"origin": [3.5, 18.75, 1.75], "size": [10, 0, 3], "inflate": 0.01, "uv": [14, 30]}
					]
				},
				{
					"name": "wing_bottom_left2",
					"parent": "wing_bottom_left1",
					"pivot": [13.5, 18.75, -1.75],
					"rotation": [0, 0, 10],
					"cubes": [
						{"origin": [13.5, 18.75, -5.25], "size": [9, 0, 7], "inflate": 0.01, "uv": [23, 7]}
					]
				},
				{
					"name": "wing_front_left2",
					"parent": "wing_bottom_left2",
					"pivot": [18, 18.75, -5.25],
					"rotation": [50, 0, 0],
					"cubes": [
						{"origin": [13.5, 18.75, -8.25], "size": [9, 0, 3], "inflate": 0.01, "uv": [37, 14]}
					]
				},
				{
					"name": "wing_back_left2",
					"parent": "wing_bottom_left2",
					"pivot": [18, 18.75, 1.75],
					"rotation": [-50, 0, 0],
					"cubes": [
						{"origin": [13.5, 18.75, 1.75], "size": [9, 0, 3], "inflate": 0.01, "uv": [14, 36]}
					]
				},
				{
					"name": "leg_right1",
					"parent": "body",
					"pivot": [-2.5, 11, -1.5],
					"rotation": [10, 0, 0],
					"cubes": [
						{"origin": [-4, 6.5, -3.5], "size": [3, 6, 4], "inflate": 0.01, "uv": [34, 39]}
					]
				},
				{
					"name": "leg_right2",
					"parent": "leg_right1",
					"pivot": [-2.5, 6.5, 0.25],
					"rotation": [-15, 0, 0],
					"cubes": [
						{"origin": [-3.5, 0.5, -2.75], "size": [2, 6, 3], "uv": [11, 47]}
					]
				},
				{
					"name": "foot_right",
					"parent": "leg_right2",
					"pivot": [-2.5, 1.5, -1.25],
					"rotation": [5, 0, 0],
					"cubes": [
						{"origin": [-4, -0.5, -3.25], "size": [3, 2, 4], "inflate": 0.01, "uv": [0, 44]}
					]
				},
				{
					"name": "toe_front_right1",
					"parent": "foot_right",
					"pivot": [-3.5, 1.5, -3.25],
					"rotation": [0, 10, 0],
					"cubes": [
						{"origin": [-4, -0.5, -7.25], "size": [1, 2, 4], "uv": [52, 43]}
					]
				},
				{
					"name": "toe_front_right2",
					"parent": "foot_right",
					"pivot": [-1.5, 1.5, -3.25],
					"rotation": [0, -10, 0],
					"cubes": [
						{"origin": [-2, -0.5, -7.25], "size": [1, 2, 4], "uv": [51, 51]}
					]
				},
				{
					"name": "toe_back_right",
					"parent": "foot_right",
					"pivot": [-2.5, 1.5, 0.75],
					"cubes": [
						{"origin": [-3, -0.5, 0.75], "size": [1, 2, 3], "uv": [39, 59]}
					]
				},
				{
					"name": "leg_left1",
					"parent": "body",
					"pivot": [2.5, 11, -1.5],
					"rotation": [10, 0, 0],
					"cubes": [
						{"origin": [1, 6.5, -3.5], "size": [3, 6, 4], "inflate": 0.01, "uv": [20, 39]}
					]
				},
				{
					"name": "leg_left2",
					"parent": "leg_left1",
					"pivot": [2.5, 6.5, 0.25],
					"rotation": [-15, 0, 0],
					"cubes": [
						{"origin": [1.5, 0.5, -2.75], "size": [2, 6, 3], "uv": [45, 46]}
					]
				},
				{
					"name": "foot_left",
					"parent": "leg_left2",
					"pivot": [2.5, 1.5, -1.25],
					"rotation": [5, 0, 0],
					"cubes": [
						{"origin": [1, -0.5, -3.25], "size": [3, 2, 4], "inflate": 0.01, "uv": [43, 0]}
					]
				},
				{
					"name": "toe_front_left1",
					"parent": "foot_left",
					"pivot": [3.5, 1.5, -3.25],
					"rotation": [0, -10, 0],
					"cubes": [
						{"origin": [3, -0.5, -7.25], "size": [1, 2, 4], "uv": [47, 33]}
					]
				},
				{
					"name": "toe_front_left2",
					"parent": "foot_left",
					"pivot": [1.5, 1.5, -3.25],
					"rotation": [0, 10, 0],
					"cubes": [
						{"origin": [1, -0.5, -7.25], "size": [1, 2, 4], "uv": [0, 33]}
					]
				},
				{
					"name": "toe_back_left",
					"parent": "foot_left",
					"pivot": [2.5, 1.5, 0.75],
					"cubes": [
						{"origin": [2, -0.5, 0.75], "size": [1, 2, 3], "uv": [56, 14]}
					]
				}
			]
		}
	]
}