{
	"format_version": "1.12.0",
	"minecraft:geometry": [
		{
			"description": {
				"identifier": "geometry.kabutops",
				"texture_width": 64,
				"texture_height": 64,
				"visible_bounds_width": 3,
				"visible_bounds_height": 3.5,
				"visible_bounds_offset": [0, 1.25, 0]
			},
			"bones": [
				{
					"name": "kabutops",
					"pivot": [0, -1.125, 0]
				},
				{
					"name": "body",
					"parent": "kabutops",
					"pivot": [0, 15.375, 1],
					"cubes": [
						{"origin": [-3.5, 13.875, -1], "size": [7, 5, 4], "uv": [0, 9]},
						{"origin": [-3, 10.875, -1], "size": [6, 3, 4], "uv": [0, 45]},
						{"origin": [-5.39804, 9.125, 3.77549], "size": [6, 9, 0], "pivot": [-2.39804, 13.625, 3.77549], "rotation": [0, 15, -5], "uv": [29, 0]},
						{"origin": [-0.60196, 9.125, 3.77549], "size": [6, 9, 0], "pivot": [2.39804, 13.625, 3.77549], "rotation": [0, -15, 5], "uv": [24, 24]},
						{"origin": [-2, 9.01144, -0.87503], "size": [4, 2, 3], "pivot": [0, 9.51144, 0.62497], "rotation": [-5, 0, 0], "uv": [36, 16]},
						{"origin": [-1, 7.56073, -0.75386], "size": [2, 2, 2], "pivot": [0, 8.56073, 0.24614], "rotation": [-20, 0, 0], "uv": [0, 5]}
					]
				},
				{
					"name": "neck",
					"parent": "body",
					"pivot": [0, 18.875, 0.5],
					"cubes": [
						{"origin": [-1, 18.375, -0.5], "size": [2, 3, 2], "uv": [0, 0]}
					]
				},
				{
					"name": "head",
					"parent": "neck",
					"pivot": [0, 20.175, 0.5],
					"rotation": [10, 0, 0],
					"cubes": [
						{"origin": [-2.5, 20.16917, -2.25488], "size": [5, 2, 3], "uv": [22, 11]},
						{"origin": [-3.5, 20.16917, 0.74512], "size": [7, 2, 4], "uv": [18, 18]},
						{"origin": [2.5, 20.92769, -2.31959], "size": [4, 0, 9], "pivot": [0, 21.16917, 2.24512], "rotation": [5, 0, 0], "uv": [0, 0]},
						{"origin": [-6.5, 20.92769, -2.31959], "size": [4, 0, 9], "pivot": [0, 21.16917, 2.24512], "rotation": [5, 0, 0], "uv": [8, 0]},
						{"origin": [0, 17.66917, 4.24512], "size": [0, 4, 2], "pivot": [0, 19.66917, 5.24512], "rotation": [40, 0, 0], "uv": [0, 7]}
					]
				},
				{
					"name": "lefteye",
					"parent": "head",
					"pivot": [2.025, 21.46638, -0.5445],
					"cubes": [
						{"origin": [1.525, 20.96638, -1.5445], "size": [1, 1, 2], "pivot": [0, 21.46638, -0.5445], "rotation": [10, 0, 0], "uv": [58, 0]}
					]
				},
				{
					"name": "righteye",
					"parent": "head",
					"pivot": [-2.025, 21.46638, -0.5445],
					"cubes": [
						{"origin": [-2.525, 20.96638, -1.5445], "size": [1, 1, 2], "pivot": [0, 21.46638, -0.5445], "rotation": [10, 0, 0], "uv": [58, 0], "mirror": true}
					]
				},
				{
					"name": "lefteyelid",
					"parent": "head",
					"pivot": [1.025, 21.46638, -0.5445],
					"cubes": [
						{"origin": [0.525, 20.96638, -1.5445], "size": [1, 1, 2], "inflate": 0.02, "pivot": [-1, 21.46638, -0.5445], "rotation": [10, 0, 0], "uv": [58, 3]}
					]
				},
				{
					"name": "righteyelid",
					"parent": "head",
					"pivot": [-1.025, 21.46638, -0.5445],
					"cubes": [
						{"origin": [-1.525, 20.96638, -1.5445], "size": [1, 1, 2], "inflate": 0.02, "pivot": [1, 21.46638, -0.5445], "rotation": [10, 0, 0], "uv": [58, 3], "mirror": true}
					]
				},
				{
					"name": "leftleg",
					"parent": "body",
					"pivot": [2, 9.375, 1],
					"rotation": [-30, -5, 0],
					"cubes": [
						{"origin": [2, 4.875, -0.5], "size": [2, 6, 3], "uv": [0, 34]}
					]
				},
				{
					"name": "leftknee",
					"parent": "leftleg",
					"pivot": [3, 4.875, 0.5],
					"rotation": [50, 0, 0],
					"cubes": [
						{"origin": [2.5, -0.125, -0.5], "size": [1, 5, 2], "uv": [20, 39]}
					]
				},
				{
					"name": "leftfoot",
					"parent": "leftknee",
					"pivot": [3, -0.125, 0.5],
					"rotation": [-20, 0, 0],
					"cubes": [
						{"origin": [2, -1.125, -3.5], "size": [2, 1, 5], "uv": [31, 28]},
						{"origin": [3.83616, -1.125, -5.49628], "size": [0, 1, 2], "pivot": [3.83616, -0.625, -4.49628], "rotation": [0, -5, 0], "uv": [18, 10]},
						{"origin": [2.16384, -1.125, -5.49628], "size": [0, 1, 2], "pivot": [2.16384, -0.625, -4.49628], "rotation": [0, 5, 0], "uv": [18, 9]}
					]
				},
				{
					"name": "rightleg",
					"parent": "body",
					"pivot": [-2, 9.375, 1],
					"rotation": [-30, 5, 0],
					"cubes": [
						{"origin": [-4, 4.875, -0.5], "size": [2, 6, 3], "uv": [33, 34]}
					]
				},
				{
					"name": "rightknee",
					"parent": "rightleg",
					"pivot": [-3, 4.875, 0.5],
					"rotation": [50, 0, 0],
					"cubes": [
						{"origin": [-3.5, -0.125, -0.5], "size": [1, 5, 2], "uv": [26, 39]}
					]
				},
				{
					"name": "rightfoot",
					"parent": "rightknee",
					"pivot": [-3, -0.125, 0.5],
					"rotation": [-20, 0, 0],
					"cubes": [
						{"origin": [-4, -1.125, -3.5], "size": [2, 1, 5], "uv": [19, 33]},
						{"origin": [-3.83616, -1.125, -5.49628], "size": [0, 1, 2], "pivot": [-3.83616, -0.625, -4.49628], "rotation": [0, 5, 0], "uv": [12, 21]},
						{"origin": [-2.16384, -1.125, -5.49628], "size": [0, 1, 2], "pivot": [-2.16384, -0.625, -4.49628], "rotation": [0, -5, 0], "uv": [12, 20]}
					]
				},
				{
					"name": "tail",
					"parent": "body",
					"pivot": [0, 10.375, 2],
					"cubes": [
						{"origin": [-1, 9.375, 2], "size": [2, 2, 6], "uv": [19, 3]}
					]
				},
				{
					"name": "tail2",
					"parent": "tail",
					"pivot": [0, 10.375, 8],
					"cubes": [
						{"origin": [-1, 9.875, 8], "size": [2, 1, 4], "uv": [10, 36]}
					]
				},
				{
					"name": "leftarm",
					"parent": "body",
					"pivot": [3.5, 17.375, 1],
					"cubes": [
						{"origin": [3.5, 16.375, 0], "size": [5, 2, 2], "uv": [36, 24]}
					]
				},
				{
					"name": "leftforearm",
					"parent": "leftarm",
					"pivot": [8.5, 17.375, 1],
					"cubes": [
						{"origin": [8.5, 16.875, 0.5], "size": [5, 1, 1], "uv": [22, 16]},
						{"origin": [13.5, 16.125, 0.5], "size": [2, 2, 1], "uv": [28, 34]},
						{"origin": [9.5, 4.125, 1], "size": [6, 12, 0], "uv": [0, 22]}
					]
				},
				{
					"name": "rightarm",
					"parent": "body",
					"pivot": [-3.5, 17.375, 1],
					"cubes": [
						{"origin": [-8.5, 16.375, 0], "size": [5, 2, 2], "uv": [37, 9]}
					]
				},
				{
					"name": "rightforearm",
					"parent": "rightarm",
					"pivot": [-8.5, 17.375, 1],
					"cubes": [
						{"origin": [-13.5, 16.875, 0.5], "size": [5, 1, 1], "uv": [40, 13]},
						{"origin": [-15.5, 16.125, 0.5], "size": [2, 2, 1], "uv": [40, 21]},
						{"origin": [-15.5, 4.125, 1], "size": [6, 12, 0], "uv": [12, 24]}
					]
				}
			]
		}
	]
}