{
	"format_version": "1.8.0",
	"animations": {
		"animation.raichu.ground_idle": {
			"loop": true,
			"bones": {
				"tail": {
					"rotation": [15, -30, 0]
				},
				"tail2": {
					"rotation": [30, 15, 0]
				},
				"tail3": {
					"rotation": [30, 30, 0]
				},
				"tail4": {
					"rotation": [15, 15, 0]
				},
				"arm_right": {
					"rotation": [15, -10, -40]
				},
				"arm_right2": {
					"rotation": [0, -30, 0]
				},
				"arm_left": {
					"rotation": [15, 10, 40]
				},
				"arm_left2": {
					"rotation": [0, 30, 0]
				}
			}
		}
	}
}