{
	"format_version": "1.12.0",
	"minecraft:geometry": [
		{
			"description": {
				"identifier": "geometry.mankey",
				"texture_width": 32,
				"texture_height": 32,
				"visible_bounds_width": 4,
				"visible_bounds_height": 2.5,
				"visible_bounds_offset": [0, 0.75, 0]
			},
			"bones": [
				{
					"name": "mankey",
					"pivot": [0, -1, 0]
				},
				{
					"name": "body",
					"parent": "mankey",
					"pivot": [0, 9.5, 0.75],
					"cubes": [
						{"origin": [-4.5, 5.5, -2.75], "size": [9, 8, 7], "uv": [0, 0]},
						{"origin": [-1.5, 6.75, -3.25], "size": [3, 2, 1], "uv": [24, 21]}
					]
				},
				{
					"name": "eyes",
					"parent": "body",
					"pivot": [0, 9.75, -2.775],
					"cubes": [
						{"origin": [-3.5, 8.75, -2.775], "size": [3, 2, 0], "inflate": 0.01, "pivot": [-2, 9.75, -2.775], "rotation": [0, 0, 15], "uv": [8, 30]},
						{"origin": [0.5, 8.75, -2.775], "size": [3, 2, 0], "inflate": 0.01, "pivot": [2, 9.75, -2.775], "rotation": [0, 0, -15], "uv": [8, 30], "mirror": true}
					]
				},
				{
					"name": "eyelids",
					"parent": "eyes",
					"pivot": [0, 9.75, -2.275],
					"cubes": [
						{"origin": [-3.5, 8.75, -2.675], "size": [3, 2, 1], "inflate": 0.02, "pivot": [-2, 9.75, -2.775], "rotation": [0, 0, 15], "uv": [0, 0]},
						{"origin": [0.5, 8.75, -2.675], "size": [3, 2, 1], "inflate": 0.02, "pivot": [2, 9.75, -2.775], "rotation": [0, 0, -15], "uv": [0, 0]}
					]
				},
				{
					"name": "arm_right",
					"parent": "body",
					"pivot": [-4.5, 10.25, 0.25],
					"cubes": [
						{"origin": [-9.5, 9.25, -0.75], "size": [6, 2, 2], "inflate": 0.02, "uv": [0, 22]}
					]
				},
				{
					"name": "forearm_right",
					"parent": "arm_right",
					"pivot": [-9.5, 10.25, 1.25],
					"cubes": [
						{"origin": [-14.5, 9.75, -0.75], "size": [5, 1, 2], "uv": [14, 29]}
					]
				},
				{
					"name": "hand_right",
					"parent": "forearm_right",
					"pivot": [-14.5, 10.75, 0.25],
					"cubes": [
						{"origin": [-16.5, 9.75, -1.25], "size": [2, 1, 3], "inflate": 0.02, "uv": [16, 25]}
					]
				},
				{
					"name": "finger_right1",
					"parent": "hand_right",
					"pivot": [-16.5, 10.75, 1.25],
					"cubes": [
						{"origin": [-18.5, 9.75, 0.75], "size": [2, 1, 1], "uv": [0, 5]}
					]
				},
				{
					"name": "finger_right2",
					"parent": "hand_right",
					"pivot": [-16.5, 10.75, 0.25],
					"cubes": [
						{"origin": [-18.5, 9.75, -0.25], "size": [2, 1, 1], "uv": [0, 3]}
					]
				},
				{
					"name": "finger_right3",
					"parent": "hand_right",
					"pivot": [-16.5, 10.75, -0.75],
					"cubes": [
						{"origin": [-18.5, 9.75, -1.25], "size": [2, 1, 1], "uv": [26, 29]}
					]
				},
				{
					"name": "arm_left",
					"parent": "body",
					"pivot": [4.5, 10.25, 0.25],
					"cubes": [
						{"origin": [3.5, 9.25, -0.75], "size": [6, 2, 2], "inflate": 0.02, "uv": [0, 22], "mirror": true}
					]
				},
				{
					"name": "forearm_left",
					"parent": "arm_left",
					"pivot": [9.5, 10.25, 1.25],
					"cubes": [
						{"origin": [9.5, 9.75, -0.75], "size": [5, 1, 2], "uv": [14, 29], "mirror": true}
					]
				},
				{
					"name": "hand_left",
					"parent": "forearm_left",
					"pivot": [14.5, 10.75, 0.25],
					"cubes": [
						{"origin": [14.5, 9.75, -1.25], "size": [2, 1, 3], "inflate": 0.02, "uv": [16, 25], "mirror": true}
					]
				},
				{
					"name": "finger_left1",
					"parent": "hand_left",
					"pivot": [16.5, 10.75, 1.25],
					"cubes": [
						{"origin": [16.5, 9.75, 0.75], "size": [2, 1, 1], "uv": [0, 5], "mirror": true}
					]
				},
				{
					"name": "finger_left2",
					"parent": "hand_left",
					"pivot": [16.5, 10.75, 0.25],
					"cubes": [
						{"origin": [16.5, 9.75, -0.25], "size": [2, 1, 1], "uv": [0, 3], "mirror": true}
					]
				},
				{
					"name": "finger_left3",
					"parent": "hand_left",
					"pivot": [16.5, 10.75, -0.75],
					"cubes": [
						{"origin": [16.5, 9.75, -1.25], "size": [2, 1, 1], "uv": [26, 29], "mirror": true}
					]
				},
				{
					"name": "ear_right",
					"parent": "body",
					"pivot": [-3, 12.5, 0.25],
					"rotation": [0, 20, -25],
					"cubes": [
						{"origin": [-4.5, 12.5, 0.25], "size": [3, 4, 0], "uv": [26, 0]}
					]
				},
				{
					"name": "ear_left",
					"parent": "body",
					"pivot": [3, 12.5, 0.25],
					"rotation": [0, -20, 25],
					"cubes": [
						{"origin": [1.5, 12.5, 0.25], "size": [3, 4, 0], "uv": [26, 0], "mirror": true}
					]
				},
				{
					"name": "hair",
					"parent": "body",
					"pivot": [0, 13.5, 0.75],
					"rotation": [-70, 0, 0],
					"cubes": [
						{"origin": [-4, 13.5, 0.75], "size": [8, 4, 0], "uv": [0, 26]}
					]
				},
				{
					"name": "hair_right",
					"parent": "body",
					"pivot": [-3.75, 7.5, 1.5],
					"rotation": [0, 15, -15],
					"cubes": [
						{"origin": [-5.75, 6, 1.5], "size": [2, 3, 0], "uv": [0, 15]}
					]
				},
				{
					"name": "hair_left",
					"parent": "body",
					"pivot": [3.75, 7.5, 1.5],
					"rotation": [0, -15, 15],
					"cubes": [
						{"origin": [3.75, 6, 1.5], "size": [2, 3, 0], "uv": [0, 15], "mirror": true}
					]
				},
				{
					"name": "tail1",
					"parent": "body",
					"pivot": [0, 6.75, 3.75],
					"cubes": [
						{"origin": [0, 5.75, 3.75], "size": [0, 2, 4], "inflate": 0.01, "uv": [14, 16]}
					]
				},
				{
					"name": "tail2",
					"parent": "tail1",
					"pivot": [0, 5.75, 7.75],
					"cubes": [
						{"origin": [0, 5.75, 7.75], "size": [0, 2, 4], "uv": [14, 18]}
					]
				},
				{
					"name": "tail3",
					"parent": "tail2",
					"pivot": [0, 5.75, 11.75],
					"cubes": [
						{"origin": [0, 5.75, 11.75], "size": [0, 2, 4], "inflate": 0.01, "uv": [0, 26]}
					]
				},
				{
					"name": "tail4",
					"parent": "tail3",
					"pivot": [0, 5.75, 15.75],
					"cubes": [
						{"origin": [0, 5.75, 15.75], "size": [0, 5, 5], "uv": [15, 10]}
					]
				},
				{
					"name": "leg_right",
					"parent": "body",
					"pivot": [-3, 6, 0.75],
					"rotation": [65, 10, 5],
					"cubes": [
						{"origin": [-4, 4.75, -2.5], "size": [2, 2, 5], "uv": [0, 15]}
					]
				},
				{
					"name": "knee_right",
					"parent": "leg_right",
					"pivot": [-3, 6.75, -2.5],
					"rotation": [-50, 0, 0],
					"cubes": [
						{"origin": [-3.5, 3.75, -2.5], "size": [1, 3, 2], "uv": [9, 15]}
					]
				},
				{
					"name": "foot_right",
					"parent": "knee_right",
					"pivot": [-3, 4, -1.5],
					"rotation": [-15, 0, -5],
					"cubes": [
						{"origin": [-4, 3, -3.25], "size": [2, 1, 3], "uv": [22, 17]}
					]
				},
				{
					"name": "toe_right1",
					"parent": "foot_right",
					"pivot": [-3.5, 4, -3.25],
					"rotation": [2.5, 15, 0],
					"cubes": [
						{"origin": [-4, 3, -6.1], "size": [1, 1, 3], "uv": [24, 24]}
					]
				},
				{
					"name": "toe_right2",
					"parent": "foot_right",
					"pivot": [-2.5, 4, -3.25],
					"rotation": [2.5, -15, 0],
					"cubes": [
						{"origin": [-3, 3, -6.1], "size": [1, 1, 3], "uv": [19, 21]}
					]
				},
				{
					"name": "toe_right3",
					"parent": "foot_right",
					"pivot": [-3, 4, -0.25],
					"cubes": [
						{"origin": [-3.5, 3, -0.25], "size": [1, 1, 2], "uv": [26, 4]}
					]
				},
				{
					"name": "leg_left",
					"parent": "body",
					"pivot": [3, 6, 0.75],
					"rotation": [65, -10, -5],
					"cubes": [
						{"origin": [2, 4.75, -2.5], "size": [2, 2, 5], "uv": [0, 15], "mirror": true}
					]
				},
				{
					"name": "knee_left",
					"parent": "leg_left",
					"pivot": [3, 6.75, -2.5],
					"rotation": [-50, 0, 0],
					"cubes": [
						{"origin": [2.5, 3.75, -2.5], "size": [1, 3, 2], "uv": [9, 15], "mirror": true}
					]
				},
				{
					"name": "foot_left",
					"parent": "knee_left",
					"pivot": [3, 4, -1.5],
					"rotation": [-15, 0, 5],
					"cubes": [
						{"origin": [2, 3, -3.25], "size": [2, 1, 3], "uv": [22, 17], "mirror": true}
					]
				},
				{
					"name": "toe_left1",
					"parent": "foot_left",
					"pivot": [3.5, 4, -3.25],
					"rotation": [2.5, -15, 0],
					"cubes": [
						{"origin": [3, 3, -6.1], "size": [1, 1, 3], "uv": [24, 24], "mirror": true}
					]
				},
				{
					"name": "toe_left2",
					"parent": "foot_left",
					"pivot": [2.5, 4, -3.25],
					"rotation": [2.5, 15, 0],
					"cubes": [
						{"origin": [2, 3, -6.1], "size": [1, 1, 3], "uv": [19, 21], "mirror": true}
					]
				},
				{
					"name": "toe_left3",
					"parent": "foot_left",
					"pivot": [3, 4, -0.25],
					"cubes": [
						{"origin": [2.5, 3, -0.25], "size": [1, 1, 2], "uv": [26, 4], "mirror": true}
					]
				}
			]
		}
	]
}