{
	"format_version": "1.12.0",
	"minecraft:geometry": [
		{
			"description": {
				"identifier": "geometry.staryu",
				"texture_width": 64,
				"texture_height": 64,
				"visible_bounds_width": 3,
				"visible_bounds_height": 2.5,
				"visible_bounds_offset": [0, 0.75, 0]
			},
			"bones": [
				{
					"name": "staryu",
					"pivot": [0, 0, 0]
				},
				{
					"name": "body",
					"parent": "staryu",
					"pivot": [0, 7.5, -0.25],
					"cubes": [
						{"origin": [-3.5, 4, -2.25], "size": [7, 7, 4], "uv": [0, 0]},
						{"origin": [-1.5, 6, -3], "size": [3, 3, 1], "uv": [18, 0]},
						{"origin": [-2, 10.25, -1.25], "size": [4, 6, 3], "pivot": [-0.5, 13.75, 0.25], "rotation": [-5, 0, 0], "uv": [18, 22]}
					]
				},
				{
					"name": "leftarm",
					"parent": "body",
					"pivot": [-3.21023, 8.75, -0.08906],
					"rotation": [0, 0, 10],
					"cubes": [
						{"origin": [-9, 6.75, -1.25], "size": [6, 4, 3], "pivot": [-7, 0.75, -0.25], "rotation": [0, 5, 0], "uv": [0, 19]}
					]
				},
				{
					"name": "rightarm",
					"parent": "body",
					"pivot": [3.21023, 8.75, -0.08906],
					"rotation": [0, 0, -10],
					"cubes": [
						{"origin": [3, 6.75, -1.25], "size": [6, 4, 3], "pivot": [7, 0.75, -0.25], "rotation": [0, -5, 0], "uv": [19, 8]}
					]
				},
				{
					"name": "leftleg",
					"parent": "body",
					"pivot": [-1.71023, 5.75, -0.08906],
					"rotation": [0, 0, -65],
					"cubes": [
						{"origin": [-7.5, 3.75, -1.25], "size": [6, 4, 3], "pivot": [-5.5, -2.25, -0.25], "rotation": [0, 5, 0], "uv": [15, 15]}
					]
				},
				{
					"name": "rightleg",
					"parent": "body",
					"pivot": [1.71023, 5.75, -0.08906],
					"rotation": [0, 0, 65],
					"cubes": [
						{"origin": [1.5, 3.75, -1.25], "size": [6, 4, 3], "pivot": [5.5, -2.25, -0.25], "rotation": [0, -5, 0], "uv": [0, 11]}
					]
				}
			]
		}
	]
}