{
	"format_version": "1.12.0",
	"minecraft:geometry": [
		{
			"description": {
				"identifier": "geometry.dartrix",
				"texture_width": 64,
				"texture_height": 64,
				"visible_bounds_width": 2,
				"visible_bounds_height": 2.5,
				"visible_bounds_offset": [0, 0.75, 0]
			},
			"bones": [
				{
					"name": "dartrix",
					"pivot": [0, 0, 0]
				},
				{
					"name": "body",
					"parent": "dartrix",
					"pivot": [0, 0, 0]
				},
				{
					"name": "torso",
					"parent": "body",
					"pivot": [0, 4, 0.25],
					"cubes": [
						{"origin": [-4, 4, -2.75], "size": [8, 2, 6], "uv": [0, 18]},
						{"origin": [-4, 6, -3.25], "size": [8, 11, 7], "uv": [0, 0]},
						{"origin": [-1, 13.25, -4.25], "size": [2, 2, 1], "uv": [5, 33]}
					]
				},
				{
					"name": "eyes",
					"parent": "torso",
					"pivot": [0, 14.1, -3.275],
					"cubes": [
						{"origin": [0.4, 13.6, -3.275], "size": [3, 1, 0], "inflate": 0.01, "pivot": [1.9, 14.1, -3.275], "rotation": [0, 0, -5], "uv": [0, 38]},
						{"origin": [-3.4, 13.6, -3.275], "size": [3, 1, 0], "inflate": 0.01, "pivot": [-1.9, 14.1, -3.275], "rotation": [0, 0, 5], "uv": [0, 38], "mirror": true}
					]
				},
				{
					"name": "jaw",
					"parent": "torso",
					"pivot": [0, 13.25, -3.25],
					"cubes": [
						{"origin": [-1, 12.25, -4.25], "size": [2, 1, 1], "uv": [22, 22]}
					]
				},
				{
					"name": "wing_right1",
					"parent": "torso",
					"pivot": [-4, 11, 0.25],
					"cubes": [
						{"origin": [-7, 8, 0.25], "size": [3, 6, 0], "inflate": 0.01, "uv": [0, 18]}
					]
				},
				{
					"name": "wing_right2",
					"parent": "wing_right1",
					"pivot": [-7, 11, 0.25],
					"cubes": [
						{"origin": [-12, 7.5, 0.25], "size": [5, 7, 0], "inflate": 0.02, "uv": [10, 26]}
					]
				},
				{
					"name": "feather_right1",
					"parent": "wing_right2",
					"pivot": [-11.75, 8.5, 0.25],
					"rotation": [0, 0, -2.5],
					"cubes": [
						{"origin": [-15.75, 7.5, 0.25], "size": [4, 2, 0], "uv": [26, 36]}
					]
				},
				{
					"name": "feather_right2",
					"parent": "wing_right2",
					"pivot": [-12, 10.5, 0.25],
					"cubes": [
						{"origin": [-16, 9.5, 0.25], "size": [4, 2, 0], "inflate": 0.01, "uv": [36, 19]}
					]
				},
				{
					"name": "feather_right3",
					"parent": "wing_right2",
					"pivot": [-11.75, 12.5, 0.25],
					"rotation": [0, 0, 2.5],
					"cubes": [
						{"origin": [-15.75, 11.5, 0.25], "size": [4, 2, 0], "uv": [36, 17]}
					]
				},
				{
					"name": "feather_right4",
					"parent": "wing_right2",
					"pivot": [-10, 13.75, 0.25],
					"rotation": [0, 0, 12.5],
					"cubes": [
						{"origin": [-15, 12.75, 0.25], "size": [5, 2, 0], "inflate": 0.01, "uv": [30, 27]}
					]
				},
				{
					"name": "wing_left1",
					"parent": "torso",
					"pivot": [4, 11, 0.25],
					"cubes": [
						{"origin": [4, 8, 0.25], "size": [3, 6, 0], "inflate": 0.01, "uv": [0, 0]}
					]
				},
				{
					"name": "wing_left2",
					"parent": "wing_left1",
					"pivot": [7, 11, 0.25],
					"cubes": [
						{"origin": [7, 7.5, 0.25], "size": [5, 7, 0], "inflate": 0.03, "uv": [0, 26]}
					]
				},
				{
					"name": "feather_left1",
					"parent": "wing_left2",
					"pivot": [11.75, 8.5, 0.25],
					"rotation": [0, 0, 2.5],
					"cubes": [
						{"origin": [11.75, 7.5, 0.25], "size": [4, 2, 0], "uv": [36, 7]}
					]
				},
				{
					"name": "feather_left2",
					"parent": "wing_left2",
					"pivot": [12, 10.5, 0.25],
					"cubes": [
						{"origin": [12, 9.5, 0.25], "size": [4, 2, 0], "inflate": 0.01, "uv": [34, 25]}
					]
				},
				{
					"name": "feather_left3",
					"parent": "wing_left2",
					"pivot": [11.75, 12.5, 0.25],
					"rotation": [0, 0, -2.5],
					"cubes": [
						{"origin": [11.75, 11.5, 0.25], "size": [4, 2, 0], "uv": [33, 5]}
					]
				},
				{
					"name": "feather_left4",
					"parent": "wing_left2",
					"pivot": [10, 13.75, 0.25],
					"rotation": [0, 0, -12.5],
					"cubes": [
						{"origin": [10, 12.75, 0.25], "size": [5, 2, 0], "inflate": 0.01, "uv": [29, 3]}
					]
				},
				{
					"name": "leaf_right",
					"parent": "torso",
					"pivot": [0, 9.5, -3.25],
					"rotation": [0, -2.5, -10],
					"cubes": [
						{"origin": [-4, 8, -3.25], "size": [4, 3, 0], "inflate": 0.01, "uv": [34, 22]}
					]
				},
				{
					"name": "leaf_left",
					"parent": "torso",
					"pivot": [0, 9.5, -3.25],
					"rotation": [0, 2.5, 10],
					"cubes": [
						{"origin": [0, 8, -3.25], "size": [4, 3, 0], "inflate": 0.01, "uv": [34, 29]}
					]
				},
				{
					"name": "tail_right",
					"parent": "torso",
					"pivot": [-1.25, 7, 3.75],
					"rotation": [-75, 0, 10],
					"cubes": [
						{"origin": [-2.75, 7, 3.75], "size": [3, 0, 5], "inflate": 0.01, "uv": [23, 22]}
					]
				},
				{
					"name": "tail_left",
					"parent": "torso",
					"pivot": [1.25, 7, 3.75],
					"rotation": [-75, 0, -10],
					"cubes": [
						{"origin": [-0.25, 7, 3.75], "size": [3, 0, 5], "inflate": 0.01, "uv": [18, 0]}
					]
				},
				{
					"name": "back_fluff",
					"parent": "torso",
					"pivot": [0, 16, 3.75],
					"rotation": [-70, 0, 0],
					"cubes": [
						{"origin": [-3.5, 16, 3.75], "size": [7, 0, 4], "inflate": 0.01, "uv": [18, 18]}
					]
				},
				{
					"name": "hair_right1",
					"parent": "torso",
					"pivot": [-2, 15.25, -3.25],
					"rotation": [-75, 0, 0],
					"cubes": [
						{"origin": [-5, 15.25, -5.25], "size": [5, 0, 2], "inflate": 0.01, "uv": [21, 5]}
					]
				},
				{
					"name": "hair_right2",
					"parent": "hair_right1",
					"pivot": [-3, 15.25, -5.25],
					"rotation": [125, 0, 0],
					"cubes": [
						{"origin": [-5, 15.25, -8.25], "size": [4, 0, 3], "inflate": 0.01, "uv": [26, 0]}
					]
				},
				{
					"name": "hair_right3",
					"parent": "hair_right2",
					"pivot": [-3, 15.25, -8.25],
					"rotation": [45, 0, 0],
					"cubes": [
						{"origin": [-4, 15.25, -11.25], "size": [3, 0, 3], "inflate": 0.01, "uv": [17, 26]}
					]
				},
				{
					"name": "hair_left",
					"parent": "torso",
					"pivot": [0, 15.25, -3.25],
					"rotation": [0, 5, -5],
					"cubes": [
						{"origin": [-0.02171, 13.00095, -3.2519], "size": [4, 4, 0], "inflate": 0.01, "uv": [26, 31]}
					]
				},
				{
					"name": "leg_right",
					"parent": "body",
					"pivot": [-2.25, 4, 0.25],
					"cubes": [
						{"origin": [-3.25, 1, -0.75], "size": [2, 4, 2], "uv": [18, 31]}
					]
				},
				{
					"name": "foot_right",
					"parent": "leg_right",
					"pivot": [-2.25, 1, 0.25],
					"cubes": [
						{"origin": [-3.25, 0, -1.5], "size": [2, 1, 3], "inflate": 0.01, "uv": [30, 13]}
					]
				},
				{
					"name": "toe_front_right1",
					"parent": "foot_right",
					"pivot": [-2.75, 1, -1.5],
					"rotation": [0, 10, 0],
					"cubes": [
						{"origin": [-3.25, 0, -4.5], "size": [1, 1, 3], "uv": [13, 34]}
					]
				},
				{
					"name": "toe_front_right2",
					"parent": "foot_right",
					"pivot": [-1.75, 1, -1.5],
					"rotation": [0, -10, 0],
					"cubes": [
						{"origin": [-2.25, 0, -4.5], "size": [1, 1, 3], "uv": [8, 33]}
					]
				},
				{
					"name": "toe_back_right",
					"parent": "foot_right",
					"pivot": [-2.25, 1, 1.5],
					"cubes": [
						{"origin": [-2.75, 0, 1.5], "size": [1, 1, 2], "uv": [36, 32]}
					]
				},
				{
					"name": "leg_left",
					"parent": "body",
					"pivot": [2.25, 4, 0.25],
					"cubes": [
						{"origin": [1.25, 1, -0.75], "size": [2, 4, 2], "uv": [30, 7]}
					]
				},
				{
					"name": "foot_left",
					"parent": "leg_left",
					"pivot": [2.25, 1, 0.25],
					"cubes": [
						{"origin": [1.25, 0, -1.5], "size": [2, 1, 3], "inflate": 0.01, "uv": [23, 27]}
					]
				},
				{
					"name": "toe_front_left1",
					"parent": "foot_left",
					"pivot": [2.75, 1, -1.5],
					"rotation": [0, -10, 0],
					"cubes": [
						{"origin": [2.25, 0, -4.5], "size": [1, 1, 3], "uv": [0, 33]}
					]
				},
				{
					"name": "toe_front_left2",
					"parent": "foot_left",
					"pivot": [1.75, 1, -1.5],
					"rotation": [0, 10, 0],
					"cubes": [
						{"origin": [1.25, 0, -4.5], "size": [1, 1, 3], "uv": [31, 32]}
					]
				},
				{
					"name": "toe_back_left",
					"parent": "foot_left",
					"pivot": [2.25, 1, 1.5],
					"cubes": [
						{"origin": [1.75, 0, 1.5], "size": [1, 1, 2], "uv": [32, 36]}
					]
				}
			]
		}
	]
}