{
    "name": "bruxish",
    "nationalPokedexNumber": 779,
    "primaryType": "water",
    "secondaryType": "psychic",
    "abilities": [
        "dazzling",
        "strongjaw",
        "h:wonderskin"
    ],
    "baseStats": {
        "hp": 68,
        "attack": 105,
        "defence": 70,
        "special_attack": 70,
        "special_defence": 70,
        "speed": 92
    },
    "catchRate": 80,
    "maleRatio": 0.5,
    "shoulderMountable": false,
    "forms": [],
    "baseExperienceYield": 166,
    "experienceGroup": "mediumfast",
    "eggCycles": 15,
    "eggGroups": [
        "water_2"
    ],
    "moves": [
        "1:watergun",
        "4:astonish",
        "9:confusion",
        "12:bite",
        "17:aquajet",
        "20:disable",
        "25:psywave",
        "28:crunch",
        "33:aquatail",
        "36:screech",
        "41:psychicfangs",
        "44:synchronoise",
        "egg:icefang",
        "egg:poisonfang",
        "egg:rage",
        "egg:waterpulse",
        "tm:aerialace",
        "tm:attract",
        "tm:blizzard",
        "tm:bulkup",
        "tm:calmmind",
        "tm:confide",
        "tm:doubleteam",
        "tm:dreameater",
        "tm:embargo",
        "tm:facade",
        "tm:fling",
        "tm:frostbreath",
        "tm:frustration",
        "tm:gigaimpact",
        "tm:hiddenpower",
        "tm:icebeam",
        "tm:lightscreen",
        "tm:payback",
        "tm:protect",
        "tm:psychic",
        "tm:raindance",
        "tm:reflect",
        "tm:rest",
        "tm:return",
        "tm:round",
        "tm:safeguard",
        "tm:scald",
        "tm:sleeptalk",
        "tm:substitute",
        "tm:surf",
        "tm:swagger",
        "tm:swordsdance",
        "tm:taunt",
        "tm:torment",
        "tm:toxic",
        "tm:trickroom",
        "tm:venoshock",
        "tm:waterfall",
        "tutor:afteryou",
        "tutor:allyswitch",
        "tutor:aquatail",
        "tutor:irontail",
        "tutor:liquidation",
        "tutor:magiccoat",
        "tutor:magicroom",
        "tutor:painsplit",
        "tutor:signalbeam",
        "tutor:snatch",
        "tutor:snore",
        "tutor:telekinesis",
        "tutor:uproar",
        "tutor:waterpulse",
        "tutor:wonderroom"
    ],
    "labels": [
        "gen7"
    ],
    "pokedex": [
        "cobblemon.species.bruxish.desc1",
        "cobblemon.species.bruxish.desc2"
    ],
    "evolutions": [],
    "baseScale": 1.0,
    "hitbox": {
        "width": 1.0,
        "height": 1.0,
        "fixed": false
    },
    "baseFriendship": 70,
    "evYield": {
        "attack": 2
    },
    "height": 9,
    "weight": 190
}