{
    "name": "mudbray",
    "nationalPokedexNumber": 749,
    "primaryType": "ground",
    "abilities": [
        "owntempo",
        "stamina",
        "h:innerfocus"
    ],
    "baseStats": {
        "hp": 70,
        "attack": 100,
        "defence": 70,
        "special_attack": 45,
        "special_defence": 55,
        "speed": 45
    },
    "catchRate": 190,
    "maleRatio": 0.5,
    "shoulderMountable": false,
    "forms": [],
    "baseExperienceYield": 77,
    "experienceGroup": "mediumfast",
    "eggCycles": 20,
    "eggGroups": [
        "field"
    ],
    "moves": [
        "1:mudslap",
        "1:rocksmash",
        "3:mudsport",
        "4:irondefense",
        "8:doublekick",
        "8:rototiller",
        "12:bulldoze",
        "16:stomp",
        "20:strength",
        "22:bide",
        "24:counter",
        "28:highhorsepower",
        "32:heavyslam",
        "36:earthquake",
        "40:megakick",
        "44:superpower",
        "egg:doubleedge",
        "egg:fissure",
        "egg:magnitude",
        "egg:mudbomb",
        "egg:roar",
        "egg:smackdown",
        "tm:attract",
        "tm:bodyslam",
        "tm:bulldoze",
        "tm:closecombat",
        "tm:confide",
        "tm:doubleteam",
        "tm:earthpower",
        "tm:earthquake",
        "tm:endure",
        "tm:facade",
        "tm:frustration",
        "tm:heavyslam",
        "tm:hiddenpower",
        "tm:highhorsepower",
        "tm:irondefense",
        "tm:ironhead",
        "tm:lowkick",
        "tm:lowsweep",
        "tm:megakick",
        "tm:payback",
        "tm:protect",
        "tm:rest",
        "tm:return",
        "tm:rockslide",
        "tm:rocktomb",
        "tm:round",
        "tm:sandstorm",
        "tm:sandtomb",
        "tm:sleeptalk",
        "tm:snore",
        "tm:stealthrock",
        "tm:stompingtantrum",
        "tm:substitute",
        "tm:superpower",
        "tm:swagger",
        "tm:toxic",
        "tutor:endeavor"
    ],
    "labels": [
        "gen7"
    ],
    "pokedex": [
        "cobblemon.species.mudbray.desc1",
        "cobblemon.species.mudbray.desc2"
    ],
    "evolutions": [
        {
            "id": "mudbray_mudsdale",
            "variant": "level_up",
            "result": "mudsdale",
            "consumeHeldItem": false,
            "learnableMoves": [],
            "requirements": [
                {
                    "variant": "level",
                    "minLevel": 30
                }
            ]
        }
    ],
    "baseScale": 1.0,
    "hitbox": {
        "width": 1.0,
        "height": 1.0,
        "fixed": false
    },
    "baseFriendship": 50,
    "evYield": {
        "attack": 1
    },
    "height": 10,
    "weight": 1100
}