{
    "name": "shiinotic",
    "nationalPokedexNumber": 756,
    "primaryType": "grass",
    "secondaryType": "fairy",
    "abilities": [
        "illuminate",
        "effectspore",
        "h:raindish"
    ],
    "baseStats": {
        "hp": 60,
        "attack": 45,
        "defence": 80,
        "special_attack": 90,
        "special_defence": 100,
        "speed": 30
    },
    "catchRate": 75,
    "maleRatio": 0.5,
    "shoulderMountable": false,
    "forms": [],
    "baseExperienceYield": 142,
    "experienceGroup": "mediumfast",
    "eggCycles": 20,
    "eggGroups": [
        "grass"
    ],
    "moves": [
        "1:absorb",
        "1:confuseray",
        "1:flash",
        "1:ingrain",
        "1:astonish",
        "8:flash",
        "12:megadrain",
        "16:sleeppowder",
        "20:moonlight",
        "27:strengthsap",
        "32:gigadrain",
        "38:dazzlinggleam",
        "44:spore",
        "50:moonblast",
        "53:spotlight",
        "56:dreameater",
        "tm:amnesia",
        "tm:attract",
        "tm:chargebeam",
        "tm:confide",
        "tm:dazzlinggleam",
        "tm:doubleteam",
        "tm:drainingkiss",
        "tm:drainpunch",
        "tm:endure",
        "tm:energyball",
        "tm:facade",
        "tm:frustration",
        "tm:gigadrain",
        "tm:gigaimpact",
        "tm:grassknot",
        "tm:hiddenpower",
        "tm:hyperbeam",
        "tm:lightscreen",
        "tm:magicroom",
        "tm:naturepower",
        "tm:pollenpuff",
        "tm:protect",
        "tm:raindance",
        "tm:rest",
        "tm:return",
        "tm:round",
        "tm:safeguard",
        "tm:seedbomb",
        "tm:sleeptalk",
        "tm:sludgebomb",
        "tm:snore",
        "tm:solarbeam",
        "tm:substitute",
        "tm:sunnyday",
        "tm:swagger",
        "tm:thunderwave",
        "tm:toxic",
        "tm:weatherball",
        "tm:wonderroom",
        "tutor:afteryou",
        "tutor:magiccoat",
        "tutor:recycle",
        "tutor:signalbeam",
        "tutor:synthesis",
        "tutor:worryseed"
    ],
    "labels": [
        "gen7"
    ],
    "pokedex": [
        "cobblemon.species.shiinotic.desc1",
        "cobblemon.species.shiinotic.desc2"
    ],
    "preEvolution": "morelull",
    "evolutions": [],
    "baseScale": 1.0,
    "hitbox": {
        "width": 1.0,
        "height": 1.0,
        "fixed": false
    },
    "baseFriendship": 50,
    "evYield": {
        "special_defence": 2
    },
    "height": 10,
    "weight": 115
}