{
    "name": "vikavolt",
    "nationalPokedexNumber": 738,
    "primaryType": "bug",
    "secondaryType": "electric",
    "abilities": [
        "levitate"
    ],
    "baseStats": {
        "hp": 77,
        "attack": 70,
        "defence": 90,
        "special_attack": 145,
        "special_defence": 75,
        "speed": 43
    },
    "catchRate": 45,
    "maleRatio": 0.5,
    "shoulderMountable": false,
    "forms": [
        {
            "name": "totem",
            "baseExperienceYield": 225,
            "moves": [
                "0:thunderbolt",
                "1:visegrip",
                "1:bite",
                "1:stringshot",
                "1:thunderbolt",
                "1:mudslap",
                "1:charge",
                "1:airslash",
                "4:stringshot",
                "7:mudslap",
                "10:bite",
                "13:bugbite",
                "16:spark",
                "19:acrobatics",
                "25:guillotine",
                "31:bugbuzz",
                "37:dig",
                "41:zapcannon",
                "49:agility",
                "tm:acrobatics",
                "tm:attract",
                "tm:chargebeam",
                "tm:confide",
                "tm:doubleteam",
                "tm:energyball",
                "tm:facade",
                "tm:flashcannon",
                "tm:frustration",
                "tm:gigaimpact",
                "tm:hiddenpower",
                "tm:hyperbeam",
                "tm:lightscreen",
                "tm:poisonjab",
                "tm:protect",
                "tm:raindance",
                "tm:rest",
                "tm:return",
                "tm:roost",
                "tm:round",
                "tm:skydrop",
                "tm:sleeptalk",
                "tm:solarbeam",
                "tm:substitute",
                "tm:swagger",
                "tm:thunder",
                "tm:thunderbolt",
                "tm:thunderwave",
                "tm:toxic",
                "tm:voltswitch",
                "tm:wildcharge",
                "tm:xscissor",
                "tutor:bugbite",
                "tutor:electroweb",
                "tutor:irondefense",
                "tutor:laserfocus",
                "tutor:magnetrise",
                "tutor:shockwave",
                "tutor:signalbeam",
                "tutor:snore"
            ],
            "pokedex": [
                "cobblemon.form.vikavolt-totem.desc1",
                "cobblemon.form.vikavolt-totem.desc2"
            ],
            "height": 26,
            "weight": 1475
        }
    ],
    "baseExperienceYield": 250,
    "experienceGroup": "mediumfast",
    "eggCycles": 15,
    "eggGroups": [
        "bug"
    ],
    "moves": [
        "0:thunderbolt",
        "1:visegrip",
        "1:stringshot",
        "1:thunderbolt",
        "1:dig",
        "1:mudslap",
        "1:crunch",
        "1:charge",
        "1:irondefense",
        "1:xscissor",
        "1:discharge",
        "1:bugbite",
        "15:bite",
        "23:spark",
        "29:stickyweb",
        "36:bugbuzz",
        "43:guillotine",
        "50:fly",
        "57:agility",
        "64:zapcannon",
        "tm:acrobatics",
        "tm:agility",
        "tm:airslash",
        "tm:attract",
        "tm:bugbuzz",
        "tm:chargebeam",
        "tm:confide",
        "tm:crunch",
        "tm:dig",
        "tm:doubleteam",
        "tm:eerieimpulse",
        "tm:electroball",
        "tm:electroweb",
        "tm:endure",
        "tm:energyball",
        "tm:facade",
        "tm:flashcannon",
        "tm:fly",
        "tm:frustration",
        "tm:gigaimpact",
        "tm:hiddenpower",
        "tm:hyperbeam",
        "tm:irondefense",
        "tm:lightscreen",
        "tm:mudshot",
        "tm:poisonjab",
        "tm:protect",
        "tm:raindance",
        "tm:rest",
        "tm:return",
        "tm:roost",
        "tm:round",
        "tm:screech",
        "tm:skydrop",
        "tm:sleeptalk",
        "tm:snore",
        "tm:solarbeam",
        "tm:substitute",
        "tm:swagger",
        "tm:thunder",
        "tm:thunderbolt",
        "tm:thunderwave",
        "tm:toxic",
        "tm:voltswitch",
        "tm:wildcharge",
        "tm:xscissor",
        "tutor:dualwingbeat",
        "tutor:laserfocus",
        "tutor:magnetrise",
        "tutor:risingvoltage",
        "tutor:shockwave",
        "tutor:signalbeam",
        "tutor:skittersmack"
    ],
    "labels": [
        "gen7"
    ],
    "pokedex": [
        "cobblemon.species.vikavolt.desc1",
        "cobblemon.species.vikavolt.desc2"
    ],
    "preEvolution": "charjabug",
    "evolutions": [],
    "baseScale": 1.0,
    "hitbox": {
        "width": 1.0,
        "height": 1.0,
        "fixed": false
    },
    "baseFriendship": 50,
    "evYield": {
        "special_attack": 3
    },
    "height": 15,
    "weight": 450
}