{
    "name": "clobbopus",
    "nationalPokedexNumber": 852,
    "primaryType": "fighting",
    "abilities": [
        "limber",
        "h:technician"
    ],
    "baseStats": {
        "hp": 50,
        "attack": 68,
        "defence": 60,
        "special_attack": 50,
        "special_defence": 50,
        "speed": 32
    },
    "catchRate": 180,
    "maleRatio": 0.5,
    "shoulderMountable": false,
    "forms": [],
    "baseExperienceYield": 62,
    "experienceGroup": "mediumslow",
    "eggCycles": 25,
    "eggGroups": [
        "water_1",
        "human_like"
    ],
    "moves": [
        "1:leer",
        "1:rocksmash",
        "5:feint",
        "10:bind",
        "15:detect",
        "20:brickbreak",
        "25:bulkup",
        "30:submission",
        "35:taunt",
        "40:reversal",
        "45:superpower",
        "egg:circlethrow",
        "egg:painsplit",
        "egg:poweruppunch",
        "egg:seismictoss",
        "egg:soak",
        "egg:suckerpunch",
        "tm:attract",
        "tm:bodyslam",
        "tm:brickbreak",
        "tm:brine",
        "tm:bulkup",
        "tm:closecombat",
        "tm:dive",
        "tm:endure",
        "tm:facade",
        "tm:focusblast",
        "tm:icepunch",
        "tm:liquidation",
        "tm:megapunch",
        "tm:muddywater",
        "tm:mudshot",
        "tm:payback",
        "tm:protect",
        "tm:rest",
        "tm:retaliate",
        "tm:revenge",
        "tm:reversal",
        "tm:round",
        "tm:sleeptalk",
        "tm:snore",
        "tm:substitute",
        "tm:superpower",
        "tm:taunt",
        "tm:waterfall",
        "tm:workup",
        "tutor:coaching"
    ],
    "labels": [
        "gen8"
    ],
    "pokedex": [
        "cobblemon.species.clobbopus.desc1",
        "cobblemon.species.clobbopus.desc2"
    ],
    "evolutions": [
        {
            "id": "clobbopus_grapploct",
            "variant": "level_up",
            "result": "grapploct",
            "consumeHeldItem": false,
            "learnableMoves": [],
            "requirements": [
                {
                    "variant": "has_move",
                    "move": "taunt"
                }
            ]
        }
    ],
    "baseScale": 1.0,
    "hitbox": {
        "width": 1.0,
        "height": 1.0,
        "fixed": false
    },
    "baseFriendship": 50,
    "evYield": {
        "attack": 1
    },
    "height": 6,
    "weight": 40
}