{
    "name": "glastrier",
    "nationalPokedexNumber": 896,
    "primaryType": "ice",
    "abilities": [
        "chillingneigh"
    ],
    "baseStats": {
        "hp": 100,
        "attack": 145,
        "defence": 130,
        "special_attack": 65,
        "special_defence": 110,
        "speed": 30
    },
    "catchRate": 3,
    "maleRatio": -1,
    "shoulderMountable": false,
    "forms": [],
    "baseExperienceYield": 290,
    "experienceGroup": "slow",
    "eggCycles": 120,
    "eggGroups": [
        "undiscovered"
    ],
    "moves": [
        "1:tackle",
        "1:tailwhip",
        "6:doublekick",
        "12:avalanche",
        "18:stomp",
        "24:torment",
        "30:mist",
        "36:iciclecrash",
        "42:takedown",
        "48:irondefense",
        "54:thrash",
        "60:taunt",
        "66:doubleedge",
        "72:swordsdance",
        "tm:assurance",
        "tm:avalanche",
        "tm:blizzard",
        "tm:bodypress",
        "tm:bodyslam",
        "tm:bulldoze",
        "tm:closecombat",
        "tm:crunch",
        "tm:endure",
        "tm:facade",
        "tm:gigaimpact",
        "tm:hail",
        "tm:heavyslam",
        "tm:highhorsepower",
        "tm:hyperbeam",
        "tm:icebeam",
        "tm:iciclespear",
        "tm:icywind",
        "tm:irondefense",
        "tm:megahorn",
        "tm:mudshot",
        "tm:outrage",
        "tm:payback",
        "tm:protect",
        "tm:rest",
        "tm:round",
        "tm:scaryface",
        "tm:sleeptalk",
        "tm:smartstrike",
        "tm:snarl",
        "tm:snore",
        "tm:stompingtantrum",
        "tm:substitute",
        "tm:superpower",
        "tm:swordsdance",
        "tm:taunt",
        "tm:throatchop",
        "tm:uproar",
        "tutor:lashout"
    ],
    "labels": [
        "gen8",
        "legendary"
    ],
    "pokedex": [
        "cobblemon.species.glastrier.desc1",
        "cobblemon.species.glastrier.desc2"
    ],
    "evolutions": [],
    "baseScale": 1.0,
    "hitbox": {
        "width": 1.0,
        "height": 1.0,
        "fixed": false
    },
    "baseFriendship": 35,
    "evYield": {
        "attack": 3
    },
    "height": 22,
    "weight": 8000
}