{
    "name": "grapploct",
    "nationalPokedexNumber": 853,
    "primaryType": "fighting",
    "abilities": [
        "limber",
        "h:technician"
    ],
    "baseStats": {
        "hp": 80,
        "attack": 118,
        "defence": 90,
        "special_attack": 70,
        "special_defence": 80,
        "speed": 42
    },
    "catchRate": 45,
    "maleRatio": 0.5,
    "shoulderMountable": false,
    "forms": [],
    "baseExperienceYield": 168,
    "experienceGroup": "mediumslow",
    "eggCycles": 25,
    "eggGroups": [
        "water_1",
        "human_like"
    ],
    "moves": [
        "0:octolock",
        "1:bind",
        "1:leer",
        "1:octazooka",
        "1:rocksmash",
        "1:feint",
        "1:octolock",
        "15:detect",
        "20:brickbreak",
        "25:bulkup",
        "30:submission",
        "35:taunt",
        "40:reversal",
        "45:superpower",
        "50:topsyturvy",
        "tm:attract",
        "tm:bodyslam",
        "tm:brickbreak",
        "tm:brine",
        "tm:brutalswing",
        "tm:bulkup",
        "tm:closecombat",
        "tm:dig",
        "tm:dive",
        "tm:drainpunch",
        "tm:endure",
        "tm:facade",
        "tm:focusblast",
        "tm:gigaimpact",
        "tm:hydropump",
        "tm:hyperbeam",
        "tm:icepunch",
        "tm:liquidation",
        "tm:megapunch",
        "tm:muddywater",
        "tm:mudshot",
        "tm:payback",
        "tm:protect",
        "tm:rest",
        "tm:retaliate",
        "tm:revenge",
        "tm:reversal",
        "tm:round",
        "tm:scaryface",
        "tm:sleeptalk",
        "tm:snore",
        "tm:stompingtantrum",
        "tm:substitute",
        "tm:superpower",
        "tm:surf",
        "tm:taunt",
        "tm:waterfall",
        "tm:whirlpool",
        "tm:workup",
        "tutor:coaching",
        "tutor:skittersmack"
    ],
    "labels": [
        "gen8"
    ],
    "pokedex": [
        "cobblemon.species.grapploct.desc1",
        "cobblemon.species.grapploct.desc2"
    ],
    "preEvolution": "clobbopus",
    "evolutions": [],
    "baseScale": 1.0,
    "hitbox": {
        "width": 1.0,
        "height": 1.0,
        "fixed": false
    },
    "baseFriendship": 50,
    "evYield": {
        "attack": 2
    },
    "height": 16,
    "weight": 390
}