{
    "name": "hattrem",
    "nationalPokedexNumber": 857,
    "primaryType": "psychic",
    "abilities": [
        "healer",
        "anticipation",
        "h:magicbounce"
    ],
    "baseStats": {
        "hp": 57,
        "attack": 40,
        "defence": 65,
        "special_attack": 86,
        "special_defence": 73,
        "speed": 49
    },
    "catchRate": 120,
    "maleRatio": 0.0,
    "shoulderMountable": false,
    "forms": [],
    "baseExperienceYield": 130,
    "experienceGroup": "slow",
    "eggCycles": 20,
    "eggGroups": [
        "fairy"
    ],
    "moves": [
        "0:brutalswing",
        "1:confusion",
        "1:disarmingvoice",
        "1:playnice",
        "1:brutalswing",
        "1:lifedew",
        "15:aromatherapy",
        "20:psybeam",
        "25:healpulse",
        "30:dazzlinggleam",
        "37:calmmind",
        "44:psychic",
        "51:healingwish",
        "tm:attract",
        "tm:batonpass",
        "tm:brutalswing",
        "tm:calmmind",
        "tm:charm",
        "tm:darkpulse",
        "tm:dazzlinggleam",
        "tm:drainingkiss",
        "tm:endure",
        "tm:facade",
        "tm:gigadrain",
        "tm:helpinghand",
        "tm:imprison",
        "tm:lightscreen",
        "tm:magicalleaf",
        "tm:mysticalfire",
        "tm:playrough",
        "tm:protect",
        "tm:psychic",
        "tm:psyshock",
        "tm:rest",
        "tm:round",
        "tm:safeguard",
        "tm:skillswap",
        "tm:sleeptalk",
        "tm:snore",
        "tm:storedpower",
        "tm:substitute",
        "tm:thunderwave",
        "tutor:expandingforce"
    ],
    "labels": [
        "gen8"
    ],
    "pokedex": [
        "cobblemon.species.hattrem.desc1",
        "cobblemon.species.hattrem.desc2"
    ],
    "preEvolution": "hatenna",
    "evolutions": [
        {
            "id": "hattrem_hatterene",
            "variant": "level_up",
            "result": "hatterene",
            "consumeHeldItem": false,
            "learnableMoves": [],
            "requirements": [
                {
                    "variant": "level",
                    "minLevel": 42
                }
            ]
        }
    ],
    "baseScale": 1.0,
    "hitbox": {
        "width": 1.0,
        "height": 1.0,
        "fixed": false
    },
    "baseFriendship": 50,
    "evYield": {
        "special_attack": 2
    },
    "height": 6,
    "weight": 48
}