{
    "name": "hatterene",
    "nationalPokedexNumber": 858,
    "primaryType": "psychic",
    "secondaryType": "fairy",
    "abilities": [
        "healer",
        "anticipation",
        "h:magicbounce"
    ],
    "baseStats": {
        "hp": 57,
        "attack": 90,
        "defence": 95,
        "special_attack": 136,
        "special_defence": 103,
        "speed": 29
    },
    "catchRate": 45,
    "maleRatio": 0.0,
    "shoulderMountable": false,
    "forms": [
        {
            "name": "normal"
        },
        {
            "name": "gmax",
            "moves": [],
            "labels": [
                "gen8",
                "gmax"
            ],
            "pokedex": [
                "cobblemon.form.hatterene-gmax.desc1",
                "cobblemon.form.hatterene-gmax.desc2"
            ],
            "height": 260,
            "weight": 10000
        }
    ],
    "baseExperienceYield": 255,
    "experienceGroup": "slow",
    "eggCycles": 20,
    "eggGroups": [
        "fairy"
    ],
    "moves": [
        "0:psychocut",
        "1:confusion",
        "1:psychocut",
        "1:disarmingvoice",
        "1:playnice",
        "1:brutalswing",
        "1:lifedew",
        "15:aromatherapy",
        "20:psybeam",
        "25:healpulse",
        "30:dazzlinggleam",
        "37:calmmind",
        "46:psychic",
        "55:healingwish",
        "64:magicpowder",
        "tm:attract",
        "tm:batonpass",
        "tm:brutalswing",
        "tm:calmmind",
        "tm:charm",
        "tm:darkpulse",
        "tm:dazzlinggleam",
        "tm:drainingkiss",
        "tm:endure",
        "tm:facade",
        "tm:futuresight",
        "tm:gigadrain",
        "tm:gigaimpact",
        "tm:guardswap",
        "tm:helpinghand",
        "tm:hyperbeam",
        "tm:imprison",
        "tm:lightscreen",
        "tm:magicalleaf",
        "tm:magicroom",
        "tm:mysticalfire",
        "tm:playrough",
        "tm:powerswap",
        "tm:powerwhip",
        "tm:protect",
        "tm:psychic",
        "tm:psychocut",
        "tm:psyshock",
        "tm:rest",
        "tm:round",
        "tm:safeguard",
        "tm:shadowball",
        "tm:shadowclaw",
        "tm:skillswap",
        "tm:sleeptalk",
        "tm:snore",
        "tm:storedpower",
        "tm:substitute",
        "tm:swordsdance",
        "tm:thunderwave",
        "tm:trickroom",
        "tm:wonderroom",
        "tutor:expandingforce",
        "tutor:mistyexplosion"
    ],
    "labels": [
        "gen8"
    ],
    "pokedex": [
        "cobblemon.species.hatterene.desc1",
        "cobblemon.species.hatterene.desc2"
    ],
    "preEvolution": "hattrem",
    "evolutions": [],
    "baseScale": 1.0,
    "hitbox": {
        "width": 1.0,
        "height": 1.0,
        "fixed": false
    },
    "baseFriendship": 50,
    "evYield": {
        "special_attack": 3
    },
    "height": 21,
    "weight": 51
}