{
    "name": "rillaboom",
    "nationalPokedexNumber": 812,
    "primaryType": "grass",
    "abilities": [
        "overgrow",
        "h:grassysurge"
    ],
    "baseStats": {
        "hp": 100,
        "attack": 125,
        "defence": 90,
        "special_attack": 60,
        "special_defence": 70,
        "speed": 85
    },
    "catchRate": 45,
    "maleRatio": 0.875,
    "shoulderMountable": false,
    "forms": [
        {
            "name": "normal"
        },
        {
            "name": "gmax",
            "moves": [],
            "labels": [
                "gen8",
                "gmax"
            ],
            "pokedex": [
                "cobblemon.form.rillaboom-gmax.desc1",
                "cobblemon.form.rillaboom-gmax.desc2"
            ],
            "height": 280,
            "weight": 10000
        }
    ],
    "baseExperienceYield": 265,
    "experienceGroup": "mediumslow",
    "eggCycles": 20,
    "eggGroups": [
        "field",
        "grass"
    ],
    "moves": [
        "0:drumbeating",
        "1:scratch",
        "1:growl",
        "1:taunt",
        "1:doublehit",
        "1:nobleroar",
        "1:grassyterrain",
        "1:drumbeating",
        "1:branchpoke",
        "12:razorleaf",
        "19:screech",
        "24:knockoff",
        "30:slam",
        "38:uproar",
        "46:woodhammer",
        "54:endeavor",
        "62:boomburst",
        "tm:acrobatics",
        "tm:assurance",
        "tm:attract",
        "tm:bodypress",
        "tm:bodyslam",
        "tm:brickbreak",
        "tm:brutalswing",
        "tm:bulkup",
        "tm:bulldoze",
        "tm:bulletseed",
        "tm:darkestlariat",
        "tm:drainpunch",
        "tm:earthpower",
        "tm:earthquake",
        "tm:endure",
        "tm:energyball",
        "tm:facade",
        "tm:falseswipe",
        "tm:fling",
        "tm:focusblast",
        "tm:focusenergy",
        "tm:gigadrain",
        "tm:gigaimpact",
        "tm:grassknot",
        "tm:grassyterrain",
        "tm:highhorsepower",
        "tm:hyperbeam",
        "tm:hypervoice",
        "tm:leafstorm",
        "tm:lowkick",
        "tm:magicalleaf",
        "tm:megakick",
        "tm:megapunch",
        "tm:mudshot",
        "tm:protect",
        "tm:rest",
        "tm:round",
        "tm:scaryface",
        "tm:screech",
        "tm:sleeptalk",
        "tm:snarl",
        "tm:snore",
        "tm:solarbeam",
        "tm:solarblade",
        "tm:stompingtantrum",
        "tm:substitute",
        "tm:sunnyday",
        "tm:superpower",
        "tm:swift",
        "tm:swordsdance",
        "tm:taunt",
        "tm:uproar",
        "tm:uturn",
        "tm:workup",
        "tutor:frenzyplant",
        "tutor:grasspledge",
        "tutor:grassyglide"
    ],
    "labels": [
        "gen8"
    ],
    "pokedex": [
        "cobblemon.species.rillaboom.desc1",
        "cobblemon.species.rillaboom.desc2"
    ],
    "preEvolution": "thwackey",
    "evolutions": [],
    "baseScale": 1.0,
    "hitbox": {
        "width": 1.0,
        "height": 1.0,
        "fixed": false
    },
    "baseFriendship": 50,
    "evYield": {
        "attack": 3
    },
    "height": 21,
    "weight": 900
}