{
    "name": "thievul",
    "nationalPokedexNumber": 828,
    "primaryType": "dark",
    "abilities": [
        "runaway",
        "unburden",
        "h:stakeout"
    ],
    "baseStats": {
        "hp": 70,
        "attack": 58,
        "defence": 58,
        "special_attack": 87,
        "special_defence": 92,
        "speed": 90
    },
    "catchRate": 127,
    "maleRatio": 0.5,
    "shoulderMountable": false,
    "forms": [],
    "baseExperienceYield": 159,
    "experienceGroup": "fast",
    "eggCycles": 15,
    "eggGroups": [
        "field"
    ],
    "moves": [
        "0:thief",
        "1:tailwhip",
        "1:quickattack",
        "1:thief",
        "1:beatup",
        "1:honeclaws",
        "12:snarl",
        "16:assurance",
        "22:nastyplot",
        "28:suckerpunch",
        "34:nightslash",
        "40:tailslap",
        "46:foulplay",
        "52:partingshot",
        "tm:acrobatics",
        "tm:agility",
        "tm:assurance",
        "tm:attract",
        "tm:batonpass",
        "tm:beatup",
        "tm:crunch",
        "tm:darkpulse",
        "tm:dig",
        "tm:endure",
        "tm:facade",
        "tm:faketears",
        "tm:firefang",
        "tm:foulplay",
        "tm:gigaimpact",
        "tm:grassknot",
        "tm:hyperbeam",
        "tm:icefang",
        "tm:mudshot",
        "tm:nastyplot",
        "tm:playrough",
        "tm:protect",
        "tm:psychic",
        "tm:rest",
        "tm:round",
        "tm:screech",
        "tm:shadowball",
        "tm:shadowclaw",
        "tm:sleeptalk",
        "tm:snarl",
        "tm:snore",
        "tm:substitute",
        "tm:swift",
        "tm:tailslap",
        "tm:taunt",
        "tm:thief",
        "tm:thunderfang",
        "tm:uturn",
        "tutor:burningjealousy",
        "tutor:lashout"
    ],
    "labels": [
        "gen8"
    ],
    "pokedex": [
        "cobblemon.species.thievul.desc1",
        "cobblemon.species.thievul.desc2"
    ],
    "preEvolution": "nickit",
    "evolutions": [],
    "baseScale": 1.0,
    "hitbox": {
        "width": 1.0,
        "height": 1.0,
        "fixed": false
    },
    "baseFriendship": 50,
    "evYield": {
        "special_defence": 2
    },
    "height": 12,
    "weight": 199
}