{
    "name": "urshifu",
    "nationalPokedexNumber": 892,
    "primaryType": "fighting",
    "secondaryType": "dark",
    "abilities": [
        "unseenfist"
    ],
    "baseStats": {
        "hp": 100,
        "attack": 130,
        "defence": 100,
        "special_attack": 63,
        "special_defence": 60,
        "speed": 97
    },
    "catchRate": 3,
    "maleRatio": 0.875,
    "shoulderMountable": false,
    "forms": [
        {
            "name": "normal"
        },
        {
            "name": "rapid-strike",
            "secondaryType": "water",
            "moves": [
                "0:surgingstrikes",
                "1:leer",
                "1:focusenergy",
                "1:endure",
                "1:rocksmash",
                "1:aquajet",
                "1:surgingstrikes",
                "12:aerialace",
                "16:scaryface",
                "20:headbutt",
                "24:brickbreak",
                "28:detect",
                "32:bulkup",
                "36:ironhead",
                "40:dynamicpunch",
                "44:counter",
                "48:closecombat",
                "52:focuspunch",
                "tm:acrobatics",
                "tm:attract",
                "tm:aurasphere",
                "tm:bodypress",
                "tm:bodyslam",
                "tm:brickbreak",
                "tm:brine",
                "tm:bulkup",
                "tm:closecombat",
                "tm:dig",
                "tm:dive",
                "tm:drainpunch",
                "tm:endure",
                "tm:facade",
                "tm:falseswipe",
                "tm:firepunch",
                "tm:focusblast",
                "tm:focusenergy",
                "tm:gigaimpact",
                "tm:helpinghand",
                "tm:icepunch",
                "tm:irondefense",
                "tm:ironhead",
                "tm:liquidation",
                "tm:lowkick",
                "tm:lowsweep",
                "tm:megakick",
                "tm:megapunch",
                "tm:poisonjab",
                "tm:protect",
                "tm:raindance",
                "tm:rest",
                "tm:retaliate",
                "tm:revenge",
                "tm:reversal",
                "tm:rockslide",
                "tm:rocktomb",
                "tm:round",
                "tm:scald",
                "tm:scaryface",
                "tm:sleeptalk",
                "tm:snore",
                "tm:stoneedge",
                "tm:substitute",
                "tm:superpower",
                "tm:swift",
                "tm:taunt",
                "tm:thunderpunch",
                "tm:uturn",
                "tm:waterfall",
                "tm:whirlpool",
                "tm:workup",
                "tm:zenheadbutt",
                "tutor:coaching"
            ],
            "pokedex": [
                "cobblemon.form.urshifu-rapid-strike.desc1",
                "cobblemon.form.urshifu-rapid-strike.desc2"
            ]
        },
        {
            "name": "gmax",
            "secondaryType": "water",
            "moves": [],
            "labels": [
                "gen8",
                "gmax",
                "legendary"
            ],
            "pokedex": [
                "cobblemon.form.urshifu-gmax.desc1",
                "cobblemon.form.urshifu-gmax.desc2"
            ],
            "height": 260,
            "weight": 10000
        }
    ],
    "baseExperienceYield": 275,
    "experienceGroup": "slow",
    "eggCycles": 120,
    "eggGroups": [
        "undiscovered"
    ],
    "moves": [
        "0:wickedblow",
        "1:leer",
        "1:focusenergy",
        "1:endure",
        "1:rocksmash",
        "1:suckerpunch",
        "1:wickedblow",
        "12:aerialace",
        "16:scaryface",
        "20:headbutt",
        "24:brickbreak",
        "28:detect",
        "32:bulkup",
        "36:ironhead",
        "40:dynamicpunch",
        "44:counter",
        "48:closecombat",
        "52:focuspunch",
        "tm:acrobatics",
        "tm:assurance",
        "tm:attract",
        "tm:aurasphere",
        "tm:beatup",
        "tm:bodypress",
        "tm:bodyslam",
        "tm:brickbreak",
        "tm:bulkup",
        "tm:closecombat",
        "tm:crunch",
        "tm:darkestlariat",
        "tm:darkpulse",
        "tm:dig",
        "tm:drainpunch",
        "tm:endure",
        "tm:facade",
        "tm:falseswipe",
        "tm:firepunch",
        "tm:fling",
        "tm:focusblast",
        "tm:focusenergy",
        "tm:foulplay",
        "tm:gigaimpact",
        "tm:helpinghand",
        "tm:icepunch",
        "tm:irondefense",
        "tm:ironhead",
        "tm:lowkick",
        "tm:lowsweep",
        "tm:megakick",
        "tm:megapunch",
        "tm:payback",
        "tm:poisonjab",
        "tm:protect",
        "tm:rest",
        "tm:retaliate",
        "tm:revenge",
        "tm:reversal",
        "tm:rockslide",
        "tm:rocktomb",
        "tm:round",
        "tm:scaryface",
        "tm:sleeptalk",
        "tm:snarl",
        "tm:snore",
        "tm:stoneedge",
        "tm:substitute",
        "tm:superpower",
        "tm:swift",
        "tm:taunt",
        "tm:throatchop",
        "tm:thunderpunch",
        "tm:uturn",
        "tm:workup",
        "tm:zenheadbutt",
        "tutor:coaching",
        "tutor:lashout"
    ],
    "labels": [
        "gen8",
        "legendary"
    ],
    "pokedex": [
        "cobblemon.species.urshifu.desc1",
        "cobblemon.species.urshifu.desc2"
    ],
    "preEvolution": "kubfu",
    "evolutions": [],
    "baseScale": 1.0,
    "hitbox": {
        "width": 1.0,
        "height": 1.0,
        "fixed": false
    },
    "baseFriendship": 50,
    "evYield": {
        "attack": 3
    },
    "height": 19,
    "weight": 1050
}