{
	"format_version": "1.8.0",
	"animations": {
		"animation.nidoqueen.ground_idle": {
			"loop": true,
			"bones": {
				"head": {
					"rotation": [2.5, 0, 0]
				},
				"arm_right": {
					"rotation": [10, 0, 0]
				},
				"arm_right2": {
					"rotation": [0, 0, -60]
				},
				"hand_right": {
					"rotation": [0, -60, 0]
				},
				"arm_left": {
					"rotation": [10, 0, 0]
				},
				"arm_left2": {
					"rotation": [0, 0, 60]
				},
				"hand_left": {
					"rotation": [0, 60, 0]
				},
				"tail": {
					"rotation": [-15, 0, 0]
				},
				"tail2": {
					"rotation": [5, 0, 0]
				},
				"tail3": {
					"rotation": [5, 0, 0]
				}
			}
		}
	}
}