{
	"format_version": "1.8.0",
	"animations": {
		"animation.maractus.ground_idle": {
			"loop": true,
			"bones": {
				"arm_right1": {
					"rotation": [0, 0, -15]
				},
				"arm_left1": {
					"rotation": [0, 0, 15]
				}
			}
		}
	}
}