{
  "replace": false,
  "values": [
    "minecraft:dark_forest",
    {
      "id": "#byg:is_spooky",
      "required": false
    },
	{
      "id": "byg:ebony_woods",
      "required": false
    },
	{
      "id": "terralith:moonlight_grove",
      "required": false
    },
	{
      "id": "terralith:moonlight_valley",
      "required": false
    }
  ]
}
