{
	"format_version": "1.8.0",
	"animations": {
		"animation.hitmonchan.ground_idle": {
			"animation_length": 1.5,
			"bones": {
				"leftarm": {
					"rotation": [-10, 10, -50]
				},
				"leftforearm": {
					"rotation": [0, 90, 0]
				},
				"rightarm": {
					"rotation": [-10, -10, 50]
				},
				"rightforearm": {
					"rotation": [0, -90, 0]
				},
				"lefthand": {
					"rotation": [15, 0, 0]
				},
				"righthand": {
					"rotation": [15, 0, 0]
				}
			}
		}
	}
}