{
  "poser": "cobblemon:articuno",
  "model": "cobblemon:bedrock/models/0144_articuno/articuno.geo.json",
  "texture": "cobblemon:textures/pokemon/0144_articuno/articuno.png",
  "variations": [
    {
      "aspects": ["shiny"],
      "texture": "cobblemon:textures/pokemon/0144_articuno/articuno_shiny.png"
    }
  ]
}