{
  "poser": "cobblemon:blastoise",
  "model": "cobblemon:bedrock/models/0009_blastoise/blastoise.geo.json",
  "texture": "cobblemon:textures/pokemon/0009_blastoise/blastoise.png",
  "variations": [
    {
      "aspects": ["shiny"],
      "texture": "cobblemon:textures/pokemon/0009_blastoise/blastoise_shiny.png"
    },
    {
      "aspects": ["sunglasses"],
      "texture": "cobblemon:textures/pokemon/0009_blastoise/blastoise_sunglasses.png"
    },
    {
      "aspects": ["shiny", "sunglasses"],
      "texture": "cobblemon:textures/pokemon/0009_blastoise/blastoise_shiny_sunglasses.png"
    }
  ]
}
