{
  "poser": "cobblemon:chansey",
  "model": "cobblemon:bedrock/models/0113_chansey/chansey.geo.json",
  "texture": "cobblemon:textures/pokemon/0113_chansey/chansey.png",
  "variations": [
    {
      "aspects": ["shiny"],
      "texture": "cobblemon:textures/pokemon/0113_chansey/chansey_shiny.png"
    }
  ]
}