{
  "poser": "cobblemon:clefable",
  "model": "cobblemon:bedrock/models/0036_clefable/clefable.geo.json",
  "texture": "cobblemon:textures/pokemon/0036_clefable/clefable.png",
  "variations": [
    {
      "aspects": ["shiny"],
      "texture": "cobblemon:textures/pokemon/0036_clefable/clefable_shiny.png"
    }
  ]
}