{
  "poser": "cobblemon:dartrix",
  "model": "cobblemon:bedrock/models/0723_dartrix/dartrix.geo.json",
  "texture": "cobblemon:textures/pokemon/0723_dartrix/dartrix.png",
  "variations": [
    {
      "aspects": ["shiny"],
      "texture": "cobblemon:textures/pokemon/0723_dartrix/dartrix_shiny.png"
    }
  ]
}