{
  "poser": "cobblemon:ditto",
  "model": "cobblemon:bedrock/models/0132_ditto/ditto.geo.json",
  "texture": "cobblemon:textures/pokemon/0132_ditto/ditto.png",
  "variations": [
    {
      "aspects": ["shiny"],
      "texture": "cobblemon:textures/pokemon/0132_ditto/ditto_shiny.png"
    }
  ]
}