{
  "poser": "cobblemon:doduo",
  "model": "cobblemon:bedrock/models/0084_doduo/doduo.geo.json",
  "texture": "cobblemon:textures/pokemon/0084_doduo/doduo_m.png",
  "variations": [
    {
      "aspects": ["female"],
      "texture": "cobblemon:textures/pokemon/0084_doduo/doduo_f.png"
    }
  ]
}