{
  "poser": "cobblemon:dragonair",
  "model": "cobblemon:bedrock/models/0148_dragonair/dragonair.geo.json",
  "texture": "cobblemon:textures/pokemon/0148_dragonair/dragonair.png",
  "variations": [
    {
      "aspects": ["shiny"],
      "texture": "cobblemon:textures/pokemon/0148_dragonair/dragonair_shiny.png"
    }
  ]
}