{
  "poser": "cobblemon:dragonite",
  "model": "cobblemon:bedrock/models/0149_dragonite/dragonite.geo.json",
  "texture": "cobblemon:textures/pokemon/0149_dragonite/dragonite.png",
  "variations": [
    {
      "aspects": ["shiny"],
      "texture": "cobblemon:textures/pokemon/0149_dragonite/dragonite_shiny.png"
    }
  ]
}