{
  "poser": "cobblemon:eevee",
  "model": "cobblemon:bedrock/models/0133_eevee/eevee_male.geo.json",
  "texture": "cobblemon:textures/pokemon/0133_eevee/eevee.png",
  "variations": [
    {
      "aspects": ["shiny"],
      "texture": "cobblemon:textures/pokemon/0133_eevee/eevee_shiny.png"
    },
    {
      "aspects": ["female"],
      "model": "cobblemon:bedrock/models/0133_eevee/eevee_female.geo.json"
    }
  ]
}