{
  "poser": "cobblemon:electivire",
  "model": "cobblemon:bedrock/models/0466_electivire/electivire.geo.json",
  "texture": "cobblemon:textures/pokemon/0466_electivire/electivire.png",
  "variations": [
    {
      "aspects": ["shiny"],
      "texture": "cobblemon:textures/pokemon/0466_electivire/electivire_shiny.png"
    }
  ]
}