{
  "poser": "cobblemon:emolga",
  "model": "cobblemon:bedrock/models/0587_emolga/emolga.geo.json",
  "texture": "cobblemon:textures/pokemon/0587_emolga/emolga.png",
  "variations": [
    {
      "aspects": ["shiny"],
      "texture": "cobblemon:textures/pokemon/0587_emolga/emolga_shiny.png"
    }
  ]
}