{
  "poser": "cobblemon:gastly",
  "model": "cobblemon:bedrock/models/0092_gastly/gastly.geo.json",
  "texture": "cobblemon:textures/pokemon/0092_gastly/gastly.png",
  "variations": [
    {
      "aspects": ["shiny"],
      "texture": "cobblemon:textures/pokemon/0092_gastly/gastly_shiny.png"
    }
  ]
}