{
  "poser": "cobblemon:glaceon",
  "model": "cobblemon:bedrock/models/0471_glaceon/glaceon.geo.json",
  "texture": "cobblemon:textures/pokemon/0471_glaceon/glaceon.png",
  "variations": [
    {
      "aspects": ["shiny"],
      "texture": "cobblemon:textures/pokemon/0471_glaceon/glaceon_shiny.png"
    }
  ]
}