{
  "poser": "cobblemon:gloom",
  "model": "cobblemon:bedrock/models/0044_gloom/gloom_male.geo.json",
  "texture": "cobblemon:textures/pokemon/0044_gloom/gloom.png",
  "variations": [
    {
      "aspects": ["shiny"],
      "texture": "cobblemon:textures/pokemon/0044_gloom/gloom_shiny.png"
    },
    {
      "aspects": ["female"],
      "model": "cobblemon:bedrock/models/0044_gloom/gloom_female.geo.json"
    },
    {
      "aspects": ["valencian"],
      "texture": "cobblemon:textures/pokemon/0044_gloom/gloom_valencian.png"
    },
    {
      "aspects": ["valencian", "shiny"],
      "texture": "cobblemon:textures/pokemon/0044_gloom/gloom_valencian_shiny.png"
    }
  ]
}