{
  "poser": "cobblemon:golem",
  "model": "cobblemon:bedrock/models/0076_golem/golem.geo.json",
  "texture": "cobblemon:textures/pokemon/0076_golem/golem.png",
  "variations": [
    {
      "aspects": ["shiny"],
      "texture": "cobblemon:textures/pokemon/0076_golem/golem_shiny.png"
    }
  ]
}