{
  "poser": "cobblemon:haunter",
  "model": "cobblemon:bedrock/models/0093_haunter/haunter.geo.json",
  "texture": "cobblemon:textures/pokemon/0093_haunter/haunter.png",
  "variations": [
    {
      "aspects": ["shiny"],
      "texture": "cobblemon:textures/pokemon/0093_haunter/haunter_shiny.png"
    }
  ]
}