{
  "poser": "cobblemon:horsea",
  "model": "cobblemon:bedrock/models/0116_horsea/horsea.geo.json",
  "texture": "cobblemon:textures/pokemon/0116_horsea/horsea.png",
  "variations": [
    {
      "aspects": ["shiny"],
      "texture": "cobblemon:textures/pokemon/0116_horsea/horsea_shiny.png"
    }
  ]
}