{
  "poser": "cobblemon:igglybuff",
  "model": "cobblemon:bedrock/models/0174_igglybuff/igglybuff.geo.json",
  "texture": "cobblemon:textures/pokemon/0174_igglybuff/igglybuff.png",
  "variations": [
    {
      "aspects": ["shiny"],
      "texture": "cobblemon:textures/pokemon/0174_igglybuff/igglybuff_shiny.png"
    }
  ]
}