{
  "poser": "cobblemon:incineroar",
  "model": "cobblemon:bedrock/models/0727_incineroar/incineroar.geo.json",
  "texture": "cobblemon:textures/pokemon/0727_incineroar/incineroar.png",
  "variations": [
    {
      "aspects": ["shiny"],
      "texture": "cobblemon:textures/pokemon/0727_incineroar/incineroar_shiny.png"
    }
  ]
}