{
  "poser": "cobblemon:jigglypuff",
  "model": "cobblemon:bedrock/models/0039_jigglypuff/jigglypuff.geo.json",
  "texture": "cobblemon:textures/pokemon/0039_jigglypuff/jigglypuff.png",
  "variations": [
    {
      "aspects": ["shiny"],
      "texture": "cobblemon:textures/pokemon/0039_jigglypuff/jigglypuff_shiny.png"
    }
  ]
}