{
  "poser": "cobblemon:leafeon",
  "model": "cobblemon:bedrock/models/0470_leafeon/leafeon.geo.json",
  "texture": "cobblemon:textures/pokemon/0470_leafeon/leafeon.png",
  "variations": [
    {
      "aspects": ["shiny"],
      "texture": "cobblemon:textures/pokemon/0470_leafeon/leafeon_shiny.png"
    }
  ]
}