{
  "poser": "cobblemon:lickilicky",
  "model": "cobblemon:bedrock/models/0463_lickilicky/lickilicky.geo.json",
  "texture": "cobblemon:textures/pokemon/0463_lickilicky/lickilicky.png",
  "variations": [
    {
      "aspects": ["shiny"],
      "texture": "cobblemon:textures/pokemon/0463_lickilicky/lickilicky_shiny.png"
    }
  ]
}