{
  "poser": "cobblemon:munchlax",
  "model": "cobblemon:bedrock/models/0446_munchlax/munchlax.geo.json",
  "texture": "cobblemon:textures/pokemon/0446_munchlax/munchlax.png",
  "variations": [
    {
      "aspects": ["shiny"],
      "texture": "cobblemon:textures/pokemon/0446_munchlax/munchlax_shiny.png"
    }
  ]
}