{
  "poser": "cobblemon:paras",
  "model": "cobblemon:bedrock/models/0046_paras/paras.geo.json",
  "texture": "cobblemon:textures/pokemon/0046_paras/paras.png",
  "variations": [
    {
      "aspects": ["shiny"],
      "texture": "cobblemon:textures/pokemon/0046_paras/paras_shiny.png"
    }
  ]
}