{
  "poser": "cobblemon:persian",
  "model": "cobblemon:bedrock/models/0053_persian/persian.geo.json",
  "texture": "cobblemon:textures/pokemon/0053_persian/persian.png",
  "variations": [
    {
      "aspects": ["shiny"],
      "texture": "cobblemon:textures/pokemon/0053_persian/persian_shiny.png"
    }
  ]
}