{
  "poser": "cobblemon:pidgey",
  "model": "cobblemon:bedrock/models/0016_pidgey/pidgey.geo.json",
  "texture": "cobblemon:textures/pokemon/0016_pidgey/pidgey.png",
  "variations": [
    {
      "aspects": ["shiny"],
      "texture": "cobblemon:textures/pokemon/0016_pidgey/pidgey_shiny.png"
    }
  ]
}