{
  "poser": "cobblemon:piplup",
  "model": "cobblemon:bedrock/models/0393_piplup/piplup.geo.json",
  "texture": "cobblemon:textures/pokemon/0393_piplup/piplup.png",
  "variations": [
    {
      "aspects": ["shiny"],
      "texture": "cobblemon:textures/pokemon/0393_piplup/piplup_shiny.png"
    }
  ]
}