{
  "poser": "cobblemon:poliwrath",
  "model": "cobblemon:bedrock/models/0062_poliwrath/poliwrath.geo.json",
  "texture": "cobblemon:textures/pokemon/0062_poliwrath/poliwrath.png",
  "variations": [
    {
      "aspects": ["shiny"],
      "texture": "cobblemon:textures/pokemon/0062_poliwrath/poliwrath_shiny.png"
    }
  ]
}