{
  "poser": "cobblemon:slowbro",
  "model": "cobblemon:bedrock/models/0080_slowbro/slowbro.geo.json",
  "texture": "cobblemon:textures/pokemon/0080_slowbro/slowbro.png",
  "variations": [
    {
      "aspects": ["shiny"],
      "texture": "cobblemon:textures/pokemon/0080_slowbro/slowbro_shiny.png"
    }
  ]
}