{
  "poser": "cobblemon:smoochum",
  "model": "cobblemon:bedrock/models/0238_smoochum/smoochum.geo.json",
  "texture": "cobblemon:textures/pokemon/0238_smoochum/smoochum.png",
  "variations": [
    {
      "aspects": ["shiny"],
      "texture": "cobblemon:textures/pokemon/0238_smoochum/smoochum_shiny.png"
    }
  ]
}