{
  "poser": "cobblemon:spearow",
  "model": "cobblemon:bedrock/models/0021_spearow/spearow.geo.json",
  "texture": "cobblemon:textures/pokemon/0021_spearow/spearow.png",
  "variations": [
    {
      "aspects": ["shiny"],
      "texture": "cobblemon:textures/pokemon/0021_spearow/spearow_shiny.png"
    }
  ]
}