{
  "poser": "cobblemon:steenee",
  "model": "cobblemon:bedrock/models/0762_steenee/steenee.geo.json",
  "texture": "cobblemon:textures/pokemon/0762_steenee/steenee.png",
  "variations": [
    {
      "aspects": ["shiny"],
      "texture": "cobblemon:textures/pokemon/0762_steenee/steenee_shiny.png"
    }
  ]
}