{
  "poser": "cobblemon:sylveon",
  "model": "cobblemon:bedrock/models/0700_sylveon/sylveon.geo.json",
  "texture": "cobblemon:textures/pokemon/0700_sylveon/sylveon.png",
  "variations": [
    {
      "aspects": ["shiny"],
      "texture": "cobblemon:textures/pokemon/0700_sylveon/sylveon_shiny.png"
    }
  ]
}