{
  "poser": "cobblemon:tangela",
  "model": "cobblemon:bedrock/models/0114_tangela/tangela.geo.json",
  "texture": "cobblemon:textures/pokemon/0114_tangela/tangela.png",
  "variations": [
    {
      "aspects": ["shiny"],
      "texture": "cobblemon:textures/pokemon/0114_tangela/tangela_shiny.png"
    }
  ]
}