{
  "poser": "cobblemon:tsareena",
  "model": "cobblemon:bedrock/models/0763_tsareena/tsareena.geo.json",
  "texture": "cobblemon:textures/pokemon/0763_tsareena/tsareena.png",
  "variations": [
    {
      "aspects": ["shiny"],
      "texture": "cobblemon:textures/pokemon/0763_tsareena/tsareena_shiny.png"
    }
  ]
}