{
  "poser": "cobblemon:weezing",
  "model": "cobblemon:bedrock/models/0110_weezing/weezing.geo.json",
  "texture": "cobblemon:textures/pokemon/0110_weezing/weezing.png",
  "variations": [
    {
      "aspects": ["shiny"],
      "texture": "cobblemon:textures/pokemon/0110_weezing/weezing_shiny.png"
    }
  ]
}