{
  "poser": "cobblemon:zapdos",
  "model": "cobblemon:bedrock/models/0145_zapdos/zapdos.geo.json",
  "texture": "cobblemon:textures/pokemon/0145_zapdos/zapdos.png",
  "variations": [
    {
      "aspects": ["shiny"],
      "texture": "cobblemon:textures/pokemon/0145_zapdos/zapdos_shiny.png"
    }
  ]
}