{
    "name": "beedrill",
    "nationalPokedexNumber": 15,
    "primaryType": "bug",
    "secondaryType": "poison",
    "abilities": [
        "swarm",
        "h:sniper"
    ],
    "baseStats": {
        "hp": 65,
        "attack": 90,
        "defence": 40,
        "special_attack": 45,
        "special_defence": 80,
        "speed": 75
    },
    "catchRate": 45,
    "maleRatio": 0.5,
    "shoulderMountable": false,
    "forms": [
        {
            "name": "normal"
        },
        {
            "name": "mega",
            "abilities": [
                "adaptability"
            ],
            "baseStats": {
                "hp": 65,
                "attack": 150,
                "defence": 40,
                "special_attack": 15,
                "special_defence": 80,
                "speed": 145
            },
            "baseExperienceYield": 223,
            "moves": [
                "0:twineedle",
                "1:twineedle",
                "1:peck",
                "13:rage",
                "16:furyattack",
                "17:pursuit",
                "19:focusenergy",
                "22:poisonjab",
                "23:venoshock",
                "25:agility",
                "26:assurance",
                "28:pinmissile",
                "29:toxicspikes",
                "31:outrage",
                "41:endeavor",
                "44:fellstinger",
                "tm:acrobatics",
                "tm:aerialace",
                "tm:attract",
                "tm:brickbreak",
                "tm:brutalswing",
                "tm:confide",
                "tm:cut",
                "tm:doubleteam",
                "tm:drillrun",
                "tm:facade",
                "tm:falseswipe",
                "tm:flash",
                "tm:frustration",
                "tm:gigaimpact",
                "tm:headbutt",
                "tm:hiddenpower",
                "tm:hyperbeam",
                "tm:infestation",
                "tm:megadrain",
                "tm:outrage",
                "tm:payback",
                "tm:poisonjab",
                "tm:protect",
                "tm:reflect",
                "tm:rest",
                "tm:return",
                "tm:rocksmash",
                "tm:roost",
                "tm:round",
                "tm:secretpower",
                "tm:sleeptalk",
                "tm:sludgebomb",
                "tm:solarbeam",
                "tm:strugglebug",
                "tm:substitute",
                "tm:sunnyday",
                "tm:swagger",
                "tm:swordsdance",
                "tm:thief",
                "tm:toxic",
                "tm:uturn",
                "tm:venoshock",
                "tm:xscissor",
                "tutor:bugbite",
                "tutor:defog",
                "tutor:electroweb",
                "tutor:endeavor",
                "tutor:gigadrain",
                "tutor:knockoff",
                "tutor:laserfocus",
                "tutor:snore",
                "tutor:tailwind",
                "tutor:throatchop"
            ],
            "labels": [
                "gen1",
                "mega_evolution"
            ],
            "pokedex": [
                "cobblemon.form.beedrill-mega.desc1",
                "cobblemon.form.beedrill-mega.desc2"
            ],
            "height": 14,
            "weight": 405
        }
    ],
    "baseExperienceYield": 178,
    "experienceGroup": "mediumfast",
    "eggCycles": 15,
    "eggGroups": [
        "bug"
    ],
    "behaviour": {
        "moving": {
            "swim": {
                "canWalkOnWater": true
            },
            "fly": {
                "canFly": true
            }
        }
    },
    "moves": [
        "0:twineedle",
        "1:twineedle",
        "1:peck",
        "13:rage",
        "16:furyattack",
        "17:pursuit",
        "19:focusenergy",
        "22:poisonjab",
        "23:venoshock",
        "25:agility",
        "26:assurance",
        "28:pinmissile",
        "29:toxicspikes",
        "31:outrage",
        "41:endeavor",
        "44:fellstinger",
        "tm:acrobatics",
        "tm:aerialace",
        "tm:attract",
        "tm:bide",
        "tm:brickbreak",
        "tm:brutalswing",
        "tm:captivate",
        "tm:confide",
        "tm:curse",
        "tm:cut",
        "tm:doubleteam",
        "tm:drillrun",
        "tm:endure",
        "tm:facade",
        "tm:falseswipe",
        "tm:flash",
        "tm:frustration",
        "tm:gigaimpact",
        "tm:headbutt",
        "tm:hiddenpower",
        "tm:hyperbeam",
        "tm:infestation",
        "tm:megadrain",
        "tm:naturalgift",
        "tm:outrage",
        "tm:payback",
        "tm:poisonjab",
        "tm:protect",
        "tm:reflect",
        "tm:rest",
        "tm:return",
        "tm:rocksmash",
        "tm:roost",
        "tm:round",
        "tm:secretpower",
        "tm:silverwind",
        "tm:skullbash",
        "tm:sleeptalk",
        "tm:sludgebomb",
        "tm:solarbeam",
        "tm:strugglebug",
        "tm:substitute",
        "tm:sunnyday",
        "tm:swagger",
        "tm:sweetscent",
        "tm:swordsdance",
        "tm:takedown",
        "tm:thief",
        "tm:toxic",
        "tm:uturn",
        "tm:venoshock",
        "tm:xscissor",
        "tutor:aircutter",
        "tutor:bugbite",
        "tutor:defog",
        "tutor:doubleedge",
        "tutor:electroweb",
        "tutor:endeavor",
        "tutor:furycutter",
        "tutor:gigadrain",
        "tutor:knockoff",
        "tutor:laserfocus",
        "tutor:mimic",
        "tutor:ominouswind",
        "tutor:snore",
        "tutor:stringshot",
        "tutor:swift",
        "tutor:tailwind",
        "tutor:throatchop"
    ],
    "labels": [
        "gen1"
    ],
    "pokedex": [
        "cobblemon.species.beedrill.desc1",
        "cobblemon.species.beedrill.desc2"
    ],
    "preEvolution": "kakuna",
    "evolutions": [],
    "baseScale": 0.8,
    "hitbox": {
        "width": 0.6,
        "height": 0.8,
        "fixed": false
    },
    "baseFriendship": 70,
    "evYield": {
        "attack": 2,
        "special_defence": 1
    },
    "height": 10,
    "weight": 295
}