{
    "name": "ditto",
    "nationalPokedexNumber": 132,
    "primaryType": "normal",
    "abilities": [
        "limber",
        "h:imposter"
    ],
    "baseStats": {
        "hp": 48,
        "attack": 48,
        "defence": 48,
        "special_attack": 48,
        "special_defence": 48,
        "speed": 48
    },
    "catchRate": 35,
    "maleRatio": -1,
    "shoulderMountable": false,
    "forms": [],
    "baseExperienceYield": 101,
    "experienceGroup": "mediumfast",
    "eggCycles": 20,
    "eggGroups": [
        "ditto"
    ],
    "moves": [
        "1:transform"
    ],
    "labels": [
        "gen1"
    ],
    "pokedex": [
        "cobblemon.species.ditto.desc1",
        "cobblemon.species.ditto.desc2"
    ],
    "evolutions": [],
    "baseScale": 1.1,
    "hitbox": {
        "width": 0.6,
        "height": 0.7,
        "fixed": false
    },
    "baseFriendship": 50,
    "evYield": {
        "hp": 1
    },
    "height": 3,
    "weight": 40
}