{
    "name": "dratini",
    "nationalPokedexNumber": 147,
    "primaryType": "dragon",
    "abilities": [
        "shedskin",
        "h:marvelscale"
    ],
    "baseStats": {
        "hp": 41,
        "attack": 64,
        "defence": 45,
        "special_attack": 50,
        "special_defence": 50,
        "speed": 50
    },
    "catchRate": 45,
    "maleRatio": 0.5,
    "shoulderMountable": false,
    "forms": [],
    "baseExperienceYield": 60,
    "experienceGroup": "slow",
    "eggCycles": 40,
    "eggGroups": [
        "water_1",
        "dragon"
    ],
    "behaviour": {
        "moving": {
            "swim": {
                "canSwimInWater": true,
                "canBreatheUnderwater": true
            }
        }
    },
    "drops": {
        "amount": "1",
        "entries": [
            {
                "item": "minecraft:dragon_breath",
                "percentage": 50
            }
        ]
    },
    "moves": [
        "1:wrap",
        "1:leer",
        "5:twister",
        "10:thunderwave",
        "14:dragonrage",
        "15:dragontail",
        "20:agility",
        "25:slam",
        "31:aquatail",
        "35:dragonrush",
        "40:safeguard",
        "45:raindance",
        "50:dragondance",
        "55:outrage",
        "60:hyperbeam",
        "egg:aquajet",
        "egg:dragonbreath",
        "egg:extremespeed",
        "egg:haze",
        "egg:mist",
        "egg:supersonic",
        "egg:waterpulse",
        "tm:agility",
        "tm:attract",
        "tm:bide",
        "tm:blizzard",
        "tm:bodyslam",
        "tm:breakingswipe",
        "tm:brutalswing",
        "tm:bubblebeam",
        "tm:captivate",
        "tm:confide",
        "tm:curse",
        "tm:detect",
        "tm:doubleteam",
        "tm:dragondance",
        "tm:dragonpulse",
        "tm:endure",
        "tm:facade",
        "tm:fireblast",
        "tm:firespin",
        "tm:flamethrower",
        "tm:frustration",
        "tm:gigaimpact",
        "tm:hail",
        "tm:headbutt",
        "tm:hiddenpower",
        "tm:hydropump",
        "tm:hyperbeam",
        "tm:icebeam",
        "tm:icywind",
        "tm:incinerate",
        "tm:irontail",
        "tm:lightscreen",
        "tm:naturalgift",
        "tm:outrage",
        "tm:protect",
        "tm:rage",
        "tm:raindance",
        "tm:reflect",
        "tm:rest",
        "tm:return",
        "tm:round",
        "tm:safeguard",
        "tm:secretpower",
        "tm:skullbash",
        "tm:sleeptalk",
        "tm:snore",
        "tm:substitute",
        "tm:sunnyday",
        "tm:surf",
        "tm:swagger",
        "tm:swift",
        "tm:takedown",
        "tm:thunder",
        "tm:thunderbolt",
        "tm:thunderwave",
        "tm:toxic",
        "tm:waterfall",
        "tm:watergun",
        "tm:whirlpool",
        "tm:zapcannon",
        "tutor:bind",
        "tutor:doubleedge",
        "tutor:dracometeor",
        "tutor:mimic",
        "tutor:scaleshot",
        "tutor:shockwave"
    ],
    "labels": [
        "gen1"
    ],
    "pokedex": [
        "cobblemon.species.dratini.desc1",
        "cobblemon.species.dratini.desc2"
    ],
    "evolutions": [
        {
            "id": "dratini_dragonair",
            "variant": "level_up",
            "result": "dragonair",
            "consumeHeldItem": false,
            "learnableMoves": [],
            "requirements": [
                {
                    "variant": "level",
                    "minLevel": 30
                }
            ]
        }
    ],
    "baseScale": 0.7,
    "hitbox": {
        "width": 1.0,
        "height": 1.0,
        "fixed": false
    },
    "baseFriendship": 35,
    "evYield": {
        "attack": 1
    },
    "height": 18,
    "weight": 33
}