{
  "name": "exeggutor",
  "nationalPokedexNumber": 103,
  "primaryType": "grass",
  "secondaryType": "psychic",
  "abilities": ["chlorophyll", "h:harvest"],
  "baseStats": {
    "hp": 95,
    "attack": 95,
    "defence": 85,
    "special_attack": 125,
    "special_defence": 75,
    "speed": 55
  },
  "catchRate": 45,
  "maleRatio": 0.5,
  "shoulderMountable": false,
  "forms": [
    {
      "name": "normal"
    },
    {
      "name": "alola",
      "secondaryType": "dragon",
      "abilities": ["frisk", "h:harvest"],
      "baseStats": {
        "hp": 95,
        "attack": 105,
        "defence": 85,
        "special_attack": 125,
        "special_defence": 75,
        "speed": 45
      },
      "moves": [
        "0:dragonhammer",
        "1:absorb",
        "1:megadrain",
        "1:leechseed",
        "1:solarbeam",
        "1:stunspore",
        "1:confusion",
        "1:hypnosis",
        "1:reflect",
        "1:eggbomb",
        "1:barrage",
        "1:gigadrain",
        "1:synthesis",
        "1:uproar",
        "1:extrasensory",
        "1:bulletseed",
        "1:worryseed",
        "1:seedbomb",
        "1:leafstorm",
        "1:woodhammer",
        "1:psyshock",
        "1:dragonhammer",
        "tm:attract",
        "tm:breakingswipe",
        "tm:brickbreak",
        "tm:brutalswing",
        "tm:bulldoze",
        "tm:bulletseed",
        "tm:confide",
        "tm:doubleteam",
        "tm:dragonpulse",
        "tm:dragontail",
        "tm:dreameater",
        "tm:earthquake",
        "tm:endure",
        "tm:energyball",
        "tm:explosion",
        "tm:facade",
        "tm:flamethrower",
        "tm:frustration",
        "tm:gigadrain",
        "tm:gigaimpact",
        "tm:grassknot",
        "tm:grassyterrain",
        "tm:headbutt",
        "tm:hiddenpower",
        "tm:hyperbeam",
        "tm:infestation",
        "tm:ironhead",
        "tm:irontail",
        "tm:leafstorm",
        "tm:lightscreen",
        "tm:lowkick",
        "tm:magicalleaf",
        "tm:naturepower",
        "tm:outrage",
        "tm:powerswap",
        "tm:powerwhip",
        "tm:protect",
        "tm:psychic",
        "tm:psychup",
        "tm:psyshock",
        "tm:reflect",
        "tm:rest",
        "tm:return",
        "tm:round",
        "tm:seedbomb",
        "tm:selfdestruct",
        "tm:skillswap",
        "tm:sleeptalk",
        "tm:sludgebomb",
        "tm:snore",
        "tm:solarbeam",
        "tm:stompingtantrum",
        "tm:substitute",
        "tm:sunnyday",
        "tm:superpower",
        "tm:swagger",
        "tm:swordsdance",
        "tm:teleport",
        "tm:thief",
        "tm:toxic",
        "tm:trickroom",
        "tm:uproar",
        "tm:zenheadbutt",
        "tutor:block",
        "tutor:dracometeor",
        "tutor:grassyglide",
        "tutor:gravity",
        "tutor:knockoff",
        "tutor:telekinesis",
        "tutor:terrainpulse"
      ],
      "pokedex": [
        "cobblemon.form.exeggutor-alola.desc1",
        "cobblemon.form.exeggutor-alola.desc2"
      ],
      "height": 109,
      "weight": 4156,
      "labels": ["gen1", "alola_regional", "regional"]
    }
  ],
  "baseExperienceYield": 186,
  "experienceGroup": "slow",
  "eggCycles": 20,
  "eggGroups": ["grass"],
  "moves": [
    "0:stomp",
    "1:stomp",
    "1:absorb",
    "1:megadrain",
    "1:leechseed",
    "1:solarbeam",
    "1:stunspore",
    "1:confusion",
    "1:hypnosis",
    "1:reflect",
    "1:eggbomb",
    "1:barrage",
    "1:gigadrain",
    "1:synthesis",
    "1:uproar",
    "1:extrasensory",
    "1:bulletseed",
    "1:worryseed",
    "1:seedbomb",
    "1:leafstorm",
    "1:powerwhip",
    "1:woodhammer",
    "1:psyshock",
    "tm:attract",
    "tm:bide",
    "tm:bulldoze",
    "tm:bulletseed",
    "tm:calmmind",
    "tm:captivate",
    "tm:confide",
    "tm:curse",
    "tm:doubleteam",
    "tm:dreameater",
    "tm:endure",
    "tm:energyball",
    "tm:explosion",
    "tm:facade",
    "tm:flash",
    "tm:frustration",
    "tm:futuresight",
    "tm:gigadrain",
    "tm:gigaimpact",
    "tm:grassknot",
    "tm:grassyterrain",
    "tm:headbutt",
    "tm:hiddenpower",
    "tm:hyperbeam",
    "tm:infestation",
    "tm:leafstorm",
    "tm:lightscreen",
    "tm:lowkick",
    "tm:magicalleaf",
    "tm:naturalgift",
    "tm:naturepower",
    "tm:powerswap",
    "tm:protect",
    "tm:psychic",
    "tm:psychocut",
    "tm:psychup",
    "tm:psyshock",
    "tm:psywave",
    "tm:rage",
    "tm:reflect",
    "tm:rest",
    "tm:return",
    "tm:round",
    "tm:secretpower",
    "tm:seedbomb",
    "tm:selfdestruct",
    "tm:skillswap",
    "tm:sleeptalk",
    "tm:sludgebomb",
    "tm:snore",
    "tm:solarbeam",
    "tm:stompingtantrum",
    "tm:strength",
    "tm:substitute",
    "tm:sunnyday",
    "tm:swagger",
    "tm:swordsdance",
    "tm:takedown",
    "tm:teleport",
    "tm:thief",
    "tm:toxic",
    "tm:trickroom",
    "tm:uproar",
    "tm:zenheadbutt",
    "tutor:ancientpower",
    "tutor:block",
    "tutor:doubleedge",
    "tutor:expandingforce",
    "tutor:grassyglide",
    "tutor:gravity",
    "tutor:mimic",
    "tutor:nightmare",
    "tutor:rollout",
    "tutor:telekinesis",
    "tutor:terrainpulse"
  ],
  "labels": ["gen1", "kanto_regional", "regional"],
  "pokedex": [
    "cobblemon.species.exeggutor.desc1",
    "cobblemon.species.exeggutor.desc2"
  ],
  "features": ["alolan"],
  "preEvolution": "exeggcute",
  "evolutions": [],
  "baseScale": 1.2,
  "hitbox": {
    "width": 0.8,
    "height": 1.25,
    "fixed": false
  },
  "baseFriendship": 50,
  "evYield": {
    "special_attack": 2
  },
  "height": 20,
  "weight": 1200
}
