{
  "name": "farfetchd",
  "nationalPokedexNumber": 83,
  "primaryType": "normal",
  "secondaryType": "flying",
  "abilities": ["keeneye", "innerfocus", "h:defiant"],
  "baseStats": {
    "hp": 52,
    "attack": 90,
    "defence": 55,
    "special_attack": 58,
    "special_defence": 62,
    "speed": 60
  },
  "catchRate": 45,
  "maleRatio": 0.5,
  "shoulderMountable": false,
  "forms": [
    {
      "name": "normal"
    },
    {
      "name": "galar",
      "primaryType": "fighting",
      "abilities": ["steadfast", "h:scrappy"],
      "baseStats": {
        "hp": 52,
        "attack": 95,
        "defence": 55,
        "special_attack": 58,
        "special_defence": 62,
        "speed": 55
      },
      "moves": [
        "1:sandattack",
        "1:peck",
        "5:leer",
        "10:furycutter",
        "15:rocksmash",
        "20:brutalswing",
        "25:detect",
        "30:knockoff",
        "35:defog",
        "40:brickbreak",
        "45:swordsdance",
        "50:slam",
        "55:leafblade",
        "60:finalgambit",
        "65:bravebird",
        "egg:counter",
        "egg:covet",
        "egg:curse",
        "egg:doubleedge",
        "egg:feint",
        "egg:flail",
        "egg:nightslash",
        "egg:quickattack",
        "egg:quickguard",
        "egg:simplebeam",
        "egg:skyattack",
        "tm:assurance",
        "tm:attract",
        "tm:bodyslam",
        "tm:bravebird",
        "tm:brickbreak",
        "tm:brutalswing",
        "tm:closecombat",
        "tm:endure",
        "tm:facade",
        "tm:focusenergy",
        "tm:helpinghand",
        "tm:leafblade",
        "tm:poisonjab",
        "tm:protect",
        "tm:rest",
        "tm:retaliate",
        "tm:revenge",
        "tm:round",
        "tm:sleeptalk",
        "tm:snore",
        "tm:solarblade",
        "tm:steelwing",
        "tm:substitute",
        "tm:sunnyday",
        "tm:superpower",
        "tm:swordsdance",
        "tm:throatchop",
        "tm:workup",
        "tutor:dualwingbeat"
      ],
      "pokedex": [
        "cobblemon.form.farfetchd-galar.desc1",
        "cobblemon.form.farfetchd-galar.desc2"
      ],
      "weight": 420,
      "labels": ["gen1", "galar_regional", "regional"],
      "evolutions": [
        {
          "id": "farfetchd_sirfetchd",
          "variant": "passive",
          "result": "sirfetchd",
          "consumeHeldItem": false,
          "learnableMoves": [],
          "requirements": [
            {
              "variant": "battle_critical_hits",
              "amount": 3
            }
          ]
        }
      ]
    }
  ],
  "baseExperienceYield": 132,
  "experienceGroup": "mediumfast",
  "eggCycles": 20,
  "eggGroups": ["flying", "field"],
  "behaviour": {
    "moving": {
      "fly": {
        "canFly": true
      }
    }
  },
  "drops": {
    "amount": "2",
    "entries": [
      {
        "item": "minecraft:feather",
        "percentage": 50
      },
      {
        "item": "minecraft:chicken"
      }
    ]
  },
  "moves": [
    "1:sandattack",
    "1:peck",
    "1:mirrormove",
    "5:leer",
    "10:furycutter",
    "13:razorleaf",
    "15:cut",
    "18:furyattack",
    "20:aerialace",
    "25:aircutter",
    "30:knockoff",
    "35:falseswipe",
    "40:slash",
    "45:swordsdance",
    "50:airslash",
    "55:leafblade",
    "60:agility",
    "65:bravebird",
    "egg:covet",
    "egg:curse",
    "egg:featherdance",
    "egg:feint",
    "egg:finalgambit",
    "egg:firstimpression",
    "egg:flail",
    "egg:foresight",
    "egg:gust",
    "egg:mudslap",
    "egg:nightslash",
    "egg:quickattack",
    "egg:roost",
    "egg:simplebeam",
    "egg:skyattack",
    "egg:trumpcard",
    "tm:acrobatics",
    "tm:agility",
    "tm:airslash",
    "tm:attract",
    "tm:batonpass",
    "tm:bide",
    "tm:bodyslam",
    "tm:bravebird",
    "tm:brutalswing",
    "tm:captivate",
    "tm:closecombat",
    "tm:confide",
    "tm:detect",
    "tm:doubleteam",
    "tm:endure",
    "tm:facade",
    "tm:falseswipe",
    "tm:fly",
    "tm:focusenergy",
    "tm:frustration",
    "tm:headbutt",
    "tm:heatwave",
    "tm:helpinghand",
    "tm:hiddenpower",
    "tm:irontail",
    "tm:leafblade",
    "tm:naturalgift",
    "tm:pluck",
    "tm:poisonjab",
    "tm:protect",
    "tm:psychup",
    "tm:rage",
    "tm:razorwind",
    "tm:reflect",
    "tm:rest",
    "tm:retaliate",
    "tm:return",
    "tm:revenge",
    "tm:round",
    "tm:secretpower",
    "tm:skullbash",
    "tm:sleeptalk",
    "tm:snore",
    "tm:solarblade",
    "tm:steelwing",
    "tm:substitute",
    "tm:sunnyday",
    "tm:swagger",
    "tm:swift",
    "tm:swordsdance",
    "tm:takedown",
    "tm:thief",
    "tm:throatchop",
    "tm:toxic",
    "tm:uproar",
    "tm:uturn",
    "tm:whirlwind",
    "tm:workup",
    "tutor:defog",
    "tutor:doubleedge",
    "tutor:dualwingbeat",
    "tutor:laserfocus",
    "tutor:lastresort",
    "tutor:mimic",
    "tutor:ominouswind",
    "tutor:tailwind",
    "tutor:twister"
  ],
  "labels": ["gen1", "kanto_regional", "regional"],
  "pokedex": [
    "cobblemon.species.farfetchd.desc1",
    "cobblemon.species.farfetchd.desc2"
  ],
  "baseScale": 1.0,
  "hitbox": {
    "width": 1.0,
    "height": 1.0,
    "fixed": false
  },
  "baseFriendship": 50,
  "evYield": {
    "attack": 1
  },
  "height": 8,
  "weight": 150
}
