{
    "name": "fearow",
    "nationalPokedexNumber": 22,
    "primaryType": "normal",
    "secondaryType": "flying",
    "abilities": [
        "keeneye",
        "h:sniper"
    ],
    "baseStats": {
        "hp": 65,
        "attack": 90,
        "defence": 65,
        "special_attack": 61,
        "special_defence": 61,
        "speed": 100
    },
    "catchRate": 90,
    "maleRatio": 0.5,
    "shoulderMountable": false,
    "forms": [],
    "baseExperienceYield": 155,
    "experienceGroup": "mediumfast",
    "eggCycles": 15,
    "eggGroups": [
        "flying"
    ],
    "behaviour": {
        "moving": {
            "fly": {
                "canFly": true
            },
            "walk": {
                "canWalk": false
            }
        }
    },
    "drops": {
        "amount": "2",
        "entries": [
            {
                "item": "minecraft:feather",
                "quantityRange": "1-2",
                "percentage": 66
            },
            {
                "item": "minecraft:chicken"
            }
        ]
    },
    "moves": [
        "1:leer",
        "1:growl",
        "1:peck",
        "1:quickattack",
        "1:focusenergy",
        "1:skyattack",
        "1:pursuit",
        "1:pluck",
        "1:drillrun",
        "3:growl",
        "8:leer",
        "8:pursuit",
        "11:focusenergy",
        "15:aerialace",
        "16:furyattack",
        "19:mirrormove",
        "23:assurance",
        "29:roost",
        "37:agility",
        "47:drillpeck",
        "tm:aerialace",
        "tm:attract",
        "tm:bide",
        "tm:captivate",
        "tm:confide",
        "tm:curse",
        "tm:detect",
        "tm:doubleteam",
        "tm:drillrun",
        "tm:echoedvoice",
        "tm:endure",
        "tm:facade",
        "tm:falseswipe",
        "tm:fly",
        "tm:frustration",
        "tm:gigaimpact",
        "tm:headbutt",
        "tm:hiddenpower",
        "tm:hyperbeam",
        "tm:naturalgift",
        "tm:protect",
        "tm:rage",
        "tm:raindance",
        "tm:razorwind",
        "tm:rest",
        "tm:return",
        "tm:roost",
        "tm:round",
        "tm:secretpower",
        "tm:sleeptalk",
        "tm:steelwing",
        "tm:substitute",
        "tm:sunnyday",
        "tm:swagger",
        "tm:takedown",
        "tm:thief",
        "tm:toxic",
        "tm:triattack",
        "tm:uturn",
        "tm:whirlwind",
        "tm:workup",
        "tutor:aircutter",
        "tutor:defog",
        "tutor:doubleedge",
        "tutor:heatwave",
        "tutor:laserfocus",
        "tutor:mimic",
        "tutor:mudslap",
        "tutor:ominouswind",
        "tutor:snore",
        "tutor:swift",
        "tutor:tailwind",
        "tutor:throatchop",
        "tutor:twister",
        "tutor:uproar"
    ],
    "labels": [
        "gen1"
    ],
    "pokedex": [
        "cobblemon.species.fearow.desc1",
        "cobblemon.species.fearow.desc2"
    ],
    "preEvolution": "spearow",
    "evolutions": [],
    "baseScale": 2.0,
    "hitbox": {
        "width": 1.0,
        "height": 0.7,
        "fixed": false
    },
    "baseFriendship": 70,
    "evYield": {
        "speed": 2
    },
    "height": 12,
    "weight": 380
}