{
  "name": "geodude",
  "nationalPokedexNumber": 74,
  "primaryType": "rock",
  "secondaryType": "ground",
  "abilities": ["rockhead", "sturdy", "h:sandveil"],
  "baseStats": {
    "hp": 40,
    "attack": 80,
    "defence": 100,
    "special_attack": 30,
    "special_defence": 30,
    "speed": 20
  },
  "catchRate": 255,
  "maleRatio": 0.5,
  "shoulderMountable": false,
  "forms": [
    {
      "name": "normal"
    },
    {
      "name": "alola",
      "secondaryType": "electric",
      "abilities": ["magnetpull", "sturdy", "h:galvanize"],
      "moves": [
        "1:tackle",
        "1:defensecurl",
        "3:thundershock",
        "4:charge",
        "6:bide",
        "6:rockpolish",
        "9:rockthrow",
        "10:rollout",
        "12:spark",
        "12:stealthrock",
        "15:takedown",
        "18:smackdown",
        "19:selfdestruct",
        "23:rockslide",
        "27:thunderpunch",
        "30:rockblast",
        "31:doubleedge",
        "34:discharge",
        "35:explosion",
        "42:stoneedge",
        "egg:autotomize",
        "egg:block",
        "egg:counter",
        "egg:curse",
        "egg:endure",
        "egg:flail",
        "egg:magnetrise",
        "egg:rockclimb",
        "egg:screech",
        "egg:wideguard",
        "tm:attract",
        "tm:brickbreak",
        "tm:brutalswing",
        "tm:bulldoze",
        "tm:chargebeam",
        "tm:confide",
        "tm:dig",
        "tm:doubleteam",
        "tm:earthquake",
        "tm:facade",
        "tm:fireblast",
        "tm:firepunch",
        "tm:flamethrower",
        "tm:fling",
        "tm:frustration",
        "tm:gyroball",
        "tm:headbutt",
        "tm:hiddenpower",
        "tm:naturepower",
        "tm:protect",
        "tm:rest",
        "tm:return",
        "tm:rockpolish",
        "tm:rockslide",
        "tm:rocktomb",
        "tm:round",
        "tm:sandstorm",
        "tm:seismictoss",
        "tm:selfdestruct",
        "tm:sleeptalk",
        "tm:smackdown",
        "tm:stealthrock",
        "tm:stoneedge",
        "tm:substitute",
        "tm:sunnyday",
        "tm:superpower",
        "tm:swagger",
        "tm:thunder",
        "tm:thunderbolt",
        "tm:thunderpunch",
        "tm:thunderwave",
        "tm:toxic",
        "tm:voltswitch",
        "tutor:block",
        "tutor:earthpower",
        "tutor:electroweb",
        "tutor:focuspunch",
        "tutor:irondefense",
        "tutor:magnetrise",
        "tutor:snore"
      ],
      "pokedex": [
        "cobblemon.form.geodude-alola.desc1",
        "cobblemon.form.geodude-alola.desc2"
      ],
      "weight": 203,
      "labels": ["gen1", "alola_regional", "regional"],
      "evolutions": [
        {
          "id": "geodude_graveler_alola",
          "variant": "level_up",
          "result": "graveler form=alola",
          "consumeHeldItem": false,
          "learnableMoves": [],
          "requirements": [
            {
              "variant": "level",
              "minLevel": 25
            }
          ]
        }
      ]
    }
  ],
  "baseExperienceYield": 60,
  "experienceGroup": "mediumslow",
  "eggCycles": 15,
  "eggGroups": ["mineral"],
  "drops": {
    "amount": "1",
    "entries": [
      {
        "item": "minecraft:coal",
        "percentage": 50
      }
    ]
  },
  "moves": [
    "1:tackle",
    "1:defensecurl",
    "3:sandattack",
    "4:mudsport",
    "6:bide",
    "6:rockpolish",
    "9:rockthrow",
    "10:rollout",
    "12:magnitude",
    "12:stealthrock",
    "15:takedown",
    "18:smackdown",
    "19:selfdestruct",
    "22:bulldoze",
    "23:rockslide",
    "26:harden",
    "27:earthquake",
    "30:rockblast",
    "31:doubleedge",
    "35:explosion",
    "42:stoneedge",
    "egg:autotomize",
    "egg:block",
    "egg:curse",
    "egg:endure",
    "egg:flail",
    "egg:focuspunch",
    "egg:hammerarm",
    "egg:megapunch",
    "egg:rockclimb",
    "egg:wideguard",
    "tm:attract",
    "tm:brickbreak",
    "tm:bulldoze",
    "tm:captivate",
    "tm:confide",
    "tm:dig",
    "tm:doubleteam",
    "tm:earthquake",
    "tm:facade",
    "tm:fireblast",
    "tm:firepunch",
    "tm:fissure",
    "tm:flamethrower",
    "tm:fling",
    "tm:frustration",
    "tm:gyroball",
    "tm:headbutt",
    "tm:hiddenpower",
    "tm:incinerate",
    "tm:naturalgift",
    "tm:naturepower",
    "tm:poweruppunch",
    "tm:protect",
    "tm:rage",
    "tm:rest",
    "tm:return",
    "tm:rockpolish",
    "tm:rockslide",
    "tm:rocksmash",
    "tm:rocktomb",
    "tm:round",
    "tm:sandstorm",
    "tm:secretpower",
    "tm:seismictoss",
    "tm:selfdestruct",
    "tm:sleeptalk",
    "tm:smackdown",
    "tm:stealthrock",
    "tm:stoneedge",
    "tm:strength",
    "tm:submission",
    "tm:substitute",
    "tm:sunnyday",
    "tm:superpower",
    "tm:swagger",
    "tm:thunderpunch",
    "tm:toxic",
    "tutor:ancientpower",
    "tutor:block",
    "tutor:bodyslam",
    "tutor:counter",
    "tutor:dynamicpunch",
    "tutor:earthpower",
    "tutor:focuspunch",
    "tutor:irondefense",
    "tutor:metronome",
    "tutor:mimic",
    "tutor:mudslap",
    "tutor:snore",
    "tutor:suckerpunch"
  ],
  "labels": ["gen1", "kanto_regional", "regional"],
  "pokedex": ["cobblemon.species.geodude.desc1", "cobblemon.species.geodude.desc2"],
  "evolutions": [
    {
      "id": "geodude_graveler",
      "variant": "level_up",
      "result": "graveler",
      "consumeHeldItem": false,
      "learnableMoves": [],
      "requirements": [
        {
          "variant": "level",
          "minLevel": 25
        }
      ]
    }
  ],
  "baseScale": 1.0,
  "hitbox": {
    "width": 0.9,
    "height": 0.5,
    "fixed": false
  },
  "baseFriendship": 70,
  "evYield": {
    "defence": 1
  },
  "height": 4,
  "weight": 200
}
