{
    "name": "horsea",
    "nationalPokedexNumber": 116,
    "primaryType": "water",
    "abilities": [
        "swiftswim",
        "sniper",
        "h:damp"
    ],
    "baseStats": {
        "hp": 30,
        "attack": 40,
        "defence": 70,
        "special_attack": 70,
        "special_defence": 25,
        "speed": 60
    },
    "catchRate": 225,
    "maleRatio": 0.5,
    "shoulderMountable": false,
    "forms": [],
    "baseExperienceYield": 59,
    "experienceGroup": "mediumfast",
    "eggCycles": 20,
    "eggGroups": [
        "water_1",
        "dragon"
    ],
    "behaviour": {
        "moving": {
            "swim": {
                "canSwimInWater": true,
                "canBreatheUnderwater": true
            }
        }
    },
    "drops": {
        "amount": "1",
        "entries": [
            {
                "item": "minecraft:prismarine_crystals",
                "percentage": 50
            }
        ]
    },
    "moves": [
        "1:leer",
        "1:watergun",
        "1:bubble",
        "5:smokescreen",
        "10:twister",
        "15:focusenergy",
        "20:dragonbreath",
        "25:bubblebeam",
        "30:agility",
        "35:laserfocus",
        "40:dragonpulse",
        "45:hydropump",
        "50:dragondance",
        "55:raindance",
        "egg:aurorabeam",
        "egg:clearsmog",
        "egg:disable",
        "egg:dragonrage",
        "egg:flail",
        "egg:octazooka",
        "egg:razorwind",
        "egg:signalbeam",
        "egg:splash",
        "egg:waterpulse",
        "tm:agility",
        "tm:attract",
        "tm:bide",
        "tm:blizzard",
        "tm:bounce",
        "tm:brine",
        "tm:captivate",
        "tm:confide",
        "tm:curse",
        "tm:dive",
        "tm:doubleteam",
        "tm:dragondance",
        "tm:dragonpulse",
        "tm:endure",
        "tm:facade",
        "tm:flashcannon",
        "tm:focusenergy",
        "tm:frustration",
        "tm:hail",
        "tm:headbutt",
        "tm:hiddenpower",
        "tm:hydropump",
        "tm:icebeam",
        "tm:icywind",
        "tm:liquidation",
        "tm:muddywater",
        "tm:naturalgift",
        "tm:outrage",
        "tm:protect",
        "tm:rage",
        "tm:raindance",
        "tm:rest",
        "tm:return",
        "tm:round",
        "tm:scald",
        "tm:secretpower",
        "tm:skullbash",
        "tm:sleeptalk",
        "tm:snore",
        "tm:substitute",
        "tm:surf",
        "tm:swagger",
        "tm:swift",
        "tm:takedown",
        "tm:toxic",
        "tm:waterfall",
        "tm:whirlpool",
        "tutor:doubleedge",
        "tutor:flipturn",
        "tutor:mimic",
        "tutor:scaleshot",
        "tutor:signalbeam"
    ],
    "labels": [
        "gen1"
    ],
    "pokedex": [
        "cobblemon.species.horsea.desc1",
        "cobblemon.species.horsea.desc2"
    ],
    "evolutions": [
        {
            "id": "horsea_seadra",
            "variant": "level_up",
            "result": "seadra",
            "consumeHeldItem": false,
            "learnableMoves": [],
            "requirements": [
                {
                    "variant": "level",
                    "minLevel": 32
                }
            ]
        }
    ],
    "baseScale": 0.9,
    "hitbox": {
        "width": 0.5,
        "height": 1.0,
        "fixed": false
    },
    "baseFriendship": 50,
    "evYield": {
        "special_attack": 1
    },
    "height": 4,
    "weight": 80
}