{
    "name": "jigglypuff",
    "nationalPokedexNumber": 39,
    "primaryType": "normal",
    "secondaryType": "fairy",
    "abilities": [
        "cutecharm",
        "competitive",
        "h:friendguard"
    ],
    "baseStats": {
        "hp": 115,
        "attack": 45,
        "defence": 20,
        "special_attack": 45,
        "special_defence": 25,
        "speed": 20
    },
    "catchRate": 170,
    "maleRatio": 0.25,
    "shoulderMountable": false,
    "forms": [],
    "baseExperienceYield": 95,
    "experienceGroup": "fast",
    "eggCycles": 10,
    "eggGroups": [
        "fairy"
    ],
    "moves": [
        "1:pound",
        "1:sing",
        "1:disable",
        "1:defensecurl",
        "1:sweetkiss",
        "1:charm",
        "1:copycat",
        "1:disarmingvoice",
        "4:echoedvoice",
        "8:covet",
        "9:playnice",
        "10:bide",
        "12:doubleslap",
        "12:stockpile",
        "12:spitup",
        "12:swallow",
        "16:round",
        "20:rest",
        "20:rollout",
        "24:bodyslam",
        "27:wakeupslap",
        "28:mimic",
        "32:gyroball",
        "36:hypervoice",
        "40:playrough",
        "44:doubleedge",
        "tm:allyswitch",
        "tm:attract",
        "tm:batonpass",
        "tm:blizzard",
        "tm:bodyslam",
        "tm:bounce",
        "tm:brickbreak",
        "tm:bubblebeam",
        "tm:captivate",
        "tm:chargebeam",
        "tm:charm",
        "tm:confide",
        "tm:curse",
        "tm:dazzlinggleam",
        "tm:detect",
        "tm:dig",
        "tm:doubleteam",
        "tm:drainingkiss",
        "tm:drainpunch",
        "tm:dreameater",
        "tm:endure",
        "tm:facade",
        "tm:faketears",
        "tm:fireblast",
        "tm:firepunch",
        "tm:flamethrower",
        "tm:flash",
        "tm:fling",
        "tm:frustration",
        "tm:grassknot",
        "tm:gyroball",
        "tm:headbutt",
        "tm:helpinghand",
        "tm:hiddenpower",
        "tm:hypervoice",
        "tm:icebeam",
        "tm:icepunch",
        "tm:icywind",
        "tm:incinerate",
        "tm:lightscreen",
        "tm:megakick",
        "tm:megapunch",
        "tm:mistyterrain",
        "tm:naturalgift",
        "tm:playrough",
        "tm:poweruppunch",
        "tm:protect",
        "tm:psychic",
        "tm:psychup",
        "tm:psywave",
        "tm:rage",
        "tm:raindance",
        "tm:reflect",
        "tm:rest",
        "tm:retaliate",
        "tm:return",
        "tm:round",
        "tm:safeguard",
        "tm:screech",
        "tm:secretpower",
        "tm:seismictoss",
        "tm:selfdestruct",
        "tm:shadowball",
        "tm:skullbash",
        "tm:sleeptalk",
        "tm:snore",
        "tm:solarbeam",
        "tm:stealthrock",
        "tm:strength",
        "tm:submission",
        "tm:substitute",
        "tm:sunnyday",
        "tm:swagger",
        "tm:takedown",
        "tm:teleport",
        "tm:thunder",
        "tm:thunderbolt",
        "tm:thunderpunch",
        "tm:thunderwave",
        "tm:toxic",
        "tm:triattack",
        "tm:uproar",
        "tm:watergun",
        "tm:wildcharge",
        "tm:workup",
        "tm:zapcannon",
        "tutor:counter",
        "tutor:dynamicpunch",
        "tutor:endeavor",
        "tutor:focuspunch",
        "tutor:gravity",
        "tutor:healbell",
        "tutor:knockoff",
        "tutor:lastresort",
        "tutor:magiccoat",
        "tutor:mistyexplosion",
        "tutor:mudslap",
        "tutor:nightmare",
        "tutor:painsplit",
        "tutor:recycle",
        "tutor:roleplay",
        "tutor:shockwave",
        "tutor:snatch",
        "tutor:steelroller",
        "tutor:telekinesis",
        "tutor:waterpulse"
    ],
    "labels": [
        "gen1"
    ],
    "pokedex": [
        "cobblemon.species.jigglypuff.desc1",
        "cobblemon.species.jigglypuff.desc2"
    ],
    "preEvolution": "igglybuff",
    "evolutions": [
        {
            "id": "jigglypuff_wigglytuff",
            "variant": "item_interact",
            "result": "wigglytuff",
            "consumeHeldItem": false,
            "learnableMoves": [],
            "requirements": [],
            "requiredContext": "cobblemon:moon_stone"
        }
    ],
    "baseScale": 1.0,
    "hitbox": {
        "width": 0.6,
        "height": 0.7,
        "fixed": false
    },
    "baseFriendship": 50,
    "evYield": {
        "hp": 2
    },
    "height": 5,
    "weight": 55
}