{
    "name": "jolteon",
    "nationalPokedexNumber": 135,
    "primaryType": "electric",
    "abilities": [
        "voltabsorb",
        "h:quickfeet"
    ],
    "baseStats": {
        "hp": 65,
        "attack": 65,
        "defence": 60,
        "special_attack": 110,
        "special_defence": 95,
        "speed": 130
    },
    "catchRate": 45,
    "maleRatio": 0.875,
    "shoulderMountable": false,
    "forms": [],
    "baseExperienceYield": 184,
    "experienceGroup": "mediumfast",
    "eggCycles": 35,
    "eggGroups": [
        "field"
    ],
    "moves": [
        "0:thundershock",
        "1:tackle",
        "1:takedown",
        "1:doubleedge",
        "1:tailwhip",
        "1:bite",
        "1:growl",
        "1:thundershock",
        "1:swift",
        "1:charm",
        "1:batonpass",
        "1:helpinghand",
        "1:yawn",
        "1:covet",
        "1:copycat",
        "5:sandattack",
        "10:quickattack",
        "15:babydolleyes",
        "20:thunderwave",
        "25:doublekick",
        "30:thunderfang",
        "35:pinmissile",
        "40:discharge",
        "45:agility",
        "50:thunder",
        "55:lastresort",
        "tm:agility",
        "tm:attract",
        "tm:batonpass",
        "tm:bide",
        "tm:bodyslam",
        "tm:captivate",
        "tm:chargebeam",
        "tm:charm",
        "tm:confide",
        "tm:curse",
        "tm:detect",
        "tm:dig",
        "tm:doubleteam",
        "tm:echoedvoice",
        "tm:electroball",
        "tm:endure",
        "tm:facade",
        "tm:faketears",
        "tm:flash",
        "tm:focusenergy",
        "tm:frustration",
        "tm:gigaimpact",
        "tm:headbutt",
        "tm:helpinghand",
        "tm:hiddenpower",
        "tm:hyperbeam",
        "tm:hypervoice",
        "tm:irontail",
        "tm:lightscreen",
        "tm:naturalgift",
        "tm:payday",
        "tm:pinmissile",
        "tm:protect",
        "tm:rage",
        "tm:raindance",
        "tm:reflect",
        "tm:rest",
        "tm:retaliate",
        "tm:return",
        "tm:roar",
        "tm:rocksmash",
        "tm:round",
        "tm:secretpower",
        "tm:shadowball",
        "tm:skullbash",
        "tm:sleeptalk",
        "tm:snore",
        "tm:storedpower",
        "tm:strength",
        "tm:substitute",
        "tm:sunnyday",
        "tm:swagger",
        "tm:swift",
        "tm:thunder",
        "tm:thunderbolt",
        "tm:thunderfang",
        "tm:thunderwave",
        "tm:toxic",
        "tm:voltswitch",
        "tm:weatherball",
        "tm:wildcharge",
        "tm:workup",
        "tm:zapcannon",
        "tutor:healbell",
        "tutor:laserfocus",
        "tutor:magnetrise",
        "tutor:mimic",
        "tutor:mudslap",
        "tutor:risingvoltage",
        "tutor:shockwave",
        "tutor:signalbeam"
    ],
    "labels": [
        "gen1"
    ],
    "pokedex": [
        "cobblemon.species.jolteon.desc1",
        "cobblemon.species.jolteon.desc2"
    ],
    "preEvolution": "eevee",
    "evolutions": [],
    "baseScale": 0.85,
    "hitbox": {
        "width": 0.9,
        "height": 1,
        "fixed": false
    },
    "baseFriendship": 50,
    "evYield": {
        "speed": 2
    },
    "height": 8,
    "weight": 245
}