{
    "name": "rhyhorn",
    "nationalPokedexNumber": 111,
    "primaryType": "ground",
    "secondaryType": "rock",
    "abilities": [
        "lightningrod",
        "rockhead",
        "h:reckless"
    ],
    "baseStats": {
        "hp": 80,
        "attack": 85,
        "defence": 95,
        "special_attack": 30,
        "special_defence": 30,
        "speed": 25
    },
    "catchRate": 120,
    "maleRatio": 0.5,
    "shoulderMountable": false,
    "forms": [],
    "baseExperienceYield": 69,
    "experienceGroup": "slow",
    "eggCycles": 20,
    "eggGroups": [
        "monster",
        "field"
    ],
    "moves": [
        "1:sandattack",
        "1:tackle",
        "1:tailwhip",
        "5:smackdown",
        "7:furyattack",
        "10:bulldoze",
        "15:hornattack",
        "19:rockthrow",
        "20:scaryface",
        "25:stomp",
        "25:chipaway",
        "30:rockblast",
        "35:drillrun",
        "40:takedown",
        "45:earthquake",
        "50:leer",
        "50:stoneedge",
        "55:megahorn",
        "60:horndrill",
        "egg:counter",
        "egg:crushclaw",
        "egg:curse",
        "egg:dragonrush",
        "egg:guardsplit",
        "egg:magnitude",
        "egg:metalburst",
        "egg:pursuit",
        "egg:rockclimb",
        "egg:rockpolish",
        "egg:rototiller",
        "egg:skullbash",
        "egg:thrash",
        "tm:attract",
        "tm:bide",
        "tm:blizzard",
        "tm:bodyslam",
        "tm:bulldoze",
        "tm:captivate",
        "tm:confide",
        "tm:crunch",
        "tm:dig",
        "tm:doubleteam",
        "tm:dragonpulse",
        "tm:drillrun",
        "tm:earthpower",
        "tm:earthquake",
        "tm:endure",
        "tm:facade",
        "tm:fireblast",
        "tm:firefang",
        "tm:fissure",
        "tm:flamethrower",
        "tm:frustration",
        "tm:headbutt",
        "tm:hiddenpower",
        "tm:highhorsepower",
        "tm:icebeam",
        "tm:icefang",
        "tm:icywind",
        "tm:incinerate",
        "tm:irontail",
        "tm:megahorn",
        "tm:mudshot",
        "tm:naturalgift",
        "tm:payback",
        "tm:poisonjab",
        "tm:protect",
        "tm:rage",
        "tm:raindance",
        "tm:rest",
        "tm:return",
        "tm:reversal",
        "tm:roar",
        "tm:rockblast",
        "tm:rockslide",
        "tm:rocksmash",
        "tm:rocktomb",
        "tm:round",
        "tm:sandstorm",
        "tm:scaryface",
        "tm:secretpower",
        "tm:sleeptalk",
        "tm:smartstrike",
        "tm:snore",
        "tm:stealthrock",
        "tm:stompingtantrum",
        "tm:stoneedge",
        "tm:strength",
        "tm:substitute",
        "tm:sunnyday",
        "tm:superpower",
        "tm:swagger",
        "tm:swordsdance",
        "tm:thief",
        "tm:thunder",
        "tm:thunderbolt",
        "tm:thunderfang",
        "tm:toxic",
        "tm:uproar",
        "tm:zapcannon",
        "tutor:ancientpower",
        "tutor:aquatail",
        "tutor:doubleedge",
        "tutor:endeavor",
        "tutor:mimic",
        "tutor:mudslap",
        "tutor:rollout",
        "tutor:scorchingsands",
        "tutor:shockwave",
        "tutor:spite"
    ],
    "labels": [
        "gen1"
    ],
    "pokedex": [
        "cobblemon.species.rhyhorn.desc1",
        "cobblemon.species.rhyhorn.desc2"
    ],
    "evolutions": [
        {
            "id": "rhyhorn_rhydon",
            "variant": "level_up",
            "result": "rhydon",
            "consumeHeldItem": false,
            "learnableMoves": [],
            "requirements": [
                {
                    "variant": "level",
                    "minLevel": 42
                }
            ]
        }
    ],
    "baseScale": 1.0,
    "hitbox": {
        "width": 1.0,
        "height": 1.0,
        "fixed": false
    },
    "baseFriendship": 50,
    "evYield": {
        "defence": 1
    },
    "height": 10,
    "weight": 1150
}