{
    "name": "seel",
    "nationalPokedexNumber": 86,
    "primaryType": "water",
    "abilities": [
        "thickfat",
        "hydration",
        "h:icebody"
    ],
    "baseStats": {
        "hp": 65,
        "attack": 45,
        "defence": 55,
        "special_attack": 45,
        "special_defence": 70,
        "speed": 45
    },
    "catchRate": 190,
    "maleRatio": 0.5,
    "shoulderMountable": false,
    "forms": [],
    "baseExperienceYield": 65,
    "experienceGroup": "mediumfast",
    "eggCycles": 20,
    "eggGroups": [
        "water_1",
        "field"
    ],
    "behaviour": {
        "moving": {
            "swim": {
                "canSwimInWater": true,
                "canBreatheUnderwater": true
            }
        }
    },
    "drops": {
        "amount": "1",
        "entries": [
            {
                "item": "minecraft:cod",
                "percentage": 50
            }
        ]
    },
    "moves": [
        "1:headbutt",
        "4:growl",
        "7:watersport",
        "8:encore",
        "11:icywind",
        "12:aquajet",
        "16:iceshard",
        "20:rest",
        "23:aquaring",
        "26:aurorabeam",
        "32:waterfall",
        "33:brine",
        "38:takedown",
        "41:dive",
        "43:aquatail",
        "44:icebeam",
        "50:doubleedge",
        "51:safeguard",
        "53:hail",
        "egg:belch",
        "egg:disable",
        "egg:entrainment",
        "egg:fakeout",
        "egg:horndrill",
        "egg:iciclespear",
        "egg:lick",
        "egg:peck",
        "egg:perishsong",
        "egg:signalbeam",
        "egg:slam",
        "egg:sleeptalk",
        "egg:spitup",
        "egg:stockpile",
        "egg:swallow",
        "egg:waterpulse",
        "tm:attract",
        "tm:bide",
        "tm:blizzard",
        "tm:bubblebeam",
        "tm:captivate",
        "tm:confide",
        "tm:curse",
        "tm:doubleteam",
        "tm:drillrun",
        "tm:echoedvoice",
        "tm:endure",
        "tm:facade",
        "tm:fling",
        "tm:frustration",
        "tm:hail",
        "tm:headbutt",
        "tm:helpinghand",
        "tm:hiddenpower",
        "tm:icebeam",
        "tm:irontail",
        "tm:megahorn",
        "tm:naturalgift",
        "tm:payday",
        "tm:protect",
        "tm:rage",
        "tm:raindance",
        "tm:rest",
        "tm:return",
        "tm:round",
        "tm:safeguard",
        "tm:secretpower",
        "tm:skullbash",
        "tm:sleeptalk",
        "tm:smartstrike",
        "tm:strength",
        "tm:substitute",
        "tm:surf",
        "tm:swagger",
        "tm:thief",
        "tm:toxic",
        "tm:waterfall",
        "tm:watergun",
        "tm:whirlpool",
        "tutor:aquatail",
        "tutor:bodyslam",
        "tutor:icywind",
        "tutor:mimic",
        "tutor:signalbeam",
        "tutor:snore",
        "tutor:waterpulse"
    ],
    "labels": [
        "gen1"
    ],
    "pokedex": [
        "cobblemon.species.seel.desc1",
        "cobblemon.species.seel.desc2"
    ],
    "evolutions": [
        {
            "id": "seel_dewgong",
            "variant": "level_up",
            "result": "dewgong",
            "consumeHeldItem": false,
            "learnableMoves": [],
            "requirements": [
                {
                    "variant": "level",
                    "minLevel": 34
                }
            ]
        }
    ],
    "baseScale": 1.0,
    "hitbox": {
        "width": 0.9,
        "height": 0.5,
        "fixed": false
    },
    "baseFriendship": 70,
    "evYield": {
        "special_defence": 1
    },
    "height": 11,
    "weight": 900
}