{
  "name": "slowbro",
  "nationalPokedexNumber": 80,
  "primaryType": "water",
  "secondaryType": "psychic",
  "abilities": ["oblivious", "owntempo", "h:regenerator"],
  "baseStats": {
    "hp": 95,
    "attack": 75,
    "defence": 110,
    "special_attack": 100,
    "special_defence": 80,
    "speed": 30
  },
  "catchRate": 75,
  "maleRatio": 0.5,
  "shoulderMountable": false,
  "forms": [
    {
      "name": "normal"
    },
    {
      "name": "mega",
      "abilities": ["shellarmor"],
      "baseStats": {
        "hp": 95,
        "attack": 75,
        "defence": 180,
        "special_attack": 130,
        "special_defence": 80,
        "speed": 30
      },
      "baseExperienceYield": 207,
      "moves": [
        "0:withdraw",
        "1:stomp",
        "1:tackle",
        "1:growl",
        "1:watergun",
        "1:withdraw",
        "1:curse",
        "1:yawn",
        "1:healpulse",
        "6:growl",
        "12:watergun",
        "18:confusion",
        "24:disable",
        "28:waterpulse",
        "30:rest",
        "32:zenheadbutt",
        "36:surf",
        "36:slackoff",
        "49:psychic",
        "55:raindance",
        "62:amnesia",
        "62:psychup",
        "68:healpulse",
        "tm:aerialace",
        "tm:attract",
        "tm:blizzard",
        "tm:brickbreak",
        "tm:bulldoze",
        "tm:calmmind",
        "tm:confide",
        "tm:dig",
        "tm:dive",
        "tm:doubleteam",
        "tm:dreameater",
        "tm:earthquake",
        "tm:echoedvoice",
        "tm:facade",
        "tm:fireblast",
        "tm:flamethrower",
        "tm:flash",
        "tm:fling",
        "tm:focusblast",
        "tm:foulplay",
        "tm:frustration",
        "tm:gigaimpact",
        "tm:grassknot",
        "tm:hail",
        "tm:headbutt",
        "tm:hiddenpower",
        "tm:hyperbeam",
        "tm:icebeam",
        "tm:icepunch",
        "tm:incinerate",
        "tm:irontail",
        "tm:lightscreen",
        "tm:payday",
        "tm:protect",
        "tm:psychic",
        "tm:psychup",
        "tm:psyshock",
        "tm:raindance",
        "tm:reflect",
        "tm:rest",
        "tm:return",
        "tm:rocksmash",
        "tm:round",
        "tm:safeguard",
        "tm:scald",
        "tm:secretpower",
        "tm:seismictoss",
        "tm:shadowball",
        "tm:sleeptalk",
        "tm:strength",
        "tm:substitute",
        "tm:sunnyday",
        "tm:surf",
        "tm:swagger",
        "tm:teleport",
        "tm:thunderwave",
        "tm:toxic",
        "tm:triattack",
        "tm:trickroom",
        "tutor:afteryou",
        "tutor:aquatail",
        "tutor:block",
        "tutor:drainpunch",
        "tutor:focuspunch",
        "tutor:icywind",
        "tutor:irondefense",
        "tutor:magiccoat",
        "tutor:recycle",
        "tutor:signalbeam",
        "tutor:skillswap",
        "tutor:snore",
        "tutor:telekinesis",
        "tutor:trick",
        "tutor:waterpulse",
        "tutor:wonderroom",
        "tutor:zenheadbutt"
      ],
      "labels": ["gen1", "mega_evolution"],
      "pokedex": [
        "cobblemon.form.slowbro-mega.desc1",
        "cobblemon.form.slowbro-mega.desc2"
      ],
      "height": 20,
      "weight": 1200
    },
    {
      "name": "galar",
      "primaryType": "poison",
      "abilities": ["quickdraw", "owntempo", "h:regenerator"],
      "baseStats": {
        "hp": 95,
        "attack": 100,
        "defence": 95,
        "special_attack": 100,
        "special_defence": 70,
        "speed": 30
      },
      "evYield": {
        "attack": 2
      },
      "moves": [
        "0:shellsidearm",
        "1:tackle",
        "1:growl",
        "1:acid",
        "1:withdraw",
        "1:curse",
        "1:shellsidearm",
        "9:yawn",
        "12:confusion",
        "15:disable",
        "18:waterpulse",
        "21:headbutt",
        "24:zenheadbutt",
        "27:amnesia",
        "30:surf",
        "33:slackoff",
        "36:psychic",
        "39:psychup",
        "42:raindance",
        "45:healpulse",
        "tm:amnesia",
        "tm:attract",
        "tm:avalanche",
        "tm:blizzard",
        "tm:bodyslam",
        "tm:brickbreak",
        "tm:brine",
        "tm:brutalswing",
        "tm:bulldoze",
        "tm:calmmind",
        "tm:dig",
        "tm:dive",
        "tm:drainpunch",
        "tm:earthquake",
        "tm:endure",
        "tm:facade",
        "tm:fireblast",
        "tm:flamethrower",
        "tm:fling",
        "tm:focusblast",
        "tm:foulplay",
        "tm:futuresight",
        "tm:gigaimpact",
        "tm:grassknot",
        "tm:hail",
        "tm:hydropump",
        "tm:hyperbeam",
        "tm:icebeam",
        "tm:icepunch",
        "tm:icywind",
        "tm:imprison",
        "tm:irondefense",
        "tm:irontail",
        "tm:lightscreen",
        "tm:liquidation",
        "tm:megakick",
        "tm:megapunch",
        "tm:muddywater",
        "tm:mudshot",
        "tm:nastyplot",
        "tm:payday",
        "tm:poisonjab",
        "tm:protect",
        "tm:psychic",
        "tm:psychicterrain",
        "tm:psyshock",
        "tm:raindance",
        "tm:razorshell",
        "tm:rest",
        "tm:round",
        "tm:safeguard",
        "tm:scald",
        "tm:shadowball",
        "tm:skillswap",
        "tm:sleeptalk",
        "tm:sludgebomb",
        "tm:sludgewave",
        "tm:snore",
        "tm:storedpower",
        "tm:substitute",
        "tm:sunnyday",
        "tm:surf",
        "tm:swift",
        "tm:thunderwave",
        "tm:triattack",
        "tm:trick",
        "tm:trickroom",
        "tm:venoshock",
        "tm:weatherball",
        "tm:whirlpool",
        "tm:wonderroom",
        "tm:zenheadbutt",
        "tutor:expandingforce"
      ],
      "pokedex": [
        "cobblemon.form.slowbro-galar.desc1",
        "cobblemon.form.slowbro-galar.desc2"
      ],
      "weight": 705,
      "labels": ["gen1", "galar_regional", "regional"],
      "preEvolution": "slowpoke form=galar"
    }
  ],
  "baseExperienceYield": 172,
  "experienceGroup": "mediumfast",
  "eggCycles": 20,
  "eggGroups": ["monster", "water_1"],
  "behaviour": {
    "moving": {
      "swim": {
        "canSwimInWater": true,
        "canBreatheUnderwater": true
      }
    }
  },
  "drops": {
    "amount": "1",
    "entries": [
      {
        "item": "cobblemon:kings_rock",
        "percentage": 5
      }
    ]
  },
  "moves": [
    "1:stomp",
    "1:tackle",
    "1:growl",
    "1:watergun",
    "1:withdraw",
    "1:curse",
    "9:yawn",
    "12:confusion",
    "15:disable",
    "18:waterpulse",
    "21:headbutt",
    "24:zenheadbutt",
    "27:amnesia",
    "30:surf",
    "33:slackoff",
    "36:psychic",
    "41:psychup",
    "46:raindance",
    "51:healpulse",
    "tm:aerialace",
    "tm:amnesia",
    "tm:attract",
    "tm:avalanche",
    "tm:bide",
    "tm:blizzard",
    "tm:bodypress",
    "tm:bodyslam",
    "tm:brickbreak",
    "tm:brine",
    "tm:bubblebeam",
    "tm:bulldoze",
    "tm:calmmind",
    "tm:captivate",
    "tm:confide",
    "tm:dig",
    "tm:dive",
    "tm:doubleteam",
    "tm:drainpunch",
    "tm:dreameater",
    "tm:earthquake",
    "tm:echoedvoice",
    "tm:endure",
    "tm:facade",
    "tm:fireblast",
    "tm:fissure",
    "tm:flamethrower",
    "tm:flash",
    "tm:fling",
    "tm:focusblast",
    "tm:foulplay",
    "tm:frustration",
    "tm:futuresight",
    "tm:gigaimpact",
    "tm:grassknot",
    "tm:hail",
    "tm:hiddenpower",
    "tm:hydropump",
    "tm:hyperbeam",
    "tm:icebeam",
    "tm:icepunch",
    "tm:icywind",
    "tm:imprison",
    "tm:incinerate",
    "tm:irondefense",
    "tm:irontail",
    "tm:lightscreen",
    "tm:liquidation",
    "tm:megakick",
    "tm:megapunch",
    "tm:muddywater",
    "tm:mudshot",
    "tm:nastyplot",
    "tm:naturalgift",
    "tm:payday",
    "tm:protect",
    "tm:psychic",
    "tm:psychicterrain",
    "tm:psyshock",
    "tm:psywave",
    "tm:rage",
    "tm:raindance",
    "tm:razorshell",
    "tm:reflect",
    "tm:rest",
    "tm:return",
    "tm:rocksmash",
    "tm:round",
    "tm:safeguard",
    "tm:scald",
    "tm:secretpower",
    "tm:seismictoss",
    "tm:shadowball",
    "tm:skillswap",
    "tm:skullbash",
    "tm:sleeptalk",
    "tm:snore",
    "tm:storedpower",
    "tm:strength",
    "tm:submission",
    "tm:substitute",
    "tm:sunnyday",
    "tm:surf",
    "tm:swagger",
    "tm:swift",
    "tm:takedown",
    "tm:teleport",
    "tm:thunderwave",
    "tm:toxic",
    "tm:triattack",
    "tm:trick",
    "tm:trickroom",
    "tm:weatherball",
    "tm:whirlpool",
    "tm:wonderroom",
    "tm:zapcannon",
    "tm:zenheadbutt",
    "tutor:afteryou",
    "tutor:aquatail",
    "tutor:block",
    "tutor:counter",
    "tutor:doubleedge",
    "tutor:dynamicpunch",
    "tutor:expandingforce",
    "tutor:focuspunch",
    "tutor:furycutter",
    "tutor:magiccoat",
    "tutor:mimic",
    "tutor:mudslap",
    "tutor:nightmare",
    "tutor:recycle",
    "tutor:signalbeam",
    "tutor:telekinesis"
  ],
  "labels": ["gen1", "kanto_regional", "regional"],
  "pokedex": ["cobblemon.species.slowbro.desc1", "cobblemon.species.slowbro.desc2"],
  "preEvolution": "slowpoke",
  "evolutions": [],
  "baseScale": 1.1,
  "hitbox": {
    "width": 0.65,
    "height": 1,
    "fixed": false
  },
  "baseFriendship": 50,
  "evYield": {
    "defence": 2
  },
  "height": 16,
  "weight": 785
}
