{
    "name": "staryu",
    "nationalPokedexNumber": 120,
    "primaryType": "water",
    "abilities": [
        "illuminate",
        "naturalcure",
        "h:analytic"
    ],
    "baseStats": {
        "hp": 30,
        "attack": 45,
        "defence": 55,
        "special_attack": 70,
        "special_defence": 55,
        "speed": 85
    },
    "catchRate": 225,
    "maleRatio": -1,
    "shoulderMountable": false,
    "forms": [],
    "baseExperienceYield": 68,
    "experienceGroup": "slow",
    "eggCycles": 20,
    "eggGroups": [
        "water_3"
    ],
    "behaviour": {
        "moving": {
            "swim": {
                "canSwimInWater": true,
                "canBreatheUnderwater": true
            }
        }
    },
    "moves": [
        "1:tackle",
        "1:harden",
        "4:watergun",
        "4:psywave",
        "8:confuseray",
        "12:rapidspin",
        "16:minimize",
        "20:swift",
        "22:camouflage",
        "24:psybeam",
        "27:bubblebeam",
        "28:brine",
        "32:lightscreen",
        "35:reflecttype",
        "36:powergem",
        "40:psychic",
        "44:surf",
        "48:recover",
        "52:cosmicpower",
        "56:hydropump",
        "egg:aurorabeam",
        "egg:barrier",
        "egg:supersonic",
        "tm:attract",
        "tm:bide",
        "tm:blizzard",
        "tm:brine",
        "tm:confide",
        "tm:cosmicpower",
        "tm:curse",
        "tm:dazzlinggleam",
        "tm:dive",
        "tm:doubleteam",
        "tm:endure",
        "tm:facade",
        "tm:flash",
        "tm:flashcannon",
        "tm:frustration",
        "tm:gyroball",
        "tm:hail",
        "tm:headbutt",
        "tm:hiddenpower",
        "tm:hydropump",
        "tm:icebeam",
        "tm:icywind",
        "tm:lightscreen",
        "tm:naturalgift",
        "tm:powergem",
        "tm:protect",
        "tm:psychic",
        "tm:psychup",
        "tm:rage",
        "tm:raindance",
        "tm:reflect",
        "tm:rest",
        "tm:return",
        "tm:round",
        "tm:scald",
        "tm:secretpower",
        "tm:skullbash",
        "tm:sleeptalk",
        "tm:snore",
        "tm:substitute",
        "tm:surf",
        "tm:swagger",
        "tm:swift",
        "tm:takedown",
        "tm:teleport",
        "tm:thunder",
        "tm:thunderbolt",
        "tm:thunderwave",
        "tm:toxic",
        "tm:triattack",
        "tm:waterfall",
        "tm:whirlpool",
        "tm:zapcannon",
        "tutor:doubleedge",
        "tutor:flipturn",
        "tutor:gravity",
        "tutor:magiccoat",
        "tutor:mimic",
        "tutor:painsplit",
        "tutor:recycle",
        "tutor:rollout",
        "tutor:signalbeam",
        "tutor:twister",
        "tutor:waterpulse"
    ],
    "labels": [
        "gen1"
    ],
    "pokedex": [
        "cobblemon.species.staryu.desc1",
        "cobblemon.species.staryu.desc2"
    ],
    "evolutions": [
        {
            "id": "staryu_starmie",
            "variant": "item_interact",
            "result": "starmie",
            "consumeHeldItem": false,
            "learnableMoves": [],
            "requirements": [],
            "requiredContext": "cobblemon:water_stone"
        }
    ],
    "baseScale": 0.9,
    "hitbox": {
        "width": 0.8,
        "height": 1.0,
        "fixed": false
    },
    "baseFriendship": 50,
    "evYield": {
        "speed": 1
    },
    "height": 8,
    "weight": 345
}