{
    "name": "tauros",
    "nationalPokedexNumber": 128,
    "primaryType": "normal",
    "abilities": [
        "intimidate",
        "angerpoint",
        "h:sheerforce"
    ],
    "baseStats": {
        "hp": 75,
        "attack": 100,
        "defence": 95,
        "special_attack": 40,
        "special_defence": 70,
        "speed": 110
    },
    "catchRate": 45,
    "maleRatio": 1.0,
    "shoulderMountable": false,
    "forms": [],
    "baseExperienceYield": 172,
    "experienceGroup": "slow",
    "eggCycles": 20,
    "eggGroups": [
        "field"
    ],
    "drops": {
        "amount": "2",
        "entries": [
            {
                "item": "minecraft:leather",
                "quantityRange": "1-3"
            },
            {
                "item": "minecraft:beef",
                "quantityRange": "2-4"
            }
        ]
    },
    "moves": [
        "1:tackle",
        "1:tailwhip",
        "5:workup",
        "10:payback",
        "12:rage",
        "15:pursuit",
        "15:assurance",
        "20:hornattack",
        "21:stomp",
        "24:leer",
        "25:scaryface",
        "30:zenheadbutt",
        "35:takedown",
        "38:focusenergy",
        "40:rest",
        "45:swagger",
        "50:thrash",
        "55:doubleedge",
        "60:gigaimpact",
        "tm:assurance",
        "tm:attract",
        "tm:bide",
        "tm:blizzard",
        "tm:bodyslam",
        "tm:bulldoze",
        "tm:captivate",
        "tm:closecombat",
        "tm:confide",
        "tm:curse",
        "tm:doubleteam",
        "tm:earthquake",
        "tm:endure",
        "tm:facade",
        "tm:fireblast",
        "tm:fissure",
        "tm:flamethrower",
        "tm:frustration",
        "tm:gigaimpact",
        "tm:headbutt",
        "tm:helpinghand",
        "tm:hiddenpower",
        "tm:highhorsepower",
        "tm:horndrill",
        "tm:hyperbeam",
        "tm:icebeam",
        "tm:icywind",
        "tm:incinerate",
        "tm:ironhead",
        "tm:irontail",
        "tm:megahorn",
        "tm:naturalgift",
        "tm:outrage",
        "tm:payback",
        "tm:protect",
        "tm:raindance",
        "tm:rest",
        "tm:retaliate",
        "tm:return",
        "tm:revenge",
        "tm:reversal",
        "tm:rockclimb",
        "tm:rockslide",
        "tm:rocksmash",
        "tm:rocktomb",
        "tm:round",
        "tm:sandstorm",
        "tm:scaryface",
        "tm:secretpower",
        "tm:skullbash",
        "tm:sleeptalk",
        "tm:smartstrike",
        "tm:snore",
        "tm:solarbeam",
        "tm:stompingtantrum",
        "tm:stoneedge",
        "tm:strength",
        "tm:substitute",
        "tm:sunnyday",
        "tm:surf",
        "tm:throatchop",
        "tm:thunder",
        "tm:thunderbolt",
        "tm:toxic",
        "tm:uproar",
        "tm:whirlpool",
        "tm:wildcharge",
        "tm:workup",
        "tm:zapcannon",
        "tm:zenheadbutt",
        "tutor:endeavor",
        "tutor:lashout",
        "tutor:mimic",
        "tutor:roleplay",
        "tutor:shockwave",
        "tutor:spite",
        "tutor:waterpulse"
    ],
    "labels": [
        "gen1"
    ],
    "pokedex": [
        "cobblemon.species.tauros.desc1",
        "cobblemon.species.tauros.desc2"
    ],
    "evolutions": [],
    "baseScale": 1.0,
    "hitbox": {
        "width": 1.0,
        "height": 1.2,
        "fixed": false
    },
    "baseFriendship": 50,
    "evYield": {
        "attack": 1,
        "speed": 1
    },
    "height": 14,
    "weight": 884
}