{
	"format_version": "1.8.0",
	"animations": {
		"animation.sandslash.ground_idle": {
			"loop": true,
			"bones": {
				"tail": {
					"rotation": [-5, "6*math.sin(q.anim_time*90*2+180)+3*math.sin(q.anim_time*90*1+180)", 0]
				},
				"arm_left": {
					"rotation": ["-10+math.sin(q.anim_time*90*2-150)*2", 60, "20-math.sin(q.anim_time*90*4-30)*3"]
				},
				"arm_right": {
					"rotation": ["-10+math.sin(q.anim_time*90*2-150)*2", -60, "-20+math.sin(q.anim_time*90*4-30)*3"]
				},
				"ear_right": {
					"rotation": [0, 0, "-math.sin(q.anim_time*90*4+90)*2"]
				},
				"ear_left": {
					"rotation": [0, 0, "math.sin(q.anim_time*90*4+90)*2"]
				},
				"torso": {
					"rotation": [0, 0, "math.sin(q.anim_time*90*2-30)*1"],
					"position": [0, "0.1*(math.sin(q.anim_time*90*4-30)*1+1)", 0]
				},
				"forearm_left": {
					"rotation": [0, 0, 45]
				},
				"forearm_right": {
					"rotation": [0, 0, -45]
				},
				"tail2": {
					"rotation": [15, "math.sin(q.anim_time*90*2-60+180)*4+math.sin(q.anim_time*90*1-60+180)*2", 0]
				},
				"tail3": {
					"rotation": [22.5, "math.sin(q.anim_time*90*2-30*2)*8+math.sin(q.anim_time*90*1-30*2)*4", 0]
				},
				"hand_left": {
					"rotation": [15, 0, "70+math.sin(q.anim_time*90*4-30)*1"]
				},
				"hand_right": {
					"rotation": [15, 0, "-70-math.sin(q.anim_time*90*4-30)*1"]
				}
			}
		},
		"animation.sandslash.ground_walk": {
			"loop": true,
			"animation_length": 20.05,
			"bones": {
				"body": {
					"rotation": [
						"math.clamp(math.sin(query.anim_time*180*4/2+20)*1,0.2,2)+math.clamp(-math.sin(query.anim_time*180*4/2+20)*1,0.2,2)+1",
						"math.sin(query.anim_time*90*4+20)*10",
						"math.sin(query.anim_time*90*4+20)*2"
					],
					"position": [
						0,
						"-math.clamp(math.sin(-query.anim_time*90*4+45/2)*0.6,0.1,1)-math.clamp(math.sin(-query.anim_time*90*4+45/2+180)*0.6,0.1,1)+0.95",
						"-math.clamp(math.sin(query.anim_time*90*4)*0.7,0.1,0.6)-math.clamp(math.sin(-query.anim_time*90*4)*0.7,0.1,0.6)+0.2"
					]
				},
				"tail": {
					"rotation": ["-5+math.sin(query.anim_time*90*4*2-30)*3", "math.sin(query.anim_time*90*4-90)*8", 0]
				},
				"arm_left": {
					"rotation": ["-15+math.sin(q.anim_time*90*4*2-150+60)*2", 60, "10-math.sin(q.anim_time*90*4*2-30+60)*5"]
				},
				"arm_right": {
					"rotation": ["-15+math.sin(q.anim_time*90*4*2-150+60)*2", -60, "-10+math.sin(q.anim_time*90*4*2-30+60)*5"]
				},
				"leg_left": {
					"rotation": [
						"-math.clamp(math.sin(query.anim_time*90*4+45)*10,-15,14)+math.clamp(-math.sin(query.anim_time*90*4+180)*12,5,12)-5",
						"-math.clamp(-math.sin(query.anim_time*90*4+180*1)*10,0,10)",
						0
					],
					"position": [
						0,
						"-math.clamp(-math.sin(query.anim_time*90*4+20+180*0)*0.4,0.3,3)-math.clamp(-math.sin(query.anim_time*90*4-120+180)*1.25,0.3,1.2)+1.25-math.clamp(-math.sin(query.anim_time*90*4-60+180)*0.4,0,1.5)+math.clamp(-math.sin(query.anim_time*90*4-35+180*0)*2,1,2)-1.5",
						"-math.clamp(math.sin(query.anim_time*90*4)*0.2,-0.5,1)-math.clamp(math.sin(query.anim_time*90*4)*0.4,-0.8,0)"
					]
				},
				"leg_right": {
					"rotation": [
						"-math.clamp(math.sin(query.anim_time*90*4+45+180)*10,-15,14)+math.clamp(-math.sin(query.anim_time*90*4+180*2)*12,5,12)-5",
						"math.clamp(math.sin(query.anim_time*90*4+180*1)*10,0,10)",
						0
					],
					"position": [
						0,
						"-math.clamp(-math.sin(query.anim_time*90*4+20+180)*0.4,0.3,3)-math.clamp(-math.sin(query.anim_time*90*4-120)*1.25,0.3,1.2)+1.25-math.clamp(-math.sin(query.anim_time*90*4-60)*0.4,0,1.5)+math.clamp(-math.sin(query.anim_time*90*4-35+180)*2,1,2)-1.5",
						"-math.clamp(math.sin(query.anim_time*90*4+180)*0.2,-0.5,1)-math.clamp(math.sin(query.anim_time*90*4+180)*0.4,-0.8,0)"
					]
				},
				"ear_right": {
					"rotation": [0, 0, "math.sin(q.anim_time*90*8)*3"]
				},
				"ear_left": {
					"rotation": [0, 0, "-math.sin(q.anim_time*90*8)*3"]
				},
				"head": {
					"rotation": [
						"-math.clamp(math.sin(query.anim_time*180*4/2+20)*1,0.2,2)-math.clamp(-math.sin(query.anim_time*180*4/2+20)*1,0.2,2)-1",
						"-math.sin(query.anim_time*90*4+20)*7",
						"-math.sin(query.anim_time*90*4+20)*2"
					]
				},
				"torso": {
					"rotation": ["-math.sin(query.anim_time*90*4*2+30)*3+2", 0, "math.sin(query.anim_time*90*4-30)*2"]
				},
				"tail2": {
					"rotation": [15, "math.sin(query.anim_time*90*4-60)*8", 0]
				},
				"foot_right": {
					"rotation": ["-5-math.clamp(math.sin(query.anim_time*90*4-120+180*1)*5,-15,14)", -5, 0]
				},
				"foot_left": {
					"rotation": ["-5-math.clamp(math.sin(query.anim_time*90*4-120+180*0)*5,-15,14)", 5, 0]
				},
				"hand_left": {
					"rotation": [15, 0, "70+math.sin(q.anim_time*90*4*2-30+60)*3"]
				},
				"hand_right": {
					"rotation": [15, 0, "-70-math.sin(q.anim_time*90*4*2-30+60)*3"]
				}
			}
		}
	}
}