{
	"format_version": "1.8.0",
	"animations": {
		"animation.krabby.ground_idle": {
			"loop": true,
			"bones": {
				"leftleg": {
					"rotation": [22.5, -22.5, 0]
				},
				"rightknee": {
					"rotation": [0, 0, 0]
				},
				"rightleg2": {
					"rotation": [22.5, 22.5, 0]
				},
				"leftarm": {
					"rotation": [0, 0, 10.5]
				},
				"leftforearm": {
					"rotation": [0, 22.5, -112.5]
				},
				"lefthand": {
					"rotation": [22.5, 0, 0]
				},
				"rightarm": {
					"rotation": [0, 0, -10.5]
				},
				"rightforearm": {
					"rotation": [0, -22.5, 112.5]
				},
				"righthand": {
					"rotation": [22.5, 0, 0]
				}
			}
		}
	}
}