{
	"format_version": "1.12.0",
	"minecraft:geometry": [
		{
			"description": {
				"identifier": "geometry.crobat",
				"texture_width": 64,
				"texture_height": 64,
				"visible_bounds_width": 4,
				"visible_bounds_height": 2.5,
				"visible_bounds_offset": [0, 0.75, 0]
			},
			"bones": [
				{
					"name": "crobat",
					"pivot": [0, 1, 0],
					"rotation": [15, 0, 0]
				},
				{
					"name": "body",
					"parent": "crobat",
					"pivot": [0, 7.5, 0],
					"cubes": [
						{"origin": [-3.5, 3, -3], "size": [7, 9, 6], "uv": [0, 0]},
						{"origin": [-2, 7.25, -3.025], "size": [4, 2, 0], "inflate": 0.02, "uv": [56, 6]}
					]
				},
				{
					"name": "eyes",
					"parent": "body",
					"pivot": [0, 9.72536, -3.05],
					"cubes": [
						{"origin": [0.25, 8.75, -3.05], "size": [3, 2, 0], "inflate": 0.02, "pivot": [2, 9, -3], "rotation": [0, 0, -5], "uv": [58, 0], "mirror": true},
						{"origin": [-3.25, 8.75, -3.05], "size": [3, 2, 0], "inflate": 0.02, "pivot": [-2, 9, -3], "rotation": [0, 0, 5], "uv": [58, 0]}
					]
				},
				{
					"name": "rightfoot",
					"parent": "body",
					"pivot": [-2, 3, 1],
					"cubes": [
						{"origin": [-3, 0, 1], "size": [2, 3, 0], "inflate": 0.02, "uv": [0, 3]}
					]
				},
				{
					"name": "leftfoot",
					"parent": "body",
					"pivot": [2, 3, 1],
					"cubes": [
						{"origin": [1, 0, 1], "size": [2, 3, 0], "inflate": 0.02, "uv": [0, 0]}
					]
				},
				{
					"name": "rightear",
					"parent": "body",
					"pivot": [-3, 11.5, -1],
					"rotation": [0, 12.5, 12.5],
					"cubes": [
						{"origin": [-10, 10.5, -1], "size": [7, 2, 0], "inflate": 0.02, "uv": [26, 10]}
					]
				},
				{
					"name": "leftear",
					"parent": "body",
					"pivot": [3, 11.5, -1],
					"rotation": [0, -12.5, -12.5],
					"cubes": [
						{"origin": [3, 10.5, -1], "size": [7, 2, 0], "inflate": 0.02, "uv": [26, 12]}
					]
				},
				{
					"name": "righttopwing",
					"parent": "body",
					"pivot": [-3.5, 7, -0.5],
					"rotation": [5, 0, 0],
					"cubes": [
						{"origin": [-18.5, 5.5, -0.5], "size": [15, 7, 0], "inflate": 0.02, "uv": [0, 15]}
					]
				},
				{
					"name": "lefttopwing",
					"parent": "body",
					"pivot": [3.5, 7, -0.5],
					"rotation": [5, 0, 0],
					"cubes": [
						{"origin": [3.5, 5.5, -0.5], "size": [15, 7, 0], "inflate": 0.02, "uv": [0, 22]}
					]
				},
				{
					"name": "rightbottomwing",
					"parent": "body",
					"pivot": [-3.5, 5, 0],
					"rotation": [-7.5, 0, 0],
					"cubes": [
						{"origin": [-12.5, 0.5, 0], "size": [9, 5, 0], "inflate": 0.02, "uv": [26, 5]}
					]
				},
				{
					"name": "leftbottomwing",
					"parent": "body",
					"pivot": [3.5, 5, 0],
					"rotation": [-5, 0, 0],
					"cubes": [
						{"origin": [3.5, 0.5, 0], "size": [9, 5, 0], "inflate": 0.02, "uv": [20, 0]}
					]
				}
			]
		}
	]
}