{
  "parent": "cobblemon:recipes/root",
  "criteria": {
    "has_shulker_shell": {
      "conditions": {
        "items": [
          {
            "items": [
              "minecraft:shulker_shell"
            ]
          }
        ]
      },
      "trigger": "minecraft:inventory_changed"
    },
    "has_netherite_ingot": {
      "conditions": {
        "items": [
          {
            "items": [
              "minecraft:netherite_ingot"
            ]
          }
        ]
      },
      "trigger": "minecraft:inventory_changed"
    },
    "has_nether_star": {
      "conditions": {
        "items": [
          {
            "items": [
              "minecraft:nether_star"
            ]
          }
        ]
      },
      "trigger": "minecraft:inventory_changed"
    },
    "has_the_recipe": {
      "conditions": {
        "recipe": "cobblemon:master_ball"
      },
      "trigger": "minecraft:recipe_unlocked"
    }
  },
  "requirements": [
    [
      "has_shulker_shell",
      "has_netherite_ingot",
      "has_nether_star",
      "has_the_recipe"
    ]
  ],
  "rewards": {
    "recipes": [
      "cobblemon:master_ball"
    ]
  }
}