{
  "parent": "cobblemon:recipes/root",
  "criteria": {
    "has_pink_apricorn": {
      "conditions": {
        "items": [
          {
            "items": [
              "cobblemon:pink_apricorn"
            ]
          }
        ]
      },
      "trigger": "minecraft:inventory_changed"
    },
    "has_copper_ingot": {
      "conditions": {
        "items": [
          {
            "items": [
              "minecraft:copper_ingot"
            ]
          }
        ]
      },
      "trigger": "minecraft:inventory_changed"
    },
    "has_the_recipe": {
      "conditions": {
        "recipe": "cobblemon:roseate_ball"
      },
      "trigger": "minecraft:recipe_unlocked"
    }
  },
  "requirements": [
    [
      "has_pink_apricorn",
      "has_copper_ingot",
      "has_the_recipe"
    ]
  ],
  "rewards": {
    "recipes": [
      "cobblemon:roseate_ball"
    ]
  }
}