{
    "name": "anorith",
    "nationalPokedexNumber": 347,
    "primaryType": "rock",
    "secondaryType": "bug",
    "abilities": [
        "battlearmor",
        "h:swiftswim"
    ],
    "baseStats": {
        "hp": 45,
        "attack": 95,
        "defence": 50,
        "special_attack": 40,
        "special_defence": 50,
        "speed": 75
    },
    "catchRate": 45,
    "maleRatio": 0.875,
    "shoulderMountable": false,
    "forms": [],
    "baseExperienceYield": 71,
    "experienceGroup": "erratic",
    "eggCycles": 30,
    "eggGroups": [
        "water_3"
    ],
    "moves": [
        "1:scratch",
        "1:harden",
        "1:furycutter",
        "4:watergun",
        "4:mudsport",
        "8:smackdown",
        "12:metalclaw",
        "16:ancientpower",
        "20:bugbite",
        "24:brine",
        "28:slash",
        "32:crushclaw",
        "36:rockblast",
        "41:protect",
        "44:xscissor",
        "egg:aquajet",
        "egg:curse",
        "egg:knockoff",
        "egg:rapidspin",
        "egg:sandattack",
        "egg:waterpulse",
        "tm:aerialace",
        "tm:attract",
        "tm:bodyslam",
        "tm:brickbreak",
        "tm:brine",
        "tm:captivate",
        "tm:confide",
        "tm:crosspoison",
        "tm:cut",
        "tm:dig",
        "tm:doubleteam",
        "tm:earthpower",
        "tm:endure",
        "tm:facade",
        "tm:falseswipe",
        "tm:frustration",
        "tm:hiddenpower",
        "tm:honeclaws",
        "tm:irondefense",
        "tm:mudshot",
        "tm:naturalgift",
        "tm:protect",
        "tm:rest",
        "tm:return",
        "tm:rockblast",
        "tm:rockpolish",
        "tm:rockslide",
        "tm:rocksmash",
        "tm:rocktomb",
        "tm:round",
        "tm:sandstorm",
        "tm:screech",
        "tm:secretpower",
        "tm:sleeptalk",
        "tm:snore",
        "tm:stealthrock",
        "tm:strugglebug",
        "tm:substitute",
        "tm:sunnyday",
        "tm:swagger",
        "tm:swordsdance",
        "tm:toxic",
        "tm:xscissor",
        "tutor:doubleedge",
        "tutor:headbutt",
        "tutor:meteorbeam",
        "tutor:mimic",
        "tutor:mudslap",
        "tutor:stringshot"
    ],
    "labels": [
        "gen3"
    ],
    "pokedex": [
        "cobblemon.species.anorith.desc1",
        "cobblemon.species.anorith.desc2"
    ],
    "evolutions": [
        {
            "id": "anorith_armaldo",
            "variant": "level_up",
            "result": "armaldo",
            "consumeHeldItem": false,
            "learnableMoves": [],
            "requirements": [
                {
                    "variant": "level",
                    "minLevel": 40
                }
            ]
        }
    ],
    "baseScale": 1.0,
    "hitbox": {
        "width": 1.0,
        "height": 1.0,
        "fixed": false
    },
    "baseFriendship": 50,
    "evYield": {
        "attack": 1
    },
    "height": 7,
    "weight": 125
}