{
    "name": "aron",
    "nationalPokedexNumber": 304,
    "primaryType": "steel",
    "secondaryType": "rock",
    "abilities": [
        "sturdy",
        "rockhead",
        "h:heavymetal"
    ],
    "baseStats": {
        "hp": 50,
        "attack": 70,
        "defence": 100,
        "special_attack": 40,
        "special_defence": 40,
        "speed": 30
    },
    "catchRate": 180,
    "maleRatio": 0.5,
    "shoulderMountable": false,
    "forms": [],
    "baseExperienceYield": 66,
    "experienceGroup": "slow",
    "eggCycles": 35,
    "eggGroups": [
        "monster"
    ],
    "moves": [
        "1:tackle",
        "1:harden",
        "4:metalclaw",
        "8:rocktomb",
        "12:roar",
        "16:headbutt",
        "20:protect",
        "24:rockslide",
        "28:ironhead",
        "33:metalsound",
        "36:takedown",
        "40:autotomize",
        "44:irontail",
        "48:irondefense",
        "52:heavyslam",
        "56:doubleedge",
        "60:metalburst",
        "egg:curse",
        "egg:dragonrush",
        "egg:endeavor",
        "egg:headsmash",
        "egg:mudslap",
        "egg:smellingsalts",
        "egg:stomp",
        "tm:aerialace",
        "tm:attract",
        "tm:bodypress",
        "tm:bodyslam",
        "tm:bulldoze",
        "tm:captivate",
        "tm:confide",
        "tm:cut",
        "tm:dig",
        "tm:doubleteam",
        "tm:earthpower",
        "tm:earthquake",
        "tm:endure",
        "tm:facade",
        "tm:frustration",
        "tm:heavyslam",
        "tm:hiddenpower",
        "tm:honeclaws",
        "tm:irondefense",
        "tm:ironhead",
        "tm:irontail",
        "tm:naturalgift",
        "tm:protect",
        "tm:raindance",
        "tm:rest",
        "tm:return",
        "tm:reversal",
        "tm:rockpolish",
        "tm:rockslide",
        "tm:rocksmash",
        "tm:rocktomb",
        "tm:round",
        "tm:sandstorm",
        "tm:screech",
        "tm:secretpower",
        "tm:shadowclaw",
        "tm:sleeptalk",
        "tm:snore",
        "tm:stealthrock",
        "tm:strength",
        "tm:substitute",
        "tm:sunnyday",
        "tm:superpower",
        "tm:swagger",
        "tm:toxic",
        "tm:uproar",
        "tutor:ancientpower",
        "tutor:defensecurl",
        "tutor:furycutter",
        "tutor:magnetrise",
        "tutor:mimic",
        "tutor:rollout",
        "tutor:shockwave",
        "tutor:spite",
        "tutor:steelbeam",
        "tutor:steelroller",
        "tutor:waterpulse"
    ],
    "labels": [
        "gen3"
    ],
    "pokedex": [
        "cobblemon.species.aron.desc1",
        "cobblemon.species.aron.desc2"
    ],
    "evolutions": [
        {
            "id": "aron_lairon",
            "variant": "level_up",
            "result": "lairon",
            "consumeHeldItem": false,
            "learnableMoves": [],
            "requirements": [
                {
                    "variant": "level",
                    "minLevel": 32
                }
            ]
        }
    ],
    "baseScale": 1.0,
    "hitbox": {
        "width": 1.0,
        "height": 1.0,
        "fixed": false
    },
    "baseFriendship": 35,
    "evYield": {
        "defence": 1
    },
    "height": 4,
    "weight": 600
}