{
    "name": "camerupt",
    "nationalPokedexNumber": 323,
    "primaryType": "fire",
    "secondaryType": "ground",
    "abilities": [
        "magmaarmor",
        "solidrock",
        "h:angerpoint"
    ],
    "baseStats": {
        "hp": 70,
        "attack": 100,
        "defence": 70,
        "special_attack": 105,
        "special_defence": 75,
        "speed": 40
    },
    "catchRate": 150,
    "maleRatio": 0.5,
    "shoulderMountable": false,
    "forms": [
        {
            "name": "normal"
        },
        {
            "name": "mega",
            "abilities": [
                "sheerforce"
            ],
            "baseStats": {
                "hp": 70,
                "attack": 120,
                "defence": 100,
                "special_attack": 145,
                "special_defence": 105,
                "speed": 20
            },
            "baseExperienceYield": 196,
            "moves": [
                "0:rockslide",
                "1:tackle",
                "1:growl",
                "1:ember",
                "1:fissure",
                "1:focusenergy",
                "1:rockslide",
                "1:eruption",
                "5:ember",
                "8:focusenergy",
                "12:magnitude",
                "15:flameburst",
                "19:amnesia",
                "22:lavaplume",
                "26:earthpower",
                "29:curse",
                "31:takedown",
                "39:yawn",
                "46:earthquake",
                "52:eruption",
                "59:fissure",
                "tm:attract",
                "tm:bulldoze",
                "tm:confide",
                "tm:dig",
                "tm:doubleteam",
                "tm:earthquake",
                "tm:echoedvoice",
                "tm:explosion",
                "tm:facade",
                "tm:fireblast",
                "tm:flamecharge",
                "tm:flamethrower",
                "tm:flashcannon",
                "tm:frustration",
                "tm:gigaimpact",
                "tm:hiddenpower",
                "tm:hyperbeam",
                "tm:incinerate",
                "tm:naturepower",
                "tm:overheat",
                "tm:protect",
                "tm:rest",
                "tm:return",
                "tm:roar",
                "tm:rockpolish",
                "tm:rockslide",
                "tm:rocksmash",
                "tm:rocktomb",
                "tm:round",
                "tm:sandstorm",
                "tm:secretpower",
                "tm:sleeptalk",
                "tm:solarbeam",
                "tm:stoneedge",
                "tm:strength",
                "tm:substitute",
                "tm:sunnyday",
                "tm:swagger",
                "tm:toxic",
                "tm:willowisp",
                "tutor:afteryou",
                "tutor:earthpower",
                "tutor:heatwave",
                "tutor:ironhead",
                "tutor:snore",
                "tutor:stealthrock",
                "tutor:stompingtantrum"
            ],
            "labels": [
                "gen3",
                "mega_evolution"
            ],
            "pokedex": [
                "cobblemon.form.camerupt-mega.desc1",
                "cobblemon.form.camerupt-mega.desc2"
            ],
            "height": 25,
            "weight": 3205
        }
    ],
    "baseExperienceYield": 161,
    "experienceGroup": "mediumfast",
    "eggCycles": 20,
    "eggGroups": [
        "field"
    ],
    "moves": [
        "0:rockslide",
        "1:tackle",
        "1:growl",
        "1:ember",
        "1:fissure",
        "1:focusenergy",
        "1:rockslide",
        "1:eruption",
        "8:ember",
        "8:focusenergy",
        "12:magnitude",
        "15:flameburst",
        "19:amnesia",
        "22:lavaplume",
        "26:earthpower",
        "29:curse",
        "31:takedown",
        "39:yawn",
        "46:earthquake",
        "52:eruption",
        "59:fissure",
        "tm:attract",
        "tm:bulldoze",
        "tm:captivate",
        "tm:confide",
        "tm:dig",
        "tm:doubleteam",
        "tm:earthquake",
        "tm:echoedvoice",
        "tm:endure",
        "tm:explosion",
        "tm:facade",
        "tm:fireblast",
        "tm:flamecharge",
        "tm:flamethrower",
        "tm:flashcannon",
        "tm:frustration",
        "tm:gigaimpact",
        "tm:hiddenpower",
        "tm:hyperbeam",
        "tm:incinerate",
        "tm:naturalgift",
        "tm:naturepower",
        "tm:overheat",
        "tm:protect",
        "tm:rest",
        "tm:return",
        "tm:roar",
        "tm:rockpolish",
        "tm:rockslide",
        "tm:rocksmash",
        "tm:rocktomb",
        "tm:round",
        "tm:sandstorm",
        "tm:secretpower",
        "tm:sleeptalk",
        "tm:solarbeam",
        "tm:stoneedge",
        "tm:strength",
        "tm:substitute",
        "tm:sunnyday",
        "tm:swagger",
        "tm:toxic",
        "tm:willowisp",
        "tutor:afteryou",
        "tutor:bodyslam",
        "tutor:defensecurl",
        "tutor:doubleedge",
        "tutor:earthpower",
        "tutor:headbutt",
        "tutor:heatwave",
        "tutor:ironhead",
        "tutor:mimic",
        "tutor:mudslap",
        "tutor:rollout",
        "tutor:selfdestruct",
        "tutor:snore",
        "tutor:stealthrock",
        "tutor:stompingtantrum"
    ],
    "labels": [
        "gen3"
    ],
    "pokedex": [
        "cobblemon.species.camerupt.desc1",
        "cobblemon.species.camerupt.desc2"
    ],
    "preEvolution": "numel",
    "evolutions": [],
    "baseScale": 1.0,
    "hitbox": {
        "width": 1.0,
        "height": 1.0,
        "fixed": false
    },
    "baseFriendship": 70,
    "evYield": {
        "attack": 1,
        "special_attack": 1
    },
    "height": 19,
    "weight": 2200
}