{
    "name": "delcatty",
    "nationalPokedexNumber": 301,
    "primaryType": "normal",
    "abilities": [
        "cutecharm",
        "normalize",
        "h:wonderskin"
    ],
    "baseStats": {
        "hp": 70,
        "attack": 65,
        "defence": 65,
        "special_attack": 55,
        "special_defence": 55,
        "speed": 90
    },
    "catchRate": 60,
    "maleRatio": 0.25,
    "shoulderMountable": false,
    "forms": [],
    "baseExperienceYield": 140,
    "experienceGroup": "fast",
    "eggCycles": 15,
    "eggGroups": [
        "field",
        "fairy"
    ],
    "moves": [
        "1:doubleslap",
        "1:growl",
        "1:sing",
        "1:attract",
        "1:fakeout",
        "tm:attract",
        "tm:blizzard",
        "tm:calmmind",
        "tm:captivate",
        "tm:chargebeam",
        "tm:confide",
        "tm:dig",
        "tm:doubleteam",
        "tm:dreameater",
        "tm:echoedvoice",
        "tm:endure",
        "tm:facade",
        "tm:flash",
        "tm:frustration",
        "tm:gigaimpact",
        "tm:grassknot",
        "tm:hiddenpower",
        "tm:hyperbeam",
        "tm:icebeam",
        "tm:naturalgift",
        "tm:payback",
        "tm:protect",
        "tm:psychup",
        "tm:raindance",
        "tm:rest",
        "tm:retaliate",
        "tm:return",
        "tm:rocksmash",
        "tm:round",
        "tm:safeguard",
        "tm:secretpower",
        "tm:shadowball",
        "tm:sleeptalk",
        "tm:solarbeam",
        "tm:strength",
        "tm:substitute",
        "tm:sunnyday",
        "tm:swagger",
        "tm:thunder",
        "tm:thunderbolt",
        "tm:thunderwave",
        "tm:toxic",
        "tm:wildcharge",
        "tm:workup",
        "tutor:bodyslam",
        "tutor:covet",
        "tutor:defensecurl",
        "tutor:doubleedge",
        "tutor:headbutt",
        "tutor:healbell",
        "tutor:helpinghand",
        "tutor:hypervoice",
        "tutor:icywind",
        "tutor:irontail",
        "tutor:laserfocus",
        "tutor:lastresort",
        "tutor:mimic",
        "tutor:mudslap",
        "tutor:rollout",
        "tutor:shockwave",
        "tutor:snore",
        "tutor:stompingtantrum",
        "tutor:suckerpunch",
        "tutor:swift",
        "tutor:uproar",
        "tutor:waterpulse",
        "tutor:zenheadbutt"
    ],
    "labels": [
        "gen3"
    ],
    "pokedex": [
        "cobblemon.species.delcatty.desc1",
        "cobblemon.species.delcatty.desc2"
    ],
    "preEvolution": "skitty",
    "evolutions": [],
    "baseScale": 1.0,
    "hitbox": {
        "width": 1.0,
        "height": 1.0,
        "fixed": false
    },
    "baseFriendship": 70,
    "evYield": {
        "hp": 1,
        "speed": 1
    },
    "height": 11,
    "weight": 326
}