{
    "name": "deoxys",
    "nationalPokedexNumber": 386,
    "primaryType": "psychic",
    "abilities": [
        "pressure"
    ],
    "baseStats": {
        "hp": 50,
        "attack": 150,
        "defence": 50,
        "special_attack": 150,
        "special_defence": 50,
        "speed": 150
    },
    "catchRate": 3,
    "maleRatio": -1,
    "shoulderMountable": false,
    "baseExperienceYield": 270,
    "baseFriendship": 0,
    "evYield": {
        "attack": 1,
        "special_attack": 1,
        "speed": 1
    },
    "experienceGroup": "slow",
    "eggCycles": 120,
    "eggGroups": [
        "undiscovered"
    ],
    "moves": [
        "1:wrap",
        "1:leer",
        "7:nightshade",
        "13:teleport",
        "19:knockoff",
        "25:pursuit",
        "31:psychic",
        "37:snatch",
        "43:psychoshift",
        "49:zenheadbutt",
        "55:cosmicpower",
        "61:recover",
        "67:psychoboost",
        "73:hyperbeam",
        "tm:aerialace",
        "tm:avalanche",
        "tm:brickbreak",
        "tm:brutalswing",
        "tm:calmmind",
        "tm:chargebeam",
        "tm:confide",
        "tm:cut",
        "tm:darkpulse",
        "tm:doubleteam",
        "tm:dreameater",
        "tm:endure",
        "tm:energyball",
        "tm:facade",
        "tm:flash",
        "tm:flashcannon",
        "tm:fling",
        "tm:focusblast",
        "tm:frustration",
        "tm:gigaimpact",
        "tm:grassknot",
        "tm:hiddenpower",
        "tm:hyperbeam",
        "tm:icebeam",
        "tm:lightscreen",
        "tm:lowsweep",
        "tm:naturalgift",
        "tm:poisonjab",
        "tm:poweruppunch",
        "tm:protect",
        "tm:psychic",
        "tm:psychup",
        "tm:psyshock",
        "tm:raindance",
        "tm:reflect",
        "tm:rest",
        "tm:return",
        "tm:rockslide",
        "tm:rocksmash",
        "tm:rocktomb",
        "tm:round",
        "tm:safeguard",
        "tm:secretpower",
        "tm:shadowball",
        "tm:sleeptalk",
        "tm:solarbeam",
        "tm:strength",
        "tm:substitute",
        "tm:sunnyday",
        "tm:swagger",
        "tm:taunt",
        "tm:thunder",
        "tm:thunderbolt",
        "tm:thunderwave",
        "tm:torment",
        "tm:toxic",
        "tm:trickroom",
        "tutor:allyswitch",
        "tutor:bind",
        "tutor:bodyslam",
        "tutor:doubleedge",
        "tutor:drainpunch",
        "tutor:firepunch",
        "tutor:focuspunch",
        "tutor:gravity",
        "tutor:headbutt",
        "tutor:icepunch",
        "tutor:icywind",
        "tutor:knockoff",
        "tutor:laserfocus",
        "tutor:lowkick",
        "tutor:magiccoat",
        "tutor:mimic",
        "tutor:mudslap",
        "tutor:nightmare",
        "tutor:recycle",
        "tutor:roleplay",
        "tutor:seismictoss",
        "tutor:shockwave",
        "tutor:signalbeam",
        "tutor:skillswap",
        "tutor:snatch",
        "tutor:snore",
        "tutor:stealthrock",
        "tutor:stompingtantrum",
        "tutor:swift",
        "tutor:telekinesis",
        "tutor:throatchop",
        "tutor:thunderpunch",
        "tutor:trick",
        "tutor:waterpulse",
        "tutor:wonderroom",
        "tutor:zenheadbutt"
    ],
    "labels": [
        "gen3",
        "mythical"
    ],
    "pokedex": [
        "cobblemon.species.deoxys.desc1",
        "cobblemon.species.deoxys.desc2"
    ],
    "height": 17,
    "weight": 608,
    "evolutions": [],
    "forms": [
        {
            "name": "attack",
            "baseStats": {
                "hp": 50,
                "attack": 180,
                "defence": 20,
                "special_attack": 180,
                "special_defence": 20,
                "speed": 150
            },
            "evYield": {
                "attack": 2,
                "special_attack": 1
            },
            "moves": [
                "1:wrap",
                "1:leer",
                "7:nightshade",
                "13:teleport",
                "19:taunt",
                "25:pursuit",
                "31:psychic",
                "37:superpower",
                "43:psychoshift",
                "49:zenheadbutt",
                "55:cosmicpower",
                "61:zapcannon",
                "67:psychoboost",
                "73:hyperbeam",
                "tm:aerialace",
                "tm:avalanche",
                "tm:brickbreak",
                "tm:brutalswing",
                "tm:calmmind",
                "tm:chargebeam",
                "tm:confide",
                "tm:cut",
                "tm:darkpulse",
                "tm:doubleteam",
                "tm:dreameater",
                "tm:endure",
                "tm:energyball",
                "tm:facade",
                "tm:flash",
                "tm:flashcannon",
                "tm:fling",
                "tm:focusblast",
                "tm:frustration",
                "tm:gigaimpact",
                "tm:grassknot",
                "tm:hiddenpower",
                "tm:hyperbeam",
                "tm:icebeam",
                "tm:lightscreen",
                "tm:lowsweep",
                "tm:naturalgift",
                "tm:poisonjab",
                "tm:poweruppunch",
                "tm:protect",
                "tm:psychic",
                "tm:psychup",
                "tm:psyshock",
                "tm:raindance",
                "tm:reflect",
                "tm:rest",
                "tm:return",
                "tm:rockslide",
                "tm:rocksmash",
                "tm:rocktomb",
                "tm:round",
                "tm:safeguard",
                "tm:secretpower",
                "tm:shadowball",
                "tm:sleeptalk",
                "tm:solarbeam",
                "tm:strength",
                "tm:substitute",
                "tm:sunnyday",
                "tm:swagger",
                "tm:taunt",
                "tm:thunder",
                "tm:thunderbolt",
                "tm:thunderwave",
                "tm:torment",
                "tm:toxic",
                "tm:trickroom",
                "tutor:allyswitch",
                "tutor:bind",
                "tutor:bodyslam",
                "tutor:counter",
                "tutor:doubleedge",
                "tutor:drainpunch",
                "tutor:focuspunch",
                "tutor:gravity",
                "tutor:headbutt",
                "tutor:laserfocus",
                "tutor:lowkick",
                "tutor:magiccoat",
                "tutor:megakick",
                "tutor:megapunch",
                "tutor:mimic",
                "tutor:mudslap",
                "tutor:recycle",
                "tutor:roleplay",
                "tutor:seismictoss",
                "tutor:shockwave",
                "tutor:signalbeam",
                "tutor:skillswap",
                "tutor:snatch",
                "tutor:snore",
                "tutor:stealthrock",
                "tutor:stompingtantrum",
                "tutor:superpower",
                "tutor:telekinesis",
                "tutor:throatchop",
                "tutor:trick",
                "tutor:waterpulse",
                "tutor:wonderroom",
                "tutor:zenheadbutt"
            ],
            "pokedex": [
                "cobblemon.form.deoxys-attack.desc1",
                "cobblemon.form.deoxys-attack.desc2"
            ]
        },
        {
            "name": "defense",
            "baseStats": {
                "hp": 50,
                "attack": 70,
                "defence": 160,
                "special_attack": 70,
                "special_defence": 160,
                "speed": 90
            },
            "evYield": {
                "defence": 2,
                "special_defence": 1
            },
            "moves": [
                "1:wrap",
                "1:leer",
                "7:nightshade",
                "13:teleport",
                "19:knockoff",
                "25:spikes",
                "31:psychic",
                "37:snatch",
                "43:psychoshift",
                "49:zenheadbutt",
                "55:amnesia",
                "55:irondefense",
                "61:recover",
                "67:psychoboost",
                "73:counter",
                "73:mirrorcoat",
                "tm:aerialace",
                "tm:avalanche",
                "tm:brickbreak",
                "tm:brutalswing",
                "tm:calmmind",
                "tm:chargebeam",
                "tm:confide",
                "tm:cut",
                "tm:darkpulse",
                "tm:doubleteam",
                "tm:dreameater",
                "tm:endure",
                "tm:energyball",
                "tm:facade",
                "tm:flash",
                "tm:flashcannon",
                "tm:fling",
                "tm:focusblast",
                "tm:frustration",
                "tm:gigaimpact",
                "tm:grassknot",
                "tm:hiddenpower",
                "tm:hyperbeam",
                "tm:icebeam",
                "tm:lightscreen",
                "tm:lowsweep",
                "tm:naturalgift",
                "tm:poisonjab",
                "tm:poweruppunch",
                "tm:protect",
                "tm:psychic",
                "tm:psychup",
                "tm:psyshock",
                "tm:raindance",
                "tm:reflect",
                "tm:rest",
                "tm:return",
                "tm:rockslide",
                "tm:rocksmash",
                "tm:rocktomb",
                "tm:round",
                "tm:safeguard",
                "tm:secretpower",
                "tm:shadowball",
                "tm:sleeptalk",
                "tm:solarbeam",
                "tm:strength",
                "tm:substitute",
                "tm:sunnyday",
                "tm:swagger",
                "tm:taunt",
                "tm:thunder",
                "tm:thunderbolt",
                "tm:thunderwave",
                "tm:torment",
                "tm:toxic",
                "tm:trickroom",
                "tutor:allyswitch",
                "tutor:bind",
                "tutor:bodyslam",
                "tutor:doubleedge",
                "tutor:drainpunch",
                "tutor:focuspunch",
                "tutor:gravity",
                "tutor:headbutt",
                "tutor:irondefense",
                "tutor:knockoff",
                "tutor:laserfocus",
                "tutor:lowkick",
                "tutor:magiccoat",
                "tutor:megakick",
                "tutor:megapunch",
                "tutor:mimic",
                "tutor:mudslap",
                "tutor:recycle",
                "tutor:roleplay",
                "tutor:seismictoss",
                "tutor:shockwave",
                "tutor:signalbeam",
                "tutor:skillswap",
                "tutor:snatch",
                "tutor:snore",
                "tutor:stealthrock",
                "tutor:stompingtantrum",
                "tutor:telekinesis",
                "tutor:throatchop",
                "tutor:trick",
                "tutor:waterpulse",
                "tutor:wonderroom",
                "tutor:zenheadbutt"
            ],
            "pokedex": [
                "cobblemon.form.deoxys-defense.desc1",
                "cobblemon.form.deoxys-defense.desc2"
            ]
        },
        {
            "name": "speed",
            "baseStats": {
                "hp": 50,
                "attack": 95,
                "defence": 90,
                "special_attack": 95,
                "special_defence": 90,
                "speed": 180
            },
            "evYield": {
                "speed": 3
            },
            "moves": [
                "1:wrap",
                "1:leer",
                "7:nightshade",
                "13:doubleteam",
                "19:knockoff",
                "25:pursuit",
                "31:psychic",
                "37:swift",
                "43:psychoshift",
                "49:zenheadbutt",
                "55:agility",
                "61:recover",
                "67:psychoboost",
                "73:extremespeed",
                "tm:aerialace",
                "tm:avalanche",
                "tm:brickbreak",
                "tm:brutalswing",
                "tm:calmmind",
                "tm:chargebeam",
                "tm:confide",
                "tm:cut",
                "tm:darkpulse",
                "tm:doubleteam",
                "tm:dreameater",
                "tm:endure",
                "tm:energyball",
                "tm:facade",
                "tm:flash",
                "tm:flashcannon",
                "tm:fling",
                "tm:focusblast",
                "tm:frustration",
                "tm:gigaimpact",
                "tm:grassknot",
                "tm:hiddenpower",
                "tm:hyperbeam",
                "tm:icebeam",
                "tm:lightscreen",
                "tm:lowsweep",
                "tm:naturalgift",
                "tm:poisonjab",
                "tm:poweruppunch",
                "tm:protect",
                "tm:psychic",
                "tm:psychup",
                "tm:psyshock",
                "tm:raindance",
                "tm:reflect",
                "tm:rest",
                "tm:return",
                "tm:rockslide",
                "tm:rocksmash",
                "tm:rocktomb",
                "tm:round",
                "tm:safeguard",
                "tm:secretpower",
                "tm:shadowball",
                "tm:sleeptalk",
                "tm:solarbeam",
                "tm:strength",
                "tm:substitute",
                "tm:sunnyday",
                "tm:swagger",
                "tm:taunt",
                "tm:thunder",
                "tm:thunderbolt",
                "tm:thunderwave",
                "tm:torment",
                "tm:toxic",
                "tm:trickroom",
                "tutor:allyswitch",
                "tutor:bind",
                "tutor:bodyslam",
                "tutor:counter",
                "tutor:doubleedge",
                "tutor:drainpunch",
                "tutor:dynamicpunch",
                "tutor:firepunch",
                "tutor:focuspunch",
                "tutor:gravity",
                "tutor:headbutt",
                "tutor:icepunch",
                "tutor:icywind",
                "tutor:knockoff",
                "tutor:laserfocus",
                "tutor:lowkick",
                "tutor:magiccoat",
                "tutor:megakick",
                "tutor:megapunch",
                "tutor:mimic",
                "tutor:mudslap",
                "tutor:recycle",
                "tutor:roleplay",
                "tutor:seismictoss",
                "tutor:shockwave",
                "tutor:signalbeam",
                "tutor:skillswap",
                "tutor:snatch",
                "tutor:snore",
                "tutor:stealthrock",
                "tutor:stompingtantrum",
                "tutor:telekinesis",
                "tutor:throatchop",
                "tutor:thunderpunch",
                "tutor:trick",
                "tutor:waterpulse",
                "tutor:wonderroom",
                "tutor:zenheadbutt"
            ],
            "pokedex": [
                "cobblemon.form.deoxys-speed.desc1",
                "cobblemon.form.deoxys-speed.desc2"
            ]
        }
    ]
}