{
    "name": "flygon",
    "nationalPokedexNumber": 330,
    "primaryType": "ground",
    "secondaryType": "dragon",
    "abilities": [
        "levitate"
    ],
    "baseStats": {
        "hp": 80,
        "attack": 100,
        "defence": 80,
        "special_attack": 80,
        "special_defence": 80,
        "speed": 100
    },
    "catchRate": 45,
    "maleRatio": 0.5,
    "shoulderMountable": false,
    "forms": [],
    "baseExperienceYield": 260,
    "experienceGroup": "mediumslow",
    "eggCycles": 20,
    "eggGroups": [
        "bug",
        "dragon"
    ],
    "moves": [
        "0:dragonclaw",
        "1:sandattack",
        "1:bite",
        "1:supersonic",
        "1:sonicboom",
        "1:fissure",
        "1:dig",
        "1:bide",
        "1:feintattack",
        "1:dragonbreath",
        "1:crunch",
        "1:superpower",
        "1:astonish",
        "1:dragonclaw",
        "1:dragondance",
        "1:feint",
        "1:bulldoze",
        "1:laserfocus",
        "12:mudslap",
        "16:sandtomb",
        "20:dragontail",
        "24:screech",
        "28:bugbuzz",
        "32:sandstorm",
        "38:earthpower",
        "44:earthquake",
        "52:uproar",
        "60:dragonrush",
        "68:boomburst",
        "tm:aerialace",
        "tm:airslash",
        "tm:attract",
        "tm:bodyslam",
        "tm:breakingswipe",
        "tm:brutalswing",
        "tm:bugbuzz",
        "tm:bulldoze",
        "tm:captivate",
        "tm:confide",
        "tm:crunch",
        "tm:dig",
        "tm:doubleteam",
        "tm:dragonclaw",
        "tm:dragondance",
        "tm:dragonpulse",
        "tm:earthpower",
        "tm:earthquake",
        "tm:endure",
        "tm:facade",
        "tm:fireblast",
        "tm:firepunch",
        "tm:firespin",
        "tm:flamethrower",
        "tm:fly",
        "tm:focusenergy",
        "tm:frustration",
        "tm:gigadrain",
        "tm:gigaimpact",
        "tm:heatwave",
        "tm:hiddenpower",
        "tm:honeclaws",
        "tm:hyperbeam",
        "tm:incinerate",
        "tm:irontail",
        "tm:megakick",
        "tm:megapunch",
        "tm:mudshot",
        "tm:naturalgift",
        "tm:outrage",
        "tm:poweruppunch",
        "tm:protect",
        "tm:rest",
        "tm:return",
        "tm:rockslide",
        "tm:rocksmash",
        "tm:rocktomb",
        "tm:roost",
        "tm:round",
        "tm:sandstorm",
        "tm:sandtomb",
        "tm:screech",
        "tm:secretpower",
        "tm:silverwind",
        "tm:sleeptalk",
        "tm:snore",
        "tm:solarbeam",
        "tm:steelwing",
        "tm:stoneedge",
        "tm:strength",
        "tm:strugglebug",
        "tm:substitute",
        "tm:sunnyday",
        "tm:superpower",
        "tm:swagger",
        "tm:swift",
        "tm:throatchop",
        "tm:thunderpunch",
        "tm:toxic",
        "tm:uproar",
        "tm:uturn",
        "tutor:aircutter",
        "tutor:bugbite",
        "tutor:defog",
        "tutor:doubleedge",
        "tutor:dracometeor",
        "tutor:dualwingbeat",
        "tutor:furycutter",
        "tutor:headbutt",
        "tutor:mimic",
        "tutor:ominouswind",
        "tutor:scaleshot",
        "tutor:scorchingsands",
        "tutor:signalbeam",
        "tutor:tailwind",
        "tutor:twister"
    ],
    "labels": [
        "gen3"
    ],
    "pokedex": [
        "cobblemon.species.flygon.desc1",
        "cobblemon.species.flygon.desc2"
    ],
    "preEvolution": "vibrava",
    "evolutions": [],
    "baseScale": 1.0,
    "hitbox": {
        "width": 1.0,
        "height": 1.0,
        "fixed": false
    },
    "baseFriendship": 50,
    "evYield": {
        "attack": 1,
        "speed": 2
    },
    "height": 20,
    "weight": 820
}