{
    "name": "groudon",
    "nationalPokedexNumber": 383,
    "primaryType": "ground",
    "abilities": [
        "drought"
    ],
    "baseStats": {
        "hp": 100,
        "attack": 150,
        "defence": 140,
        "special_attack": 100,
        "special_defence": 90,
        "speed": 90
    },
    "catchRate": 3,
    "maleRatio": -1,
    "shoulderMountable": false,
    "forms": [
        {
            "name": "primal",
            "secondaryType": "fire",
            "abilities": [
                "desolateland"
            ],
            "baseStats": {
                "hp": 100,
                "attack": 180,
                "defence": 160,
                "special_attack": 150,
                "special_defence": 90,
                "speed": 90
            },
            "baseExperienceYield": 347,
            "moves": [
                "1:ancientpower",
                "1:mudshot",
                "5:scaryface",
                "15:earthpower",
                "20:lavaplume",
                "30:rest",
                "35:earthquake",
                "45:precipiceblades",
                "50:bulkup",
                "60:solarbeam",
                "65:fissure",
                "75:fireblast",
                "80:hammerarm",
                "90:eruption",
                "tm:aerialace",
                "tm:brickbreak",
                "tm:brutalswing",
                "tm:bulkup",
                "tm:bulldoze",
                "tm:confide",
                "tm:cut",
                "tm:dig",
                "tm:doubleteam",
                "tm:dragonclaw",
                "tm:dragontail",
                "tm:earthquake",
                "tm:facade",
                "tm:fireblast",
                "tm:flamethrower",
                "tm:fling",
                "tm:focusblast",
                "tm:frustration",
                "tm:gigaimpact",
                "tm:hiddenpower",
                "tm:honeclaws",
                "tm:hyperbeam",
                "tm:incinerate",
                "tm:overheat",
                "tm:poweruppunch",
                "tm:protect",
                "tm:psychup",
                "tm:rest",
                "tm:return",
                "tm:roar",
                "tm:rockpolish",
                "tm:rockslide",
                "tm:rocksmash",
                "tm:rocktomb",
                "tm:round",
                "tm:safeguard",
                "tm:sandstorm",
                "tm:secretpower",
                "tm:shadowclaw",
                "tm:sleeptalk",
                "tm:smackdown",
                "tm:solarbeam",
                "tm:stoneedge",
                "tm:strength",
                "tm:substitute",
                "tm:sunnyday",
                "tm:swagger",
                "tm:swordsdance",
                "tm:thunder",
                "tm:thunderbolt",
                "tm:thunderwave",
                "tm:toxic",
                "tutor:block",
                "tutor:dragonpulse",
                "tutor:earthpower",
                "tutor:firepunch",
                "tutor:ironhead",
                "tutor:irontail",
                "tutor:shockwave",
                "tutor:snore",
                "tutor:stealthrock",
                "tutor:stompingtantrum",
                "tutor:thunderpunch",
                "tutor:uproar"
            ],
            "pokedex": [
                "cobblemon.form.groudon-primal.desc1",
                "cobblemon.form.groudon-primal.desc2"
            ],
            "height": 50,
            "weight": 9997
        }
    ],
    "baseExperienceYield": 335,
    "experienceGroup": "slow",
    "eggCycles": 120,
    "eggGroups": [
        "undiscovered"
    ],
    "moves": [
        "1:scaryface",
        "1:ancientpower",
        "1:mudshot",
        "1:lavaplume",
        "9:earthpower",
        "18:bulkup",
        "20:slash",
        "27:earthquake",
        "36:hammerarm",
        "45:fissure",
        "54:rest",
        "63:precipiceblades",
        "72:fireblast",
        "81:solarbeam",
        "90:eruption",
        "tm:aerialace",
        "tm:bodyslam",
        "tm:brickbreak",
        "tm:brutalswing",
        "tm:bulkup",
        "tm:bulldoze",
        "tm:confide",
        "tm:cut",
        "tm:dig",
        "tm:doubleteam",
        "tm:dragonclaw",
        "tm:dragonpulse",
        "tm:dragontail",
        "tm:earthpower",
        "tm:earthquake",
        "tm:endure",
        "tm:facade",
        "tm:fireblast",
        "tm:firepunch",
        "tm:flamethrower",
        "tm:fling",
        "tm:focusblast",
        "tm:frustration",
        "tm:gigaimpact",
        "tm:heatcrash",
        "tm:heavyslam",
        "tm:hiddenpower",
        "tm:highhorsepower",
        "tm:honeclaws",
        "tm:hyperbeam",
        "tm:incinerate",
        "tm:ironhead",
        "tm:irontail",
        "tm:megakick",
        "tm:megapunch",
        "tm:mudshot",
        "tm:naturalgift",
        "tm:overheat",
        "tm:poweruppunch",
        "tm:protect",
        "tm:psychup",
        "tm:rest",
        "tm:return",
        "tm:roar",
        "tm:rockclimb",
        "tm:rockpolish",
        "tm:rockslide",
        "tm:rocksmash",
        "tm:rocktomb",
        "tm:round",
        "tm:safeguard",
        "tm:sandstorm",
        "tm:scaryface",
        "tm:secretpower",
        "tm:shadowclaw",
        "tm:sleeptalk",
        "tm:smackdown",
        "tm:snore",
        "tm:solarbeam",
        "tm:stealthrock",
        "tm:stompingtantrum",
        "tm:stoneedge",
        "tm:strength",
        "tm:substitute",
        "tm:sunnyday",
        "tm:swagger",
        "tm:swordsdance",
        "tm:thunder",
        "tm:thunderbolt",
        "tm:thunderpunch",
        "tm:thunderwave",
        "tm:toxic",
        "tm:uproar",
        "tutor:block",
        "tutor:counter",
        "tutor:defensecurl",
        "tutor:doubleedge",
        "tutor:dynamicpunch",
        "tutor:furycutter",
        "tutor:headbutt",
        "tutor:mimic",
        "tutor:mudslap",
        "tutor:rollout",
        "tutor:scorchingsands",
        "tutor:seismictoss",
        "tutor:shockwave",
        "tutor:swift"
    ],
    "labels": [
        "gen3",
        "legendary"
    ],
    "pokedex": [
        "cobblemon.species.groudon.desc1",
        "cobblemon.species.groudon.desc2"
    ],
    "evolutions": [],
    "baseScale": 1.0,
    "hitbox": {
        "width": 1.0,
        "height": 1.0,
        "fixed": false
    },
    "baseFriendship": 0,
    "evYield": {
        "attack": 3
    },
    "height": 35,
    "weight": 9500
}