{
    "name": "masquerain",
    "nationalPokedexNumber": 284,
    "primaryType": "bug",
    "secondaryType": "flying",
    "abilities": [
        "intimidate",
        "h:unnerve"
    ],
    "baseStats": {
        "hp": 70,
        "attack": 60,
        "defence": 62,
        "special_attack": 100,
        "special_defence": 82,
        "speed": 80
    },
    "catchRate": 75,
    "maleRatio": 0.5,
    "shoulderMountable": false,
    "forms": [],
    "baseExperienceYield": 159,
    "experienceGroup": "mediumfast",
    "eggCycles": 15,
    "eggGroups": [
        "water_1",
        "bug"
    ],
    "moves": [
        "1:whirlwind",
        "1:quickattack",
        "1:bubble",
        "1:sweetscent",
        "1:watersport",
        "1:bugbuzz",
        "1:ominouswind",
        "1:quiverdance",
        "6:quickattack",
        "9:sweetscent",
        "14:watersport",
        "17:gust",
        "22:scaryface",
        "22:aircutter",
        "26:stunspore",
        "32:silverwind",
        "38:airslash",
        "42:bugbuzz",
        "48:whirlwind",
        "52:quiverdance",
        "tm:aerialace",
        "tm:attract",
        "tm:blizzard",
        "tm:captivate",
        "tm:confide",
        "tm:doubleteam",
        "tm:endure",
        "tm:energyball",
        "tm:facade",
        "tm:flash",
        "tm:frustration",
        "tm:gigaimpact",
        "tm:hiddenpower",
        "tm:hyperbeam",
        "tm:icebeam",
        "tm:infestation",
        "tm:naturalgift",
        "tm:protect",
        "tm:psychup",
        "tm:raindance",
        "tm:rest",
        "tm:return",
        "tm:roost",
        "tm:round",
        "tm:scald",
        "tm:secretpower",
        "tm:shadowball",
        "tm:sleeptalk",
        "tm:solarbeam",
        "tm:strugglebug",
        "tm:substitute",
        "tm:sunnyday",
        "tm:swagger",
        "tm:thief",
        "tm:toxic",
        "tm:uturn",
        "tutor:bugbite",
        "tutor:defog",
        "tutor:doubleedge",
        "tutor:gigadrain",
        "tutor:icywind",
        "tutor:liquidation",
        "tutor:mimic",
        "tutor:mudslap",
        "tutor:nightmare",
        "tutor:signalbeam",
        "tutor:snore",
        "tutor:stringshot",
        "tutor:swift",
        "tutor:tailwind",
        "tutor:twister",
        "tutor:waterpulse"
    ],
    "labels": [
        "gen3"
    ],
    "pokedex": [
        "cobblemon.species.masquerain.desc1",
        "cobblemon.species.masquerain.desc2"
    ],
    "preEvolution": "surskit",
    "evolutions": [],
    "baseScale": 1.0,
    "hitbox": {
        "width": 1.0,
        "height": 1.0,
        "fixed": false
    },
    "baseFriendship": 70,
    "evYield": {
        "special_attack": 1,
        "special_defence": 1
    },
    "height": 8,
    "weight": 36
}