{
    "name": "meditite",
    "nationalPokedexNumber": 307,
    "primaryType": "fighting",
    "secondaryType": "psychic",
    "abilities": [
        "purepower",
        "h:telepathy"
    ],
    "baseStats": {
        "hp": 30,
        "attack": 40,
        "defence": 55,
        "special_attack": 40,
        "special_defence": 55,
        "speed": 60
    },
    "catchRate": 180,
    "maleRatio": 0.5,
    "shoulderMountable": false,
    "forms": [],
    "baseExperienceYield": 56,
    "experienceGroup": "mediumfast",
    "eggCycles": 20,
    "eggGroups": [
        "human_like"
    ],
    "moves": [
        "1:bide",
        "4:meditate",
        "7:confusion",
        "9:detect",
        "12:endure",
        "15:feint",
        "17:forcepalm",
        "20:hiddenpower",
        "23:calmmind",
        "25:mindreader",
        "28:highjumpkick",
        "31:psychup",
        "33:acupressure",
        "36:powertrick",
        "39:reversal",
        "41:recover",
        "44:counter",
        "egg:batonpass",
        "egg:bulletpunch",
        "egg:drainpunch",
        "egg:dynamicpunch",
        "egg:fakeout",
        "egg:firepunch",
        "egg:foresight",
        "egg:guardswap",
        "egg:icepunch",
        "egg:powerswap",
        "egg:psychocut",
        "egg:quickguard",
        "egg:secretpower",
        "egg:thunderpunch",
        "tm:attract",
        "tm:brickbreak",
        "tm:bulkup",
        "tm:calmmind",
        "tm:captivate",
        "tm:confide",
        "tm:doubleteam",
        "tm:dreameater",
        "tm:facade",
        "tm:flash",
        "tm:fling",
        "tm:focusblast",
        "tm:frustration",
        "tm:grassknot",
        "tm:hiddenpower",
        "tm:lightscreen",
        "tm:lowsweep",
        "tm:naturalgift",
        "tm:poisonjab",
        "tm:poweruppunch",
        "tm:protect",
        "tm:psychic",
        "tm:psychup",
        "tm:psyshock",
        "tm:raindance",
        "tm:reflect",
        "tm:rest",
        "tm:retaliate",
        "tm:return",
        "tm:rockslide",
        "tm:rocksmash",
        "tm:rocktomb",
        "tm:round",
        "tm:shadowball",
        "tm:sleeptalk",
        "tm:strength",
        "tm:substitute",
        "tm:sunnyday",
        "tm:swagger",
        "tm:toxic",
        "tm:workup",
        "tutor:bodyslam",
        "tutor:doubleedge",
        "tutor:drainpunch",
        "tutor:firepunch",
        "tutor:focuspunch",
        "tutor:gravity",
        "tutor:headbutt",
        "tutor:helpinghand",
        "tutor:icepunch",
        "tutor:lowkick",
        "tutor:magiccoat",
        "tutor:megakick",
        "tutor:megapunch",
        "tutor:metronome",
        "tutor:mimic",
        "tutor:mudslap",
        "tutor:painsplit",
        "tutor:recycle",
        "tutor:roleplay",
        "tutor:seismictoss",
        "tutor:signalbeam",
        "tutor:snore",
        "tutor:swift",
        "tutor:telekinesis",
        "tutor:thunderpunch",
        "tutor:trick",
        "tutor:vacuumwave",
        "tutor:zenheadbutt"
    ],
    "labels": [
        "gen3"
    ],
    "pokedex": [
        "cobblemon.species.meditite.desc1",
        "cobblemon.species.meditite.desc2"
    ],
    "evolutions": [
        {
            "id": "meditite_medicham",
            "variant": "level_up",
            "result": "medicham",
            "consumeHeldItem": false,
            "learnableMoves": [],
            "requirements": [
                {
                    "variant": "level",
                    "minLevel": 37
                }
            ]
        }
    ],
    "baseScale": 1.0,
    "hitbox": {
        "width": 1.0,
        "height": 1.0,
        "fixed": false
    },
    "baseFriendship": 70,
    "evYield": {
        "speed": 1
    },
    "height": 6,
    "weight": 112
}