{
    "name": "mightyena",
    "nationalPokedexNumber": 262,
    "primaryType": "dark",
    "abilities": [
        "intimidate",
        "quickfeet",
        "h:moxie"
    ],
    "baseStats": {
        "hp": 70,
        "attack": 90,
        "defence": 70,
        "special_attack": 60,
        "special_defence": 60,
        "speed": 70
    },
    "catchRate": 127,
    "maleRatio": 0.5,
    "shoulderMountable": false,
    "forms": [],
    "baseExperienceYield": 147,
    "experienceGroup": "mediumfast",
    "eggCycles": 15,
    "eggGroups": [
        "field"
    ],
    "moves": [
        "0:snarl",
        "1:sandattack",
        "1:tackle",
        "1:bite",
        "1:thief",
        "1:crunch",
        "1:howl",
        "1:thunderfang",
        "1:icefang",
        "1:firefang",
        "1:snarl",
        "4:howl",
        "7:sandattack",
        "10:bite",
        "13:odorsleuth",
        "16:roar",
        "20:swagger",
        "24:assurance",
        "28:scaryface",
        "32:embargo",
        "36:taunt",
        "40:crunch",
        "44:yawn",
        "48:takedown",
        "52:suckerpunch",
        "56:playrough",
        "tm:attract",
        "tm:captivate",
        "tm:confide",
        "tm:darkpulse",
        "tm:dig",
        "tm:doubleteam",
        "tm:embargo",
        "tm:endure",
        "tm:facade",
        "tm:frustration",
        "tm:gigaimpact",
        "tm:hiddenpower",
        "tm:hyperbeam",
        "tm:incinerate",
        "tm:naturalgift",
        "tm:payback",
        "tm:protect",
        "tm:raindance",
        "tm:rest",
        "tm:retaliate",
        "tm:return",
        "tm:roar",
        "tm:rocksmash",
        "tm:round",
        "tm:secretpower",
        "tm:shadowball",
        "tm:sleeptalk",
        "tm:snarl",
        "tm:strength",
        "tm:substitute",
        "tm:sunnyday",
        "tm:swagger",
        "tm:taunt",
        "tm:thief",
        "tm:torment",
        "tm:toxic",
        "tutor:bodyslam",
        "tutor:counter",
        "tutor:covet",
        "tutor:doubleedge",
        "tutor:foulplay",
        "tutor:headbutt",
        "tutor:hypervoice",
        "tutor:irontail",
        "tutor:laserfocus",
        "tutor:mimic",
        "tutor:mudslap",
        "tutor:psychup",
        "tutor:snatch",
        "tutor:snore",
        "tutor:spite",
        "tutor:superfang",
        "tutor:throatchop",
        "tutor:uproar"
    ],
    "labels": [
        "gen3"
    ],
    "pokedex": [
        "cobblemon.species.mightyena.desc1",
        "cobblemon.species.mightyena.desc2"
    ],
    "preEvolution": "poochyena",
    "evolutions": [],
    "baseScale": 1.0,
    "hitbox": {
        "width": 1.0,
        "height": 1.0,
        "fixed": false
    },
    "baseFriendship": 70,
    "evYield": {
        "attack": 2
    },
    "height": 10,
    "weight": 370
}