{
    "name": "sableye",
    "nationalPokedexNumber": 302,
    "primaryType": "dark",
    "secondaryType": "ghost",
    "abilities": [
        "keeneye",
        "stall",
        "h:prankster"
    ],
    "baseStats": {
        "hp": 50,
        "attack": 75,
        "defence": 75,
        "special_attack": 65,
        "special_defence": 65,
        "speed": 50
    },
    "catchRate": 45,
    "maleRatio": 0.5,
    "shoulderMountable": false,
    "forms": [
        {
            "name": "normal"
        },
        {
            "name": "mega",
            "abilities": [
                "magicbounce"
            ],
            "baseStats": {
                "hp": 50,
                "attack": 85,
                "defence": 125,
                "special_attack": 85,
                "special_defence": 115,
                "speed": 20
            },
            "baseExperienceYield": 168,
            "moves": [
                "1:scratch",
                "1:leer",
                "4:foresight",
                "6:nightshade",
                "9:astonish",
                "11:furyswipes",
                "14:detect",
                "16:shadowsneak",
                "19:feintattack",
                "21:fakeout",
                "24:punishment",
                "26:knockoff",
                "29:shadowclaw",
                "31:confuseray",
                "34:zenheadbutt",
                "36:powergem",
                "39:shadowball",
                "41:foulplay",
                "44:quash",
                "46:meanlook",
                "egg:captivate",
                "egg:feint",
                "egg:flatter",
                "egg:imprison",
                "egg:meanlook",
                "egg:metalburst",
                "egg:moonlight",
                "egg:nastyplot",
                "egg:recover",
                "egg:suckerpunch",
                "egg:trick",
                "tm:aerialace",
                "tm:attract",
                "tm:brickbreak",
                "tm:calmmind",
                "tm:confide",
                "tm:cut",
                "tm:darkpulse",
                "tm:dazzlinggleam",
                "tm:dig",
                "tm:doubleteam",
                "tm:dreameater",
                "tm:embargo",
                "tm:facade",
                "tm:flash",
                "tm:fling",
                "tm:frustration",
                "tm:hiddenpower",
                "tm:honeclaws",
                "tm:incinerate",
                "tm:lowsweep",
                "tm:payback",
                "tm:poisonjab",
                "tm:poweruppunch",
                "tm:protect",
                "tm:psychic",
                "tm:psychup",
                "tm:quash",
                "tm:raindance",
                "tm:rest",
                "tm:retaliate",
                "tm:return",
                "tm:rocksmash",
                "tm:rocktomb",
                "tm:round",
                "tm:secretpower",
                "tm:shadowball",
                "tm:shadowclaw",
                "tm:sleeptalk",
                "tm:snarl",
                "tm:substitute",
                "tm:sunnyday",
                "tm:swagger",
                "tm:taunt",
                "tm:thief",
                "tm:torment",
                "tm:toxic",
                "tm:willowisp",
                "tutor:allyswitch",
                "tutor:firepunch",
                "tutor:focuspunch",
                "tutor:foulplay",
                "tutor:gravity",
                "tutor:icepunch",
                "tutor:icywind",
                "tutor:knockoff",
                "tutor:lowkick",
                "tutor:magiccoat",
                "tutor:painsplit",
                "tutor:roleplay",
                "tutor:shockwave",
                "tutor:signalbeam",
                "tutor:snatch",
                "tutor:snore",
                "tutor:spite",
                "tutor:telekinesis",
                "tutor:thunderpunch",
                "tutor:trick",
                "tutor:waterpulse",
                "tutor:wonderroom",
                "tutor:zenheadbutt"
            ],
            "labels": [
                "gen3",
                "mega_evolution"
            ],
            "pokedex": [
                "cobblemon.form.sableye-mega.desc1",
                "cobblemon.form.sableye-mega.desc2"
            ],
            "weight": 1610
        }
    ],
    "baseExperienceYield": 133,
    "experienceGroup": "mediumslow",
    "eggCycles": 25,
    "eggGroups": [
        "human_like"
    ],
    "moves": [
        "1:scratch",
        "1:leer",
        "3:astonish",
        "4:foresight",
        "6:confuseray",
        "9:shadowsneak",
        "12:fakeout",
        "15:disable",
        "18:detect",
        "19:feintattack",
        "21:nightshade",
        "24:furyswipes",
        "24:punishment",
        "27:knockoff",
        "30:quash",
        "33:shadowclaw",
        "36:meanlook",
        "39:powergem",
        "42:zenheadbutt",
        "45:shadowball",
        "48:foulplay",
        "egg:captivate",
        "egg:feint",
        "egg:flatter",
        "egg:metalburst",
        "egg:moonlight",
        "egg:recover",
        "egg:suckerpunch",
        "egg:torment",
        "tm:aerialace",
        "tm:allyswitch",
        "tm:attract",
        "tm:bodyslam",
        "tm:brickbreak",
        "tm:calmmind",
        "tm:confide",
        "tm:cut",
        "tm:darkpulse",
        "tm:dazzlinggleam",
        "tm:dig",
        "tm:doubleteam",
        "tm:drainpunch",
        "tm:dreameater",
        "tm:embargo",
        "tm:encore",
        "tm:endure",
        "tm:facade",
        "tm:firepunch",
        "tm:flash",
        "tm:fling",
        "tm:foulplay",
        "tm:frustration",
        "tm:gyroball",
        "tm:helpinghand",
        "tm:hex",
        "tm:hiddenpower",
        "tm:honeclaws",
        "tm:icepunch",
        "tm:icywind",
        "tm:imprison",
        "tm:incinerate",
        "tm:lowkick",
        "tm:lowsweep",
        "tm:megakick",
        "tm:megapunch",
        "tm:metronome",
        "tm:nastyplot",
        "tm:naturalgift",
        "tm:payback",
        "tm:poisonjab",
        "tm:powergem",
        "tm:poweruppunch",
        "tm:protect",
        "tm:psychic",
        "tm:psychup",
        "tm:raindance",
        "tm:rest",
        "tm:retaliate",
        "tm:return",
        "tm:rocksmash",
        "tm:rocktomb",
        "tm:round",
        "tm:secretpower",
        "tm:shadowball",
        "tm:shadowclaw",
        "tm:sleeptalk",
        "tm:snarl",
        "tm:snore",
        "tm:substitute",
        "tm:sunnyday",
        "tm:swagger",
        "tm:taunt",
        "tm:thief",
        "tm:thunderpunch",
        "tm:toxic",
        "tm:trick",
        "tm:willowisp",
        "tm:wonderroom",
        "tm:zenheadbutt",
        "tutor:counter",
        "tutor:doubleedge",
        "tutor:dynamicpunch",
        "tutor:focuspunch",
        "tutor:furycutter",
        "tutor:gravity",
        "tutor:headbutt",
        "tutor:lashout",
        "tutor:magiccoat",
        "tutor:mimic",
        "tutor:mudslap",
        "tutor:nightmare",
        "tutor:ominouswind",
        "tutor:painsplit",
        "tutor:poltergeist",
        "tutor:roleplay",
        "tutor:seismictoss",
        "tutor:shockwave",
        "tutor:signalbeam",
        "tutor:snatch",
        "tutor:spite",
        "tutor:telekinesis",
        "tutor:waterpulse"
    ],
    "labels": [
        "gen3"
    ],
    "pokedex": [
        "cobblemon.species.sableye.desc1",
        "cobblemon.species.sableye.desc2"
    ],
    "evolutions": [],
    "baseScale": 1.0,
    "hitbox": {
        "width": 1.0,
        "height": 1.0,
        "fixed": false
    },
    "baseFriendship": 35,
    "evYield": {
        "attack": 1,
        "defence": 1
    },
    "height": 5,
    "weight": 110
}