{
    "name": "salamence",
    "nationalPokedexNumber": 373,
    "primaryType": "dragon",
    "secondaryType": "flying",
    "abilities": [
        "intimidate",
        "h:moxie"
    ],
    "baseStats": {
        "hp": 95,
        "attack": 135,
        "defence": 80,
        "special_attack": 110,
        "special_defence": 80,
        "speed": 100
    },
    "catchRate": 45,
    "maleRatio": 0.5,
    "shoulderMountable": false,
    "forms": [
        {
            "name": "normal"
        },
        {
            "name": "mega",
            "abilities": [
                "aerilate"
            ],
            "baseStats": {
                "hp": 95,
                "attack": 145,
                "defence": 130,
                "special_attack": 120,
                "special_defence": 90,
                "speed": 120
            },
            "baseExperienceYield": 315,
            "moves": [
                "0:fly",
                "1:fly",
                "1:leer",
                "1:bite",
                "1:ember",
                "1:rage",
                "1:protect",
                "1:thunderfang",
                "1:firefang",
                "1:dragontail",
                "4:ember",
                "7:leer",
                "10:bite",
                "13:dragonbreath",
                "17:headbutt",
                "21:focusenergy",
                "25:crunch",
                "29:dragonclaw",
                "35:zenheadbutt",
                "42:scaryface",
                "49:flamethrower",
                "63:doubleedge",
                "tm:aerialace",
                "tm:attract",
                "tm:brickbreak",
                "tm:brutalswing",
                "tm:bulldoze",
                "tm:confide",
                "tm:cut",
                "tm:doubleteam",
                "tm:dragonclaw",
                "tm:dragontail",
                "tm:earthquake",
                "tm:facade",
                "tm:fireblast",
                "tm:flamethrower",
                "tm:fly",
                "tm:frustration",
                "tm:gigaimpact",
                "tm:hiddenpower",
                "tm:honeclaws",
                "tm:hyperbeam",
                "tm:incinerate",
                "tm:protect",
                "tm:raindance",
                "tm:rest",
                "tm:return",
                "tm:roar",
                "tm:rockslide",
                "tm:rocksmash",
                "tm:rocktomb",
                "tm:roost",
                "tm:round",
                "tm:secretpower",
                "tm:shadowclaw",
                "tm:sleeptalk",
                "tm:steelwing",
                "tm:stoneedge",
                "tm:strength",
                "tm:substitute",
                "tm:sunnyday",
                "tm:swagger",
                "tm:toxic",
                "tutor:aquatail",
                "tutor:defog",
                "tutor:dracometeor",
                "tutor:dragonpulse",
                "tutor:heatwave",
                "tutor:hypervoice",
                "tutor:irontail",
                "tutor:laserfocus",
                "tutor:outrage",
                "tutor:snore",
                "tutor:tailwind",
                "tutor:zenheadbutt"
            ],
            "labels": [
                "gen3",
                "mega_evolution",
                "pseudo_legendary"
            ],
            "pokedex": [
                "cobblemon.form.salamence-mega.desc1",
                "cobblemon.form.salamence-mega.desc2"
            ],
            "height": 18,
            "weight": 1126
        }
    ],
    "baseExperienceYield": 300,
    "experienceGroup": "slow",
    "eggCycles": 40,
    "eggGroups": [
        "dragon"
    ],
    "moves": [
        "0:fly",
        "1:fly",
        "1:leer",
        "1:bite",
        "1:ember",
        "1:rage",
        "1:protect",
        "1:dragonbreath",
        "1:dragontail",
        "15:headbutt",
        "20:scaryface",
        "25:crunch",
        "33:dragonclaw",
        "39:zenheadbutt",
        "46:focusenergy",
        "55:flamethrower",
        "64:outrage",
        "73:doubleedge",
        "tm:aerialace",
        "tm:airslash",
        "tm:attract",
        "tm:bodyslam",
        "tm:breakingswipe",
        "tm:brickbreak",
        "tm:brutalswing",
        "tm:bulldoze",
        "tm:captivate",
        "tm:confide",
        "tm:crunch",
        "tm:cut",
        "tm:doubleteam",
        "tm:dragonclaw",
        "tm:dragondance",
        "tm:dragonpulse",
        "tm:earthquake",
        "tm:endure",
        "tm:facade",
        "tm:fireblast",
        "tm:firefang",
        "tm:flamethrower",
        "tm:fly",
        "tm:focusenergy",
        "tm:frustration",
        "tm:gigaimpact",
        "tm:heatwave",
        "tm:hiddenpower",
        "tm:honeclaws",
        "tm:hurricane",
        "tm:hydropump",
        "tm:hyperbeam",
        "tm:hypervoice",
        "tm:incinerate",
        "tm:irondefense",
        "tm:irontail",
        "tm:naturalgift",
        "tm:outrage",
        "tm:protect",
        "tm:raindance",
        "tm:rest",
        "tm:return",
        "tm:roar",
        "tm:rockslide",
        "tm:rocksmash",
        "tm:rocktomb",
        "tm:roost",
        "tm:round",
        "tm:scaryface",
        "tm:secretpower",
        "tm:shadowclaw",
        "tm:sleeptalk",
        "tm:snore",
        "tm:steelwing",
        "tm:stoneedge",
        "tm:strength",
        "tm:substitute",
        "tm:sunnyday",
        "tm:swagger",
        "tm:swift",
        "tm:thunderfang",
        "tm:toxic",
        "tm:zenheadbutt",
        "tutor:aircutter",
        "tutor:aquatail",
        "tutor:defensecurl",
        "tutor:defog",
        "tutor:dracometeor",
        "tutor:dualwingbeat",
        "tutor:furycutter",
        "tutor:laserfocus",
        "tutor:mimic",
        "tutor:mudslap",
        "tutor:ominouswind",
        "tutor:rollout",
        "tutor:tailwind",
        "tutor:twister"
    ],
    "labels": [
        "gen3",
        "pseudo_legendary"
    ],
    "pokedex": [
        "cobblemon.species.salamence.desc1",
        "cobblemon.species.salamence.desc2"
    ],
    "preEvolution": "shelgon",
    "evolutions": [],
    "baseScale": 1.0,
    "hitbox": {
        "width": 1.0,
        "height": 1.0,
        "fixed": false
    },
    "baseFriendship": 35,
    "evYield": {
        "attack": 3
    },
    "height": 15,
    "weight": 1026
}