{
    "name": "solrock",
    "nationalPokedexNumber": 338,
    "primaryType": "rock",
    "secondaryType": "psychic",
    "abilities": [
        "levitate"
    ],
    "baseStats": {
        "hp": 90,
        "attack": 95,
        "defence": 85,
        "special_attack": 55,
        "special_defence": 65,
        "speed": 70
    },
    "catchRate": 45,
    "maleRatio": -1,
    "shoulderMountable": false,
    "forms": [],
    "baseExperienceYield": 161,
    "experienceGroup": "fast",
    "eggCycles": 25,
    "eggGroups": [
        "mineral"
    ],
    "moves": [
        "1:tackle",
        "1:rockthrow",
        "1:confusion",
        "1:harden",
        "1:morningsun",
        "1:flareblitz",
        "5:hypnosis",
        "10:rockpolish",
        "13:psywave",
        "15:rockslide",
        "17:embargo",
        "20:zenheadbutt",
        "25:cosmicpower",
        "30:psychic",
        "33:healblock",
        "35:stoneedge",
        "40:solarbeam",
        "45:wonderroom",
        "50:explosion",
        "tm:acrobatics",
        "tm:allyswitch",
        "tm:batonpass",
        "tm:bodyslam",
        "tm:bulldoze",
        "tm:calmmind",
        "tm:chargebeam",
        "tm:confide",
        "tm:cosmicpower",
        "tm:doubleteam",
        "tm:dreameater",
        "tm:earthpower",
        "tm:earthquake",
        "tm:embargo",
        "tm:endure",
        "tm:facade",
        "tm:fireblast",
        "tm:firespin",
        "tm:flamethrower",
        "tm:flareblitz",
        "tm:flash",
        "tm:frustration",
        "tm:gigaimpact",
        "tm:grassknot",
        "tm:gyroball",
        "tm:heatwave",
        "tm:helpinghand",
        "tm:hiddenpower",
        "tm:hyperbeam",
        "tm:incinerate",
        "tm:irondefense",
        "tm:ironhead",
        "tm:lightscreen",
        "tm:naturalgift",
        "tm:overheat",
        "tm:powerswap",
        "tm:protect",
        "tm:psychic",
        "tm:psychicterrain",
        "tm:psychup",
        "tm:psyshock",
        "tm:raindance",
        "tm:reflect",
        "tm:rest",
        "tm:return",
        "tm:rockblast",
        "tm:rockslide",
        "tm:rocktomb",
        "tm:round",
        "tm:safeguard",
        "tm:sandstorm",
        "tm:sandtomb",
        "tm:secretpower",
        "tm:selfdestruct",
        "tm:shadowball",
        "tm:skillswap",
        "tm:sleeptalk",
        "tm:smackdown",
        "tm:snore",
        "tm:solarbeam",
        "tm:stealthrock",
        "tm:stompingtantrum",
        "tm:stoneedge",
        "tm:storedpower",
        "tm:substitute",
        "tm:sunnyday",
        "tm:swagger",
        "tm:swift",
        "tm:swordsdance",
        "tm:toxic",
        "tm:trickroom",
        "tm:weatherball",
        "tm:willowisp",
        "tm:wonderroom",
        "tm:zenheadbutt",
        "tutor:ancientpower",
        "tutor:defensecurl",
        "tutor:doubleedge",
        "tutor:gravity",
        "tutor:laserfocus",
        "tutor:magiccoat",
        "tutor:meteorbeam",
        "tutor:mimic",
        "tutor:painsplit",
        "tutor:recycle",
        "tutor:rollout",
        "tutor:signalbeam",
        "tutor:telekinesis"
    ],
    "labels": [
        "gen3"
    ],
    "pokedex": [
        "cobblemon.species.solrock.desc1",
        "cobblemon.species.solrock.desc2"
    ],
    "evolutions": [],
    "baseScale": 1.0,
    "hitbox": {
        "width": 1.0,
        "height": 1.0,
        "fixed": false
    },
    "baseFriendship": 50,
    "evYield": {
        "attack": 2
    },
    "height": 12,
    "weight": 1540
}