{
    "name": "vigoroth",
    "nationalPokedexNumber": 288,
    "primaryType": "normal",
    "abilities": [
        "vitalspirit"
    ],
    "baseStats": {
        "hp": 80,
        "attack": 80,
        "defence": 80,
        "special_attack": 55,
        "special_defence": 55,
        "speed": 90
    },
    "catchRate": 120,
    "maleRatio": 0.5,
    "shoulderMountable": false,
    "forms": [],
    "baseExperienceYield": 154,
    "experienceGroup": "slow",
    "eggCycles": 15,
    "eggGroups": [
        "field"
    ],
    "moves": [
        "1:scratch",
        "1:focusenergy",
        "1:reversal",
        "1:encore",
        "1:uproar",
        "6:encore",
        "9:uproar",
        "14:furyswipes",
        "17:endure",
        "23:slash",
        "27:chipaway",
        "33:counter",
        "37:focuspunch",
        "43:reversal",
        "tm:aerialace",
        "tm:attract",
        "tm:blizzard",
        "tm:brickbreak",
        "tm:bulkup",
        "tm:bulldoze",
        "tm:captivate",
        "tm:confide",
        "tm:cut",
        "tm:doubleteam",
        "tm:earthquake",
        "tm:facade",
        "tm:fireblast",
        "tm:flamethrower",
        "tm:fling",
        "tm:focusblast",
        "tm:frustration",
        "tm:hiddenpower",
        "tm:honeclaws",
        "tm:icebeam",
        "tm:incinerate",
        "tm:lowsweep",
        "tm:naturalgift",
        "tm:poweruppunch",
        "tm:protect",
        "tm:raindance",
        "tm:rest",
        "tm:retaliate",
        "tm:return",
        "tm:roar",
        "tm:rockclimb",
        "tm:rockslide",
        "tm:rocksmash",
        "tm:rocktomb",
        "tm:round",
        "tm:secretpower",
        "tm:shadowball",
        "tm:shadowclaw",
        "tm:sleeptalk",
        "tm:solarbeam",
        "tm:strength",
        "tm:substitute",
        "tm:sunnyday",
        "tm:swagger",
        "tm:taunt",
        "tm:thunder",
        "tm:thunderbolt",
        "tm:toxic",
        "tm:workup",
        "tutor:afteryou",
        "tutor:bodyslam",
        "tutor:covet",
        "tutor:doubleedge",
        "tutor:dynamicpunch",
        "tutor:firepunch",
        "tutor:focuspunch",
        "tutor:furycutter",
        "tutor:gunkshot",
        "tutor:headbutt",
        "tutor:icepunch",
        "tutor:icywind",
        "tutor:lowkick",
        "tutor:megakick",
        "tutor:megapunch",
        "tutor:mimic",
        "tutor:mudslap",
        "tutor:seismictoss",
        "tutor:shockwave",
        "tutor:snore",
        "tutor:suckerpunch",
        "tutor:thunderpunch",
        "tutor:uproar",
        "tutor:waterpulse"
    ],
    "labels": [
        "gen3"
    ],
    "pokedex": [
        "cobblemon.species.vigoroth.desc1",
        "cobblemon.species.vigoroth.desc2"
    ],
    "preEvolution": "slakoth",
    "evolutions": [
        {
            "id": "vigoroth_slaking",
            "variant": "level_up",
            "result": "slaking",
            "consumeHeldItem": false,
            "learnableMoves": [],
            "requirements": [
                {
                    "variant": "level",
                    "minLevel": 36
                }
            ]
        }
    ],
    "baseScale": 1.0,
    "hitbox": {
        "width": 1.0,
        "height": 1.0,
        "fixed": false
    },
    "baseFriendship": 70,
    "evYield": {
        "speed": 2
    },
    "height": 14,
    "weight": 465
}