{
    "name": "whismur",
    "nationalPokedexNumber": 293,
    "primaryType": "normal",
    "abilities": [
        "soundproof",
        "h:rattled"
    ],
    "baseStats": {
        "hp": 64,
        "attack": 51,
        "defence": 23,
        "special_attack": 51,
        "special_defence": 23,
        "speed": 28
    },
    "catchRate": 190,
    "maleRatio": 0.5,
    "shoulderMountable": false,
    "forms": [],
    "baseExperienceYield": 48,
    "experienceGroup": "mediumslow",
    "eggCycles": 20,
    "eggGroups": [
        "monster",
        "field"
    ],
    "moves": [
        "1:pound",
        "1:astonish",
        "5:echoedvoice",
        "10:howl",
        "15:rest",
        "15:sleeptalk",
        "21:stomp",
        "25:roar",
        "30:supersonic",
        "35:uproar",
        "40:screech",
        "43:synchronoise",
        "45:hypervoice",
        "egg:circlethrow",
        "egg:disarmingvoice",
        "egg:endeavor",
        "egg:extrasensory",
        "egg:hammerarm",
        "egg:smellingsalts",
        "egg:smokescreen",
        "egg:takedown",
        "egg:whirlwind",
        "tm:attract",
        "tm:blizzard",
        "tm:bodyslam",
        "tm:captivate",
        "tm:confide",
        "tm:doubleteam",
        "tm:endure",
        "tm:facade",
        "tm:faketears",
        "tm:fireblast",
        "tm:firepunch",
        "tm:flamethrower",
        "tm:fling",
        "tm:frustration",
        "tm:hiddenpower",
        "tm:hypervoice",
        "tm:icebeam",
        "tm:icepunch",
        "tm:icywind",
        "tm:incinerate",
        "tm:megakick",
        "tm:megapunch",
        "tm:naturalgift",
        "tm:protect",
        "tm:raindance",
        "tm:rest",
        "tm:retaliate",
        "tm:return",
        "tm:round",
        "tm:screech",
        "tm:secretpower",
        "tm:shadowball",
        "tm:sleeptalk",
        "tm:snore",
        "tm:solarbeam",
        "tm:substitute",
        "tm:sunnyday",
        "tm:swagger",
        "tm:thunderpunch",
        "tm:toxic",
        "tm:uproar",
        "tm:workup",
        "tm:zenheadbutt",
        "tutor:counter",
        "tutor:defensecurl",
        "tutor:doubleedge",
        "tutor:dynamicpunch",
        "tutor:headbutt",
        "tutor:mimic",
        "tutor:mudslap",
        "tutor:psychup",
        "tutor:rollout",
        "tutor:seismictoss",
        "tutor:shockwave",
        "tutor:waterpulse"
    ],
    "labels": [
        "gen3"
    ],
    "pokedex": [
        "cobblemon.species.whismur.desc1",
        "cobblemon.species.whismur.desc2"
    ],
    "evolutions": [
        {
            "id": "whismur_loudred",
            "variant": "level_up",
            "result": "loudred",
            "consumeHeldItem": false,
            "learnableMoves": [],
            "requirements": [
                {
                    "variant": "level",
                    "minLevel": 20
                }
            ]
        }
    ],
    "baseScale": 1.0,
    "hitbox": {
        "width": 1.0,
        "height": 1.0,
        "fixed": false
    },
    "baseFriendship": 50,
    "evYield": {
        "hp": 1
    },
    "height": 6,
    "weight": 163
}