{
	"texture_size": [64, 64],
	"textures": {
		"0": "cobblemon:blocks/healing_machine",
		"particle": "cobblemon:blocks/healing_machine"
	},
	"elements": [
		{
			"from": [2.5, 10, 14],
			"to": [13.5, 15, 16],
			"rotation": {"angle": 0, "axis": "y", "origin": [8, 0, 7.5]},
			"faces": {
				"north": {"uv": [0.5, 7, 3.25, 8.25], "texture": "#0"},
				"east": {"uv": [0, 7, 0.5, 8.25], "texture": "#0"},
				"south": {"uv": [3.75, 7, 6.5, 8.25], "texture": "#0"},
				"west": {"uv": [3.25, 7, 3.75, 8.25], "texture": "#0"},
				"up": {"uv": [3.25, 7, 0.5, 6.5], "texture": "#0"},
				"down": {"uv": [6, 6.5, 3.25, 7], "texture": "#0"}
			}
		},
		{
			"from": [1.5, 0, 0],
			"to": [14.5, 10, 16],
			"rotation": {"angle": 0, "axis": "y", "origin": [8, 0, 7.5]},
			"faces": {
				"north": {"uv": [4, 4, 7.25, 6.5], "texture": "#0"},
				"east": {"uv": [0, 4, 4, 6.5], "texture": "#0"},
				"south": {"uv": [11.25, 4, 14.5, 6.5], "texture": "#0"},
				"west": {"uv": [7.25, 4, 11.25, 6.5], "texture": "#0"},
				"up": {"uv": [7.25, 4, 4, 0], "texture": "#0"},
				"down": {"uv": [10.5, 0, 7.25, 4], "texture": "#0"}
			}
		},
		{
			"from": [1.5, 10, 0],
			"to": [14.5, 12, 0],
			"rotation": {"angle": 0, "axis": "y", "origin": [8, 0, 7.5]},
			"faces": {
				"north": {"uv": [6, 6.5, 9.25, 7], "texture": "#0"},
				"east": {"uv": [6, 6.5, 6, 7], "texture": "#0"},
				"south": {"uv": [9.25, 6.5, 12.5, 7], "texture": "#0"},
				"west": {"uv": [9.25, 6.5, 9.25, 7], "texture": "#0"},
				"up": {"uv": [9.25, 6.5, 6, 6.5], "texture": "#0"},
				"down": {"uv": [12.5, 6.5, 9.25, 6.5], "texture": "#0"}
			}
		}
	],
	"display": {},
	"groups": [
		{
			"name": "pokemon_healing_machine",
			"origin": [0, 0, 0],
			"color": 0,
			"children": [0, 1, 2]
		}
	]
}